\boolfalse {citerequest}\boolfalse {citetracker}\boolfalse {pagetracker}\boolfalse {backtracker}\relax 
\babel@toc {english}{}
\defcounter {refsection}{0}\relax 
\addvspace {10\p@ }
\defcounter {refsection}{0}\relax 
\addvspace {10\p@ }
\defcounter {refsection}{0}\relax 
\contentsline {figure}{\numberline {2.1}{\ignorespaces Annual offshore wind installations by country and cumulative capacity (MW) \parencite {WindEurope}.\relax }}{4}{figure.caption.4}% 
\defcounter {refsection}{0}\relax 
\contentsline {figure}{\numberline {2.2}{\ignorespaces Share of substructure types for grid-connected wind turbines at the end of 2018 \parencite {WindEurope}.\relax }}{5}{figure.caption.5}% 
\defcounter {refsection}{0}\relax 
\contentsline {figure}{\numberline {2.3}{\ignorespaces Phases of one water hammer blow \parencite {Winkes2017}.\relax }}{9}{figure.caption.6}% 
\defcounter {refsection}{0}\relax 
\addvspace {10\p@ }
\defcounter {refsection}{0}\relax 
\contentsline {figure}{\numberline {3.1}{\ignorespaces Soil mesh.\relax }}{11}{figure.caption.7}% 
\defcounter {refsection}{0}\relax 
\contentsline {figure}{\numberline {3.2}{\ignorespaces Laboratory results from the sand soil at the north sea deviatoric stress and volumetric strain.\relax }}{12}{figure.caption.8}% 
\defcounter {refsection}{0}\relax 
\contentsline {figure}{\numberline {3.3}{\ignorespaces Laboratory results from the sand soil at the north sea p-q diagram and Morh circle.\relax }}{13}{figure.caption.9}% 
\defcounter {refsection}{0}\relax 
\contentsline {figure}{\numberline {3.5}{\ignorespaces Plaxis simulation p-q diagram and Mohr circle.\relax }}{14}{figure.caption.11}% 
\defcounter {refsection}{0}\relax 
\contentsline {figure}{\numberline {3.4}{\ignorespaces Plaxis simulation deviatoric stress and volumetric strain.\relax }}{14}{figure.caption.10}% 
\defcounter {refsection}{0}\relax 
\contentsline {figure}{\numberline {3.6}{\ignorespaces Force input signal.\relax }}{17}{figure.caption.12}% 
\defcounter {refsection}{0}\relax 
\contentsline {figure}{\numberline {3.7}{\ignorespaces Initial phase $K_{0}$ state.\relax }}{18}{figure.caption.13}% 
\defcounter {refsection}{0}\relax 
\contentsline {figure}{\numberline {3.8}{\ignorespaces Calculation phases.\relax }}{19}{figure.caption.14}% 
\defcounter {refsection}{0}\relax 
\contentsline {figure}{\numberline {3.9}{\ignorespaces Principal effective stresses $\sigma ^{'}_{2}$ principal directions.\relax }}{20}{figure.caption.15}% 
\defcounter {refsection}{0}\relax 
\contentsline {figure}{\numberline {3.10}{\ignorespaces Total displacements $|u|$.\relax }}{20}{figure.caption.16}% 
\defcounter {refsection}{0}\relax 
\contentsline {figure}{\numberline {3.11}{\ignorespaces $\sigma ^{'}_{zz}$ stresses on the horizontal plane at the pile toe height.\relax }}{21}{figure.caption.17}% 
\defcounter {refsection}{0}\relax 
\contentsline {figure}{\numberline {3.12}{\ignorespaces $\sigma ^{'}_{zz}$ stresses on the vertical plane z-x.\relax }}{22}{figure.caption.18}% 
\defcounter {refsection}{0}\relax 
\contentsline {subfigure}{\numberline {(a)}{\ignorespaces {Pile inclination in z-x plane.}}}{23}{subfigure.13.1}% 
\defcounter {refsection}{0}\relax 
\contentsline {subfigure}{\numberline {(b)}{\ignorespaces {Pile points designation.}}}{23}{subfigure.13.2}% 
\defcounter {refsection}{0}\relax 
\contentsline {figure}{\numberline {3.14}{\ignorespaces Mass center $u_{z}$ displacements.\relax }}{24}{figure.caption.20}% 
\defcounter {refsection}{0}\relax 
\contentsline {figure}{\numberline {3.15}{\ignorespaces Pile toe mean $u_{z}$ displacements.\relax }}{25}{figure.caption.21}% 
\defcounter {refsection}{0}\relax 
\contentsline {figure}{\numberline {3.16}{\ignorespaces Pile mass center $u_{x}$ displacements.\relax }}{26}{figure.caption.22}% 
\defcounter {refsection}{0}\relax 
\contentsline {figure}{\numberline {3.17}{\ignorespaces Pile final inclination calculation method.\relax }}{27}{figure.caption.23}% 
\defcounter {refsection}{0}\relax 
\contentsline {figure}{\numberline {3.18}{\ignorespaces Change in the pile inclination $\Delta \alpha $ per blow for all models.\relax }}{27}{figure.caption.24}% 
\defcounter {refsection}{0}\relax 
\contentsline {figure}{\numberline {3.19}{\ignorespaces Planes A-A and B-B.\relax }}{29}{figure.caption.25}% 
\defcounter {refsection}{0}\relax 
\contentsline {figure}{\numberline {3.20}{\ignorespaces Displacements $u_{x}$ on plane A-A.\relax }}{29}{figure.caption.26}% 
\defcounter {refsection}{0}\relax 
\contentsline {figure}{\numberline {3.21}{\ignorespaces Displacements $u_{y}$ on plane B-B.\relax }}{30}{figure.caption.27}% 
\defcounter {refsection}{0}\relax 
\contentsline {figure}{\numberline {3.22}{\ignorespaces Straight pile model inclination change $\Delta \alpha $ per blow in z-x and z-y planes.\relax }}{31}{figure.caption.28}% 
\defcounter {refsection}{0}\relax 
\contentsline {figure}{\numberline {3.23}{\ignorespaces Straight pile model void ratio after the first blow.\relax }}{31}{figure.caption.29}% 
\defcounter {refsection}{0}\relax 
\contentsline {figure}{\numberline {3.24}{\ignorespaces Straight pile model inclination change $\Delta \alpha $ per blow in z-x and z-y planes.\relax }}{32}{figure.caption.30}% 
\defcounter {refsection}{0}\relax 
\contentsline {figure}{\numberline {3.25}{\ignorespaces Effective stress $\sigma ^{'}_{zz}$ after the first blow.\relax }}{32}{figure.caption.31}% 
\defcounter {refsection}{0}\relax 
\addvspace {10\p@ }
\defcounter {refsection}{0}\relax 
\addvspace {10\p@ }
