%!PS-Adobe-3.0 EPSF-3.0
%%Creator: (MATLAB, The Mathworks, Inc. Version 9.5.0.1067069 \(R2018b\) Update 4. Operating System: Windows 10)
%%Title: ./Mass_center_ux_displacements.eps
%%CreationDate: 2019-05-16T09:52:09
%%Pages: (atend)
%%BoundingBox:     6     5   386   305
%%LanguageLevel: 3
%%EndComments
%%BeginProlog
%%BeginResource: procset (Apache XML Graphics Std ProcSet) 1.2 0
%%Version: 1.2 0
%%Copyright: (Copyright 2001-2003,2010 The Apache Software Foundation. License terms: http://www.apache.org/licenses/LICENSE-2.0)
/bd{bind def}bind def
/ld{load def}bd
/GR/grestore ld
/GS/gsave ld
/RM/rmoveto ld
/C/curveto ld
/t/show ld
/L/lineto ld
/ML/setmiterlimit ld
/CT/concat ld
/f/fill ld
/N/newpath ld
/S/stroke ld
/CC/setcmykcolor ld
/A/ashow ld
/cp/closepath ld
/RC/setrgbcolor ld
/LJ/setlinejoin ld
/GC/setgray ld
/LW/setlinewidth ld
/M/moveto ld
/re {4 2 roll M
1 index 0 rlineto
0 exch rlineto
neg 0 rlineto
cp } bd
/_ctm matrix def
/_tm matrix def
/BT { _ctm currentmatrix pop matrix _tm copy pop 0 0 moveto } bd
/ET { _ctm setmatrix } bd
/iTm { _ctm setmatrix _tm concat } bd
/Tm { _tm astore pop iTm 0 0 moveto } bd
/ux 0.0 def
/uy 0.0 def
/F {
  /Tp exch def
  /Tf exch def
  Tf findfont Tp scalefont setfont
  /cf Tf def  /cs Tp def
} bd
/ULS {currentpoint /uy exch def /ux exch def} bd
/ULE {
  /Tcx currentpoint pop def
  gsave
  newpath
  cf findfont cs scalefont dup
  /FontMatrix get 0 get /Ts exch def /FontInfo get dup
  /UnderlinePosition get Ts mul /To exch def
  /UnderlineThickness get Ts mul /Tt exch def
  ux uy To add moveto  Tcx uy To add lineto
  Tt setlinewidth stroke
  grestore
} bd
/OLE {
  /Tcx currentpoint pop def
  gsave
  newpath
  cf findfont cs scalefont dup
  /FontMatrix get 0 get /Ts exch def /FontInfo get dup
  /UnderlinePosition get Ts mul /To exch def
  /UnderlineThickness get Ts mul /Tt exch def
  ux uy To add cs add moveto Tcx uy To add cs add lineto
  Tt setlinewidth stroke
  grestore
} bd
/SOE {
  /Tcx currentpoint pop def
  gsave
  newpath
  cf findfont cs scalefont dup
  /FontMatrix get 0 get /Ts exch def /FontInfo get dup
  /UnderlinePosition get Ts mul /To exch def
  /UnderlineThickness get Ts mul /Tt exch def
  ux uy To add cs 10 mul 26 idiv add moveto Tcx uy To add cs 10 mul 26 idiv add lineto
  Tt setlinewidth stroke
  grestore
} bd
/QT {
/Y22 exch store
/X22 exch store
/Y21 exch store
/X21 exch store
currentpoint
/Y21 load 2 mul add 3 div exch
/X21 load 2 mul add 3 div exch
/X21 load 2 mul /X22 load add 3 div
/Y21 load 2 mul /Y22 load add 3 div
/X22 load /Y22 load curveto
} bd
/SSPD {
dup length /d exch dict def
{
/v exch def
/k exch def
currentpagedevice k known {
/cpdv currentpagedevice k get def
v cpdv ne {
/upd false def
/nullv v type /nulltype eq def
/nullcpdv cpdv type /nulltype eq def
nullv nullcpdv or
{
/upd true def
} {
/sametype v type cpdv type eq def
sametype {
v type /arraytype eq {
/vlen v length def
/cpdvlen cpdv length def
vlen cpdvlen eq {
0 1 vlen 1 sub {
/i exch def
/obj v i get def
/cpdobj cpdv i get def
obj cpdobj ne {
/upd true def
exit
} if
} for
} {
/upd true def
} ifelse
} {
v type /dicttype eq {
v {
/dv exch def
/dk exch def
/cpddv cpdv dk get def
dv cpddv ne {
/upd true def
exit
} if
} forall
} {
/upd true def
} ifelse
} ifelse
} if
} ifelse
upd true eq {
d k v put
} if
} if
} if
} forall
d length 0 gt {
d setpagedevice
} if
} bd
/RE { % /NewFontName [NewEncodingArray] /FontName RE -
  findfont dup length dict begin
  {
    1 index /FID ne
    {def} {pop pop} ifelse
  } forall
  /Encoding exch def
  /FontName 1 index def
  currentdict definefont pop
  end
} bind def
%%EndResource
%%BeginResource: procset (Apache XML Graphics EPS ProcSet) 1.0 0
%%Version: 1.0 0
%%Copyright: (Copyright 2002-2003 The Apache Software Foundation. License terms: http://www.apache.org/licenses/LICENSE-2.0)
/BeginEPSF { %def
/b4_Inc_state save def         % Save state for cleanup
/dict_count countdictstack def % Count objects on dict stack
/op_count count 1 sub def      % Count objects on operand stack
userdict begin                 % Push userdict on dict stack
/showpage { } def              % Redefine showpage, { } = null proc
0 setgray 0 setlinecap         % Prepare graphics state
1 setlinewidth 0 setlinejoin
10 setmiterlimit [ ] 0 setdash newpath
/languagelevel where           % If level not equal to 1 then
{pop languagelevel             % set strokeadjust and
1 ne                           % overprint to their defaults.
{false setstrokeadjust false setoverprint
} if
} if
} bd
/EndEPSF { %def
count op_count sub {pop} repeat            % Clean up stacks
countdictstack dict_count sub {end} repeat
b4_Inc_state restore
} bd
%%EndResource
%FOPBeginFontDict
%%IncludeResource: font Courier-Oblique
%%IncludeResource: font Courier-BoldOblique
%%IncludeResource: font Courier-Bold
%%IncludeResource: font ZapfDingbats
%%IncludeResource: font Symbol
%%IncludeResource: font Helvetica
%%IncludeResource: font Helvetica-Oblique
%%IncludeResource: font Helvetica-Bold
%%IncludeResource: font Helvetica-BoldOblique
%%IncludeResource: font Times-Roman
%%IncludeResource: font Times-Italic
%%IncludeResource: font Times-Bold
%%IncludeResource: font Times-BoldItalic
%%IncludeResource: font Courier
%FOPEndFontDict
%%BeginResource: encoding WinAnsiEncoding
/WinAnsiEncoding [
/.notdef /.notdef /.notdef /.notdef /.notdef
/.notdef /.notdef /.notdef /.notdef /.notdef
/.notdef /.notdef /.notdef /.notdef /.notdef
/.notdef /.notdef /.notdef /.notdef /.notdef
/.notdef /.notdef /.notdef /.notdef /.notdef
/.notdef /.notdef /.notdef /.notdef /.notdef
/.notdef /.notdef /space /exclam /quotedbl
/numbersign /dollar /percent /ampersand /quotesingle
/parenleft /parenright /asterisk /plus /comma
/hyphen /period /slash /zero /one
/two /three /four /five /six
/seven /eight /nine /colon /semicolon
/less /equal /greater /question /at
/A /B /C /D /E
/F /G /H /I /J
/K /L /M /N /O
/P /Q /R /S /T
/U /V /W /X /Y
/Z /bracketleft /backslash /bracketright /asciicircum
/underscore /quoteleft /a /b /c
/d /e /f /g /h
/i /j /k /l /m
/n /o /p /q /r
/s /t /u /v /w
/x /y /z /braceleft /bar
/braceright /asciitilde /bullet /Euro /bullet
/quotesinglbase /florin /quotedblbase /ellipsis /dagger
/daggerdbl /circumflex /perthousand /Scaron /guilsinglleft
/OE /bullet /Zcaron /bullet /bullet
/quoteleft /quoteright /quotedblleft /quotedblright /bullet
/endash /emdash /asciitilde /trademark /scaron
/guilsinglright /oe /bullet /zcaron /Ydieresis
/space /exclamdown /cent /sterling /currency
/yen /brokenbar /section /dieresis /copyright
/ordfeminine /guillemotleft /logicalnot /sfthyphen /registered
/macron /degree /plusminus /twosuperior /threesuperior
/acute /mu /paragraph /middot /cedilla
/onesuperior /ordmasculine /guillemotright /onequarter /onehalf
/threequarters /questiondown /Agrave /Aacute /Acircumflex
/Atilde /Adieresis /Aring /AE /Ccedilla
/Egrave /Eacute /Ecircumflex /Edieresis /Igrave
/Iacute /Icircumflex /Idieresis /Eth /Ntilde
/Ograve /Oacute /Ocircumflex /Otilde /Odieresis
/multiply /Oslash /Ugrave /Uacute /Ucircumflex
/Udieresis /Yacute /Thorn /germandbls /agrave
/aacute /acircumflex /atilde /adieresis /aring
/ae /ccedilla /egrave /eacute /ecircumflex
/edieresis /igrave /iacute /icircumflex /idieresis
/eth /ntilde /ograve /oacute /ocircumflex
/otilde /odieresis /divide /oslash /ugrave
/uacute /ucircumflex /udieresis /yacute /thorn
/ydieresis
] def
%%EndResource
%FOPBeginFontReencode
/Courier-Oblique findfont
dup length dict begin
  {1 index /FID ne {def} {pop pop} ifelse} forall
  /Encoding WinAnsiEncoding def
  currentdict
end
/Courier-Oblique exch definefont pop
/Courier-BoldOblique findfont
dup length dict begin
  {1 index /FID ne {def} {pop pop} ifelse} forall
  /Encoding WinAnsiEncoding def
  currentdict
end
/Courier-BoldOblique exch definefont pop
/Courier-Bold findfont
dup length dict begin
  {1 index /FID ne {def} {pop pop} ifelse} forall
  /Encoding WinAnsiEncoding def
  currentdict
end
/Courier-Bold exch definefont pop
/Helvetica findfont
dup length dict begin
  {1 index /FID ne {def} {pop pop} ifelse} forall
  /Encoding WinAnsiEncoding def
  currentdict
end
/Helvetica exch definefont pop
/Helvetica-Oblique findfont
dup length dict begin
  {1 index /FID ne {def} {pop pop} ifelse} forall
  /Encoding WinAnsiEncoding def
  currentdict
end
/Helvetica-Oblique exch definefont pop
/Helvetica-Bold findfont
dup length dict begin
  {1 index /FID ne {def} {pop pop} ifelse} forall
  /Encoding WinAnsiEncoding def
  currentdict
end
/Helvetica-Bold exch definefont pop
/Helvetica-BoldOblique findfont
dup length dict begin
  {1 index /FID ne {def} {pop pop} ifelse} forall
  /Encoding WinAnsiEncoding def
  currentdict
end
/Helvetica-BoldOblique exch definefont pop
/Times-Roman findfont
dup length dict begin
  {1 index /FID ne {def} {pop pop} ifelse} forall
  /Encoding WinAnsiEncoding def
  currentdict
end
/Times-Roman exch definefont pop
/Times-Italic findfont
dup length dict begin
  {1 index /FID ne {def} {pop pop} ifelse} forall
  /Encoding WinAnsiEncoding def
  currentdict
end
/Times-Italic exch definefont pop
/Times-Bold findfont
dup length dict begin
  {1 index /FID ne {def} {pop pop} ifelse} forall
  /Encoding WinAnsiEncoding def
  currentdict
end
/Times-Bold exch definefont pop
/Times-BoldItalic findfont
dup length dict begin
  {1 index /FID ne {def} {pop pop} ifelse} forall
  /Encoding WinAnsiEncoding def
  currentdict
end
/Times-BoldItalic exch definefont pop
/Courier findfont
dup length dict begin
  {1 index /FID ne {def} {pop pop} ifelse} forall
  /Encoding WinAnsiEncoding def
  currentdict
end
/Courier exch definefont pop
%FOPEndFontReencode
%%EndProlog
%%Page: 1 1
%%PageBoundingBox: 0 0 420 315
%%BeginPageSetup
[1 0 0 -1 0 315] CT
%%EndPageSetup
GS
[0.6 0 0 0.6 0 0] CT
1 GC
N
0 0 700 525 re
f
GR
GS
[0.6 0 0 0.6 0 0] CT
1 GC
N
0 0 700 525 re
f
GR
GS
[0.6 0 0 0.6 0 0] CT
1 GC
N
91 467 M
634 467 L
634 39 L
91 39 L
cp
f
GR
GS
[0.6 0 0 0.6 0 0] CT
0.873 GC
1 LJ
0.833 LW
N
91 467 M
91 39 L
S
GR
GS
[0.6 0 0 0.6 0 0] CT
0.873 GC
1 LJ
0.833 LW
N
181.5 467 M
181.5 39 L
S
GR
GS
[0.6 0 0 0.6 0 0] CT
0.873 GC
1 LJ
0.833 LW
N
272 467 M
272 39 L
S
GR
GS
[0.6 0 0 0.6 0 0] CT
0.873 GC
1 LJ
0.833 LW
N
362.5 467 M
362.5 39 L
S
GR
GS
[0.6 0 0 0.6 0 0] CT
0.873 GC
1 LJ
0.833 LW
N
453 467 M
453 39 L
S
GR
GS
[0.6 0 0 0.6 0 0] CT
0.873 GC
1 LJ
0.833 LW
N
543.5 467 M
543.5 39 L
S
GR
GS
[0.6 0 0 0.6 0 0] CT
0.873 GC
1 LJ
0.833 LW
N
634 467 M
634 39 L
S
GR
GS
[0.6 0 0 0.6 0 0] CT
0.873 GC
1 LJ
0.833 LW
N
634 467 M
91 467 L
S
GR
GS
[0.6 0 0 0.6 0 0] CT
0.873 GC
1 LJ
0.833 LW
N
634 419.444 M
91 419.444 L
S
GR
GS
[0.6 0 0 0.6 0 0] CT
0.873 GC
1 LJ
0.833 LW
N
634 371.889 M
91 371.889 L
S
GR
GS
[0.6 0 0 0.6 0 0] CT
0.873 GC
1 LJ
0.833 LW
N
634 324.333 M
91 324.333 L
S
GR
GS
[0.6 0 0 0.6 0 0] CT
0.873 GC
1 LJ
0.833 LW
N
634 276.778 M
91 276.778 L
S
GR
GS
[0.6 0 0 0.6 0 0] CT
0.873 GC
1 LJ
0.833 LW
N
634 229.222 M
91 229.222 L
S
GR
GS
[0.6 0 0 0.6 0 0] CT
0.873 GC
1 LJ
0.833 LW
N
634 181.667 M
91 181.667 L
S
GR
GS
[0.6 0 0 0.6 0 0] CT
0.873 GC
1 LJ
0.833 LW
N
634 134.111 M
91 134.111 L
S
GR
GS
[0.6 0 0 0.6 0 0] CT
0.873 GC
1 LJ
0.833 LW
N
634 86.556 M
91 86.556 L
S
GR
GS
[0.6 0 0 0.6 0 0] CT
0.873 GC
1 LJ
0.833 LW
N
634 39 M
91 39 L
S
GR
GS
[0.6 0 0 0.6 0 0] CT
0.149 GC
2 setlinecap
1 LJ
0.833 LW
N
91 467 M
634 467 L
S
GR
GS
[0.6 0 0 0.6 0 0] CT
0.149 GC
2 setlinecap
1 LJ
0.833 LW
N
91 467 M
91 461.57 L
S
GR
GS
[0.6 0 0 0.6 0 0] CT
0.149 GC
2 setlinecap
1 LJ
0.833 LW
N
181.5 467 M
181.5 461.57 L
S
GR
GS
[0.6 0 0 0.6 0 0] CT
0.149 GC
2 setlinecap
1 LJ
0.833 LW
N
272 467 M
272 461.57 L
S
GR
GS
[0.6 0 0 0.6 0 0] CT
0.149 GC
2 setlinecap
1 LJ
0.833 LW
N
362.5 467 M
362.5 461.57 L
S
GR
GS
[0.6 0 0 0.6 0 0] CT
0.149 GC
2 setlinecap
1 LJ
0.833 LW
N
453 467 M
453 461.57 L
S
GR
GS
[0.6 0 0 0.6 0 0] CT
0.149 GC
2 setlinecap
1 LJ
0.833 LW
N
543.5 467 M
543.5 461.57 L
S
GR
GS
[0.6 0 0 0.6 0 0] CT
0.149 GC
2 setlinecap
1 LJ
0.833 LW
N
634 467 M
634 461.57 L
S
GR
GS
[0.6 0 0 0.6 54.6 284.19999] CT
0.149 GC
/Helvetica 16.667 F
GS
[1 0 0 1 0 0] CT
-5 17 moveto 
1 -1 scale
(0) t 
GR
GR
GS
[0.6 0 0 0.6 108.9 284.19999] CT
0.149 GC
/Helvetica 16.667 F
GS
[1 0 0 1 0 0] CT
-5 17 moveto 
1 -1 scale
(2) t 
GR
GR
GS
[0.6 0 0 0.6 163.2 284.19999] CT
0.149 GC
/Helvetica 16.667 F
GS
[1 0 0 1 0 0] CT
-5 17 moveto 
1 -1 scale
(4) t 
GR
GR
GS
[0.6 0 0 0.6 217.5 284.19999] CT
0.149 GC
/Helvetica 16.667 F
GS
[1 0 0 1 0 0] CT
-5 17 moveto 
1 -1 scale
(6) t 
GR
GR
GS
[0.6 0 0 0.6 271.8 284.19999] CT
0.149 GC
/Helvetica 16.667 F
GS
[1 0 0 1 0 0] CT
-5 17 moveto 
1 -1 scale
(8) t 
GR
GR
GS
[0.6 0 0 0.6 326.1 284.19999] CT
0.149 GC
/Helvetica 16.667 F
GS
[1 0 0 1 0 0] CT
-9.5 17 moveto 
1 -1 scale
(10) t 
GR
GR
GS
[0.6 0 0 0.6 380.4 284.19999] CT
0.149 GC
/Helvetica 16.667 F
GS
[1 0 0 1 0 0] CT
-9.5 17 moveto 
1 -1 scale
(12) t 
GR
GR
GS
[0.6 0 0 0.6 217.50015 297.79999] CT
0.149 GC
N
-71.598 15.4 M
-71.77 15.4 -71.77 15.166 QT
-71.755 15.119 -71.731 15.009 QT
-71.708 14.9 -71.661 14.83 QT
-71.614 14.759 -71.536 14.759 QT
-70.442 14.759 -70.005 14.65 QT
-69.77 14.572 -69.677 14.166 QT
-67.192 4.275 L
-67.161 4.103 -67.161 4.025 QT
-67.161 3.837 -67.38 3.806 QT
-67.723 3.744 -68.677 3.744 QT
-68.848 3.744 -68.848 3.494 QT
-68.848 3.462 -68.817 3.345 QT
-68.786 3.228 -68.739 3.166 QT
-68.692 3.103 -68.63 3.103 QT
-62.161 3.103 L
-60.895 3.103 -59.958 3.712 QT
-59.02 4.322 -58.52 5.353 QT
-58.02 6.384 -58.02 7.634 QT
-58.02 9.025 -58.591 10.4 QT
-59.161 11.775 -60.184 12.916 QT
-61.208 14.056 -62.528 14.728 QT
-63.848 15.4 -65.239 15.4 QT
-71.598 15.4 L
cp
-68.223 14.619 M
-68.223 14.759 -67.614 14.759 QT
-65.52 14.759 L
-64.52 14.759 -63.591 14.353 QT
-62.661 13.947 -61.927 13.212 QT
-61.255 12.541 -60.731 11.447 QT
-60.208 10.353 -59.927 9.158 QT
-59.645 7.962 -59.645 6.947 QT
-59.645 6.228 -59.856 5.634 QT
-60.067 5.041 -60.458 4.619 QT
-60.848 4.197 -61.442 3.97 QT
-62.036 3.744 -62.77 3.744 QT
-64.755 3.744 L
-65.239 3.744 -65.395 3.822 QT
-65.552 3.9 -65.692 4.353 QT
-68.145 14.228 L
-68.223 14.447 -68.223 14.619 QT
cp
f
GR
GS
[0.6 0 0 0.6 217.50015 297.79999] CT
0.149 GC
N
-55.27 17.978 M
-54.895 18.619 -53.958 18.619 QT
-53.098 18.619 -52.473 18.025 QT
-51.848 17.431 -51.465 16.58 QT
-51.083 15.728 -50.88 14.853 QT
-51.676 15.603 -52.614 15.603 QT
-53.317 15.603 -53.817 15.353 QT
-54.317 15.103 -54.598 14.619 QT
-54.88 14.134 -54.88 13.447 QT
-54.88 12.853 -54.723 12.236 QT
-54.567 11.619 -54.278 10.853 QT
-53.989 10.087 -53.786 9.525 QT
-53.536 8.869 -53.536 8.447 QT
-53.536 7.916 -53.942 7.916 QT
-54.645 7.916 -55.106 8.65 QT
-55.567 9.384 -55.786 10.291 QT
-55.833 10.4 -55.942 10.4 QT
-56.145 10.4 L
-56.301 10.4 -56.301 10.228 QT
-56.301 10.181 L
-56.005 9.103 -55.411 8.275 QT
-54.817 7.447 -53.895 7.447 QT
-53.255 7.447 -52.817 7.869 QT
-52.38 8.291 -52.38 8.947 QT
-52.38 9.275 -52.52 9.65 QT
-52.598 9.869 -52.88 10.603 QT
-53.161 11.337 -53.309 11.822 QT
-53.458 12.306 -53.559 12.775 QT
-53.661 13.244 -53.661 13.697 QT
-53.661 14.306 -53.403 14.72 QT
-53.145 15.134 -52.598 15.134 QT
-51.473 15.134 -50.583 13.759 QT
-49.223 8.212 L
-49.161 7.978 -48.942 7.806 QT
-48.723 7.634 -48.473 7.634 QT
-48.255 7.634 -48.09 7.775 QT
-47.926 7.916 -47.926 8.15 QT
-47.926 8.259 -47.942 8.291 QT
-49.723 15.447 L
-49.958 16.369 -50.59 17.212 QT
-51.223 18.056 -52.122 18.572 QT
-53.02 19.087 -53.989 19.087 QT
-54.442 19.087 -54.903 18.908 QT
-55.364 18.728 -55.645 18.369 QT
-55.926 18.009 -55.926 17.525 QT
-55.926 17.041 -55.637 16.681 QT
-55.348 16.322 -54.864 16.322 QT
-54.567 16.322 -54.372 16.501 QT
-54.176 16.681 -54.176 16.962 QT
-54.176 17.384 -54.481 17.689 QT
-54.786 17.994 -55.208 17.994 QT
-55.223 17.978 -55.239 17.978 QT
-55.255 17.978 -55.27 17.978 QT
cp
f
GR
GS
[0.6 0 0 0.6 217.50015 297.79999] CT
0.149 GC
N
-45.749 15.087 M
-45.749 14.994 -45.733 14.931 QT
-44.389 9.556 L
-44.249 9.056 -44.249 8.681 QT
-44.249 7.916 -44.78 7.916 QT
-45.343 7.916 -45.616 8.587 QT
-45.889 9.259 -46.139 10.291 QT
-46.139 10.337 -46.194 10.369 QT
-46.249 10.4 -46.296 10.4 QT
-46.499 10.4 L
-46.561 10.4 -46.608 10.33 QT
-46.655 10.259 -46.655 10.212 QT
-46.468 9.431 -46.288 8.884 QT
-46.108 8.337 -45.725 7.892 QT
-45.343 7.447 -44.764 7.447 QT
-44.093 7.447 -43.569 7.869 QT
-43.046 8.291 -43.046 8.962 QT
-42.514 8.259 -41.796 7.853 QT
-41.077 7.447 -40.264 7.447 QT
-39.624 7.447 -39.155 7.666 QT
-38.686 7.884 -38.429 8.33 QT
-38.171 8.775 -38.171 9.384 QT
-38.171 10.119 -38.499 11.166 QT
-38.827 12.212 -39.327 13.509 QT
-39.577 14.103 -39.577 14.587 QT
-39.577 15.134 -39.171 15.134 QT
-38.468 15.134 -37.999 14.376 QT
-37.53 13.619 -37.327 12.759 QT
-37.296 12.65 -37.186 12.65 QT
-36.968 12.65 L
-36.905 12.65 -36.85 12.697 QT
-36.796 12.744 -36.796 12.806 QT
-36.796 12.822 -36.827 12.853 QT
-37.061 13.884 -37.679 14.744 QT
-38.296 15.603 -39.202 15.603 QT
-39.843 15.603 -40.288 15.166 QT
-40.733 14.728 -40.733 14.103 QT
-40.733 13.775 -40.593 13.4 QT
-40.358 12.822 -40.069 12.001 QT
-39.78 11.181 -39.585 10.431 QT
-39.389 9.681 -39.389 9.119 QT
-39.389 8.619 -39.6 8.267 QT
-39.811 7.916 -40.296 7.916 QT
-40.968 7.916 -41.514 8.205 QT
-42.061 8.494 -42.475 8.97 QT
-42.889 9.447 -43.233 10.103 QT
-44.452 15.009 L
-44.514 15.244 -44.733 15.423 QT
-44.952 15.603 -45.218 15.603 QT
-45.436 15.603 -45.593 15.462 QT
-45.749 15.322 -45.749 15.087 QT
cp
f
GR
GS
[0.6 0 0 0.6 217.50015 297.79999] CT
0.149 GC
N
-33.01 15.603 M
-34.135 15.603 -34.791 14.744 QT
-35.448 13.884 -35.448 12.712 QT
-35.448 11.572 -34.854 10.33 QT
-34.26 9.087 -33.245 8.267 QT
-32.229 7.447 -31.057 7.447 QT
-30.526 7.447 -30.104 7.736 QT
-29.682 8.025 -29.432 8.525 QT
-29.229 7.806 -28.651 7.806 QT
-28.416 7.806 -28.26 7.939 QT
-28.104 8.072 -28.104 8.306 QT
-28.104 8.353 -28.112 8.384 QT
-28.12 8.416 -28.135 8.447 QT
-29.385 13.478 L
-29.51 14.009 -29.51 14.353 QT
-29.51 15.134 -28.995 15.134 QT
-28.432 15.134 -28.135 14.416 QT
-27.838 13.697 -27.635 12.759 QT
-27.604 12.65 -27.495 12.65 QT
-27.276 12.65 L
-27.198 12.65 -27.159 12.712 QT
-27.12 12.775 -27.12 12.822 QT
-27.432 14.087 -27.807 14.845 QT
-28.182 15.603 -29.026 15.603 QT
-29.635 15.603 -30.096 15.244 QT
-30.557 14.884 -30.682 14.306 QT
-31.838 15.603 -33.01 15.603 QT
cp
-32.995 15.134 M
-32.338 15.134 -31.729 14.642 QT
-31.12 14.15 -30.682 13.494 QT
-30.666 13.478 -30.666 13.447 QT
-29.698 9.525 L
-29.682 9.478 L
-29.776 8.837 -30.135 8.376 QT
-30.495 7.916 -31.104 7.916 QT
-31.698 7.916 -32.221 8.408 QT
-32.745 8.9 -33.104 9.587 QT
-33.463 10.306 -33.784 11.564 QT
-34.104 12.822 -34.104 13.509 QT
-34.104 14.134 -33.838 14.634 QT
-33.573 15.134 -32.995 15.134 QT
cp
f
GR
GS
[0.6 0 0 0.6 217.50015 297.79999] CT
0.149 GC
N
-25.054 15.087 M
-25.054 14.994 -25.038 14.931 QT
-23.694 9.556 L
-23.554 9.056 -23.554 8.681 QT
-23.554 7.916 -24.085 7.916 QT
-24.648 7.916 -24.921 8.587 QT
-25.194 9.259 -25.444 10.291 QT
-25.444 10.337 -25.499 10.369 QT
-25.554 10.4 -25.601 10.4 QT
-25.804 10.4 L
-25.866 10.4 -25.913 10.33 QT
-25.96 10.259 -25.96 10.212 QT
-25.773 9.431 -25.593 8.884 QT
-25.413 8.337 -25.03 7.892 QT
-24.648 7.447 -24.069 7.447 QT
-23.398 7.447 -22.874 7.869 QT
-22.351 8.291 -22.351 8.962 QT
-21.819 8.259 -21.101 7.853 QT
-20.382 7.447 -19.569 7.447 QT
-18.726 7.447 -18.101 7.884 QT
-17.476 8.322 -17.476 9.119 QT
-16.929 8.337 -16.187 7.892 QT
-15.444 7.447 -14.554 7.447 QT
-13.632 7.447 -13.062 7.955 QT
-12.491 8.462 -12.491 9.384 QT
-12.491 10.119 -12.819 11.166 QT
-13.148 12.212 -13.648 13.509 QT
-13.898 14.134 -13.898 14.587 QT
-13.898 15.134 -13.476 15.134 QT
-12.773 15.134 -12.312 14.376 QT
-11.851 13.619 -11.648 12.759 QT
-11.601 12.65 -11.507 12.65 QT
-11.288 12.65 L
-11.226 12.65 -11.179 12.697 QT
-11.132 12.744 -11.132 12.806 QT
-11.132 12.822 -11.148 12.853 QT
-11.382 13.884 -11.999 14.744 QT
-12.616 15.603 -13.523 15.603 QT
-14.163 15.603 -14.608 15.166 QT
-15.054 14.728 -15.054 14.103 QT
-15.054 13.791 -14.898 13.4 QT
-14.398 12.056 -14.054 10.994 QT
-13.71 9.931 -13.71 9.119 QT
-13.71 8.619 -13.913 8.267 QT
-14.116 7.916 -14.601 7.916 QT
-15.585 7.916 -16.304 8.517 QT
-17.023 9.119 -17.554 10.103 QT
-17.585 10.291 -17.601 10.384 QT
-18.757 15.009 L
-18.819 15.244 -19.038 15.423 QT
-19.257 15.603 -19.523 15.603 QT
-19.726 15.603 -19.89 15.462 QT
-20.054 15.322 -20.054 15.087 QT
-20.054 14.994 -20.038 14.931 QT
-18.882 10.353 L
-18.694 9.603 -18.694 9.119 QT
-18.694 8.619 -18.905 8.267 QT
-19.116 7.916 -19.601 7.916 QT
-20.273 7.916 -20.819 8.205 QT
-21.366 8.494 -21.78 8.97 QT
-22.194 9.447 -22.538 10.103 QT
-23.757 15.009 L
-23.819 15.244 -24.038 15.423 QT
-24.257 15.603 -24.523 15.603 QT
-24.741 15.603 -24.898 15.462 QT
-25.054 15.322 -25.054 15.087 QT
cp
f
GR
GS
[0.6 0 0 0.6 217.50015 297.79999] CT
0.149 GC
N
-8.941 14.103 M
-8.941 13.775 -8.801 13.4 QT
-7.347 9.525 L
-7.097 8.869 -7.097 8.447 QT
-7.097 7.916 -7.504 7.916 QT
-8.207 7.916 -8.668 8.65 QT
-9.129 9.384 -9.347 10.291 QT
-9.394 10.4 -9.504 10.4 QT
-9.707 10.4 L
-9.863 10.4 -9.863 10.228 QT
-9.863 10.181 L
-9.566 9.103 -8.972 8.275 QT
-8.379 7.447 -7.457 7.447 QT
-6.816 7.447 -6.379 7.869 QT
-5.941 8.291 -5.941 8.947 QT
-5.941 9.275 -6.082 9.65 QT
-7.551 13.509 L
-7.785 14.103 -7.785 14.587 QT
-7.785 15.134 -7.379 15.134 QT
-6.676 15.134 -6.207 14.376 QT
-5.738 13.619 -5.535 12.759 QT
-5.504 12.65 -5.394 12.65 QT
-5.176 12.65 L
-5.113 12.65 -5.066 12.697 QT
-5.019 12.744 -5.019 12.806 QT
-5.019 12.822 -5.035 12.853 QT
-5.285 13.884 -5.894 14.744 QT
-6.504 15.603 -7.41 15.603 QT
-8.051 15.603 -8.496 15.166 QT
-8.941 14.728 -8.941 14.103 QT
cp
-6.91 4.494 M
-6.91 4.119 -6.597 3.806 QT
-6.285 3.494 -5.894 3.494 QT
-5.597 3.494 -5.394 3.689 QT
-5.191 3.884 -5.191 4.166 QT
-5.191 4.572 -5.512 4.876 QT
-5.832 5.181 -6.222 5.181 QT
-6.519 5.181 -6.715 4.978 QT
-6.91 4.775 -6.91 4.494 QT
cp
f
GR
GS
[0.6 0 0 0.6 217.50015 297.79999] CT
0.149 GC
N
-1.922 13.259 M
-1.922 14.041 -1.524 14.587 QT
-1.125 15.134 -0.375 15.134 QT
0.703 15.134 1.687 14.642 QT
2.672 14.15 3.297 13.275 QT
3.359 13.212 3.437 13.212 QT
3.531 13.212 3.625 13.314 QT
3.719 13.416 3.719 13.509 QT
3.719 13.587 3.672 13.619 QT
3.015 14.541 1.898 15.072 QT
0.781 15.603 -0.406 15.603 QT
-1.266 15.603 -1.93 15.197 QT
-2.594 14.791 -2.953 14.103 QT
-3.313 13.416 -3.313 12.556 QT
-3.313 11.337 -2.633 10.142 QT
-1.953 8.947 -0.828 8.197 QT
0.297 7.447 1.531 7.447 QT
2.344 7.447 2.992 7.837 QT
3.64 8.228 3.64 8.994 QT
3.64 9.478 3.351 9.83 QT
3.062 10.181 2.578 10.181 QT
2.281 10.181 2.086 10.001 QT
1.89 9.822 1.89 9.525 QT
1.89 9.103 2.203 8.806 QT
2.515 8.509 2.922 8.509 QT
2.953 8.509 L
2.75 8.197 2.351 8.056 QT
1.953 7.916 1.515 7.916 QT
0.453 7.916 -0.336 8.814 QT
-1.125 9.712 -1.524 10.962 QT
-1.922 12.212 -1.922 13.259 QT
cp
f
GR
GS
[0.6 0 0 0.6 217.50015 297.79999] CT
0.149 GC
N
11.123 13.947 M
11.123 13.681 11.185 13.447 QT
12.482 8.275 L
10.592 8.275 L
10.404 8.275 10.404 8.041 QT
10.482 7.634 10.654 7.634 QT
12.639 7.634 L
13.357 4.697 L
13.435 4.462 13.646 4.298 QT
13.857 4.134 14.123 4.134 QT
14.342 4.134 14.498 4.267 QT
14.654 4.4 14.654 4.634 QT
14.654 4.681 14.646 4.712 QT
14.639 4.744 14.639 4.775 QT
13.92 7.634 L
15.764 7.634 L
15.951 7.634 15.951 7.869 QT
15.951 7.916 15.92 8.025 QT
15.889 8.134 15.85 8.205 QT
15.81 8.275 15.717 8.275 QT
13.764 8.275 L
12.467 13.478 L
12.342 13.978 12.342 14.353 QT
12.342 15.134 12.857 15.134 QT
13.654 15.134 14.264 14.384 QT
14.873 13.634 15.201 12.759 QT
15.264 12.65 15.342 12.65 QT
15.56 12.65 L
15.623 12.65 15.67 12.697 QT
15.717 12.744 15.717 12.806 QT
15.717 12.837 15.701 12.853 QT
15.31 13.947 14.553 14.775 QT
13.795 15.603 12.81 15.603 QT
12.107 15.603 11.615 15.134 QT
11.123 14.666 11.123 13.947 QT
cp
f
GR
GS
[0.6 0 0 0.6 217.50015 297.79999] CT
0.149 GC
N
18.04 14.103 M
18.04 13.775 18.181 13.4 QT
19.634 9.525 L
19.884 8.869 19.884 8.447 QT
19.884 7.916 19.478 7.916 QT
18.775 7.916 18.314 8.65 QT
17.853 9.384 17.634 10.291 QT
17.587 10.4 17.478 10.4 QT
17.275 10.4 L
17.118 10.4 17.118 10.228 QT
17.118 10.181 L
17.415 9.103 18.009 8.275 QT
18.603 7.447 19.525 7.447 QT
20.165 7.447 20.603 7.869 QT
21.04 8.291 21.04 8.947 QT
21.04 9.275 20.9 9.65 QT
19.431 13.509 L
19.196 14.103 19.196 14.587 QT
19.196 15.134 19.603 15.134 QT
20.306 15.134 20.775 14.376 QT
21.243 13.619 21.446 12.759 QT
21.478 12.65 21.587 12.65 QT
21.806 12.65 L
21.868 12.65 21.915 12.697 QT
21.962 12.744 21.962 12.806 QT
21.962 12.822 21.946 12.853 QT
21.696 13.884 21.087 14.744 QT
20.478 15.603 19.571 15.603 QT
18.931 15.603 18.486 15.166 QT
18.04 14.728 18.04 14.103 QT
cp
20.071 4.494 M
20.071 4.119 20.384 3.806 QT
20.696 3.494 21.087 3.494 QT
21.384 3.494 21.587 3.689 QT
21.79 3.884 21.79 4.166 QT
21.79 4.572 21.47 4.876 QT
21.15 5.181 20.759 5.181 QT
20.462 5.181 20.267 4.978 QT
20.071 4.775 20.071 4.494 QT
cp
f
GR
GS
[0.6 0 0 0.6 217.50015 297.79999] CT
0.149 GC
N
24.341 15.087 M
24.341 14.994 24.356 14.931 QT
25.7 9.556 L
25.841 9.056 25.841 8.681 QT
25.841 7.916 25.309 7.916 QT
24.747 7.916 24.473 8.587 QT
24.2 9.259 23.95 10.291 QT
23.95 10.337 23.895 10.369 QT
23.841 10.4 23.794 10.4 QT
23.591 10.4 L
23.528 10.4 23.481 10.33 QT
23.434 10.259 23.434 10.212 QT
23.622 9.431 23.802 8.884 QT
23.981 8.337 24.364 7.892 QT
24.747 7.447 25.325 7.447 QT
25.997 7.447 26.52 7.869 QT
27.044 8.291 27.044 8.962 QT
27.575 8.259 28.294 7.853 QT
29.013 7.447 29.825 7.447 QT
30.669 7.447 31.294 7.884 QT
31.919 8.322 31.919 9.119 QT
32.466 8.337 33.208 7.892 QT
33.95 7.447 34.841 7.447 QT
35.763 7.447 36.333 7.955 QT
36.903 8.462 36.903 9.384 QT
36.903 10.119 36.575 11.166 QT
36.247 12.212 35.747 13.509 QT
35.497 14.134 35.497 14.587 QT
35.497 15.134 35.919 15.134 QT
36.622 15.134 37.083 14.376 QT
37.544 13.619 37.747 12.759 QT
37.794 12.65 37.888 12.65 QT
38.106 12.65 L
38.169 12.65 38.216 12.697 QT
38.263 12.744 38.263 12.806 QT
38.263 12.822 38.247 12.853 QT
38.013 13.884 37.395 14.744 QT
36.778 15.603 35.872 15.603 QT
35.231 15.603 34.786 15.166 QT
34.341 14.728 34.341 14.103 QT
34.341 13.791 34.497 13.4 QT
34.997 12.056 35.341 10.994 QT
35.684 9.931 35.684 9.119 QT
35.684 8.619 35.481 8.267 QT
35.278 7.916 34.794 7.916 QT
33.809 7.916 33.091 8.517 QT
32.372 9.119 31.841 10.103 QT
31.809 10.291 31.794 10.384 QT
30.638 15.009 L
30.575 15.244 30.356 15.423 QT
30.138 15.603 29.872 15.603 QT
29.669 15.603 29.505 15.462 QT
29.341 15.322 29.341 15.087 QT
29.341 14.994 29.356 14.931 QT
30.513 10.353 L
30.7 9.603 30.7 9.119 QT
30.7 8.619 30.489 8.267 QT
30.278 7.916 29.794 7.916 QT
29.122 7.916 28.575 8.205 QT
28.028 8.494 27.614 8.97 QT
27.2 9.447 26.856 10.103 QT
25.638 15.009 L
25.575 15.244 25.356 15.423 QT
25.138 15.603 24.872 15.603 QT
24.653 15.603 24.497 15.462 QT
24.341 15.322 24.341 15.087 QT
cp
f
GR
GS
[0.6 0 0 0.6 217.50015 297.79999] CT
0.149 GC
N
42.672 15.603 M
41.813 15.603 41.164 15.158 QT
40.516 14.712 40.18 13.947 QT
39.844 13.181 39.844 12.337 QT
39.844 11.056 40.484 9.931 QT
41.125 8.806 42.234 8.126 QT
43.344 7.447 44.609 7.447 QT
45.391 7.447 45.961 7.845 QT
46.531 8.244 46.531 8.994 QT
46.531 10.025 45.711 10.533 QT
44.891 11.041 43.852 11.158 QT
42.813 11.275 41.547 11.275 QT
41.5 11.275 L
41.203 12.353 41.203 13.119 QT
41.203 13.916 41.578 14.525 QT
41.953 15.134 42.703 15.134 QT
43.781 15.134 44.766 14.642 QT
45.75 14.15 46.375 13.275 QT
46.438 13.212 46.516 13.212 QT
46.609 13.212 46.703 13.314 QT
46.797 13.416 46.797 13.509 QT
46.797 13.587 46.75 13.619 QT
46.094 14.541 44.977 15.072 QT
43.859 15.603 42.672 15.603 QT
cp
41.609 10.806 M
42.656 10.806 43.539 10.712 QT
44.422 10.619 45.148 10.228 QT
45.875 9.837 45.875 9.009 QT
45.875 8.681 45.688 8.431 QT
45.5 8.181 45.203 8.048 QT
44.906 7.916 44.594 7.916 QT
43.828 7.916 43.219 8.33 QT
42.609 8.744 42.211 9.408 QT
41.813 10.072 41.609 10.806 QT
cp
f
GR
GS
[0.6 0 0 0.6 217.50015 297.79999] CT
0.149 GC
N
55.82 19.9 M
55.82 1.9 L
58.288 1.9 L
58.288 2.619 L
56.538 2.619 L
56.538 19.181 L
58.288 19.181 L
58.288 19.9 L
55.82 19.9 L
cp
f
GR
GS
[0.6 0 0 0.6 217.50015 297.79999] CT
0.149 GC
N
60.35 14.306 M
60.834 15.134 62.287 15.134 QT
62.928 15.134 63.498 14.916 QT
64.068 14.697 64.443 14.267 QT
64.818 13.837 64.818 13.212 QT
64.818 12.759 64.482 12.455 QT
64.146 12.15 63.662 12.056 QT
62.693 11.853 L
62.021 11.697 61.592 11.236 QT
61.162 10.775 61.162 10.119 QT
61.162 9.322 61.6 8.712 QT
62.037 8.103 62.748 7.775 QT
63.459 7.447 64.225 7.447 QT
65.037 7.447 65.686 7.837 QT
66.334 8.228 66.334 8.994 QT
66.334 9.4 66.1 9.72 QT
65.865 10.041 65.443 10.041 QT
65.209 10.041 65.037 9.884 QT
64.865 9.728 64.865 9.494 QT
64.865 9.275 64.982 9.08 QT
65.1 8.884 65.303 8.767 QT
65.506 8.65 65.709 8.65 QT
65.553 8.259 65.115 8.087 QT
64.678 7.916 64.178 7.916 QT
63.725 7.916 63.271 8.095 QT
62.818 8.275 62.537 8.634 QT
62.256 8.994 62.256 9.478 QT
62.256 9.806 62.482 10.048 QT
62.709 10.291 63.053 10.4 QT
64.1 10.603 L
64.6 10.712 65.014 10.978 QT
65.428 11.244 65.67 11.658 QT
65.912 12.072 65.912 12.603 QT
65.912 13.259 65.537 13.916 QT
65.162 14.572 64.631 14.947 QT
63.662 15.603 62.271 15.603 QT
61.318 15.603 60.521 15.166 QT
59.725 14.728 59.725 13.853 QT
59.725 13.353 60.006 12.994 QT
60.287 12.634 60.787 12.634 QT
61.068 12.634 61.271 12.806 QT
61.475 12.978 61.475 13.275 QT
61.475 13.681 61.162 13.994 QT
60.85 14.306 60.443 14.306 QT
60.35 14.306 L
cp
f
GR
GS
[0.6 0 0 0.6 217.50015 297.79999] CT
0.149 GC
N
67.771 19.9 M
67.771 19.181 L
69.521 19.181 L
69.521 2.619 L
67.771 2.619 L
67.771 1.9 L
70.24 1.9 L
70.24 19.9 L
67.771 19.9 L
cp
f
GR
GS
[0.6 0 0 0.6 0 0] CT
0.149 GC
2 setlinecap
1 LJ
0.833 LW
N
91 467 M
91 39 L
S
GR
GS
[0.6 0 0 0.6 0 0] CT
0.149 GC
2 setlinecap
1 LJ
0.833 LW
N
91 467 M
96.43 467 L
S
GR
GS
[0.6 0 0 0.6 0 0] CT
0.149 GC
2 setlinecap
1 LJ
0.833 LW
N
91 419.444 M
96.43 419.444 L
S
GR
GS
[0.6 0 0 0.6 0 0] CT
0.149 GC
2 setlinecap
1 LJ
0.833 LW
N
91 371.889 M
96.43 371.889 L
S
GR
GS
[0.6 0 0 0.6 0 0] CT
0.149 GC
2 setlinecap
1 LJ
0.833 LW
N
91 324.333 M
96.43 324.333 L
S
GR
GS
[0.6 0 0 0.6 0 0] CT
0.149 GC
2 setlinecap
1 LJ
0.833 LW
N
91 276.778 M
96.43 276.778 L
S
GR
GS
[0.6 0 0 0.6 0 0] CT
0.149 GC
2 setlinecap
1 LJ
0.833 LW
N
91 229.222 M
96.43 229.222 L
S
GR
GS
[0.6 0 0 0.6 0 0] CT
0.149 GC
2 setlinecap
1 LJ
0.833 LW
N
91 181.667 M
96.43 181.667 L
S
GR
GS
[0.6 0 0 0.6 0 0] CT
0.149 GC
2 setlinecap
1 LJ
0.833 LW
N
91 134.111 M
96.43 134.111 L
S
GR
GS
[0.6 0 0 0.6 0 0] CT
0.149 GC
2 setlinecap
1 LJ
0.833 LW
N
91 86.556 M
96.43 86.556 L
S
GR
GS
[0.6 0 0 0.6 0 0] CT
0.149 GC
2 setlinecap
1 LJ
0.833 LW
N
91 39 M
96.43 39 L
S
GR
GS
[0.6 0 0 0.6 50.6 280.2] CT
0.149 GC
/Helvetica 16.667 F
GS
[1 0 0 1 0 0] CT
-38 6.5 moveto 
1 -1 scale
(-0.04) t 
GR
GR
GS
[0.6 0 0 0.6 50.6 251.66667] CT
0.149 GC
/Helvetica 16.667 F
GS
[1 0 0 1 0 0] CT
-48 6.5 moveto 
1 -1 scale
(-0.035) t 
GR
GR
GS
[0.6 0 0 0.6 50.6 223.13333] CT
0.149 GC
/Helvetica 16.667 F
GS
[1 0 0 1 0 0] CT
-38 6.5 moveto 
1 -1 scale
(-0.03) t 
GR
GR
GS
[0.6 0 0 0.6 50.6 194.60001] CT
0.149 GC
/Helvetica 16.667 F
GS
[1 0 0 1 0 0] CT
-48 6.5 moveto 
1 -1 scale
(-0.025) t 
GR
GR
GS
[0.6 0 0 0.6 50.6 166.06666] CT
0.149 GC
/Helvetica 16.667 F
GS
[1 0 0 1 0 0] CT
-38 6.5 moveto 
1 -1 scale
(-0.02) t 
GR
GR
GS
[0.6 0 0 0.6 50.6 137.53333] CT
0.149 GC
/Helvetica 16.667 F
GS
[1 0 0 1 0 0] CT
-48 6.5 moveto 
1 -1 scale
(-0.015) t 
GR
GR
GS
[0.6 0 0 0.6 50.6 109] CT
0.149 GC
/Helvetica 16.667 F
GS
[1 0 0 1 0 0] CT
-38 6.5 moveto 
1 -1 scale
(-0.01) t 
GR
GR
GS
[0.6 0 0 0.6 50.6 80.46667] CT
0.149 GC
/Helvetica 16.667 F
GS
[1 0 0 1 0 0] CT
-48 6.5 moveto 
1 -1 scale
(-0.005) t 
GR
GR
GS
[0.6 0 0 0.6 50.6 51.93333] CT
0.149 GC
/Helvetica 16.667 F
GS
[1 0 0 1 0 0] CT
-10 6.5 moveto 
1 -1 scale
(0) t 
GR
GR
GS
[0.6 0 0 0.6 50.6 23.4] CT
0.149 GC
/Helvetica 16.667 F
GS
[1 0 0 1 0 0] CT
-42 6.5 moveto 
1 -1 scale
(0.005) t 
GR
GR
GS
[0 -0.6 0.6 0 18.8 151.79987] CT
0.149 GC
N
-23.664 -8.553 M
-23.664 -9.147 -23.507 -9.764 QT
-23.351 -10.381 -23.062 -11.147 QT
-22.773 -11.913 -22.57 -12.475 QT
-22.32 -13.131 -22.32 -13.553 QT
-22.32 -14.084 -22.726 -14.084 QT
-23.429 -14.084 -23.89 -13.35 QT
-24.351 -12.616 -24.57 -11.709 QT
-24.617 -11.6 -24.726 -11.6 QT
-24.929 -11.6 L
-25.085 -11.6 -25.085 -11.772 QT
-25.085 -11.819 L
-24.789 -12.897 -24.195 -13.725 QT
-23.601 -14.553 -22.679 -14.553 QT
-22.039 -14.553 -21.601 -14.131 QT
-21.164 -13.709 -21.164 -13.053 QT
-21.164 -12.725 -21.304 -12.35 QT
-21.382 -12.131 -21.664 -11.397 QT
-21.945 -10.663 -22.093 -10.178 QT
-22.242 -9.694 -22.343 -9.225 QT
-22.445 -8.756 -22.445 -8.303 QT
-22.445 -7.694 -22.187 -7.28 QT
-21.929 -6.866 -21.367 -6.866 QT
-20.21 -6.866 -19.335 -8.303 QT
-19.32 -8.366 -19.304 -8.436 QT
-19.289 -8.506 -19.289 -8.553 QT
-17.992 -13.788 L
-17.929 -14.022 -17.71 -14.194 QT
-17.492 -14.366 -17.242 -14.366 QT
-17.023 -14.366 -16.859 -14.225 QT
-16.695 -14.084 -16.695 -13.85 QT
-16.695 -13.741 -16.71 -13.709 QT
-18.007 -8.522 L
-18.132 -7.991 -18.132 -7.647 QT
-18.132 -6.866 -17.617 -6.866 QT
-17.039 -6.866 -16.749 -7.584 QT
-16.46 -8.303 -16.257 -9.241 QT
-16.226 -9.35 -16.117 -9.35 QT
-15.898 -9.35 L
-15.835 -9.35 -15.789 -9.288 QT
-15.742 -9.225 -15.742 -9.178 QT
-15.929 -8.397 -16.117 -7.842 QT
-16.304 -7.288 -16.687 -6.842 QT
-17.07 -6.397 -17.648 -6.397 QT
-18.226 -6.397 -18.679 -6.709 QT
-19.132 -7.022 -19.289 -7.553 QT
-19.695 -7.038 -20.242 -6.717 QT
-20.789 -6.397 -21.398 -6.397 QT
-22.429 -6.397 -23.046 -6.967 QT
-23.664 -7.538 -23.664 -8.553 QT
cp
f
GR
GS
[0 -0.6 0.6 0 18.8 151.79987] CT
0.149 GC
N
-14.059 -4.225 M
-13.825 -4.053 -13.418 -4.053 QT
-13.012 -4.053 -12.7 -4.444 QT
-12.387 -4.834 -12.262 -5.288 QT
-11.684 -7.6 L
-11.543 -8.225 -11.543 -8.459 QT
-11.543 -8.772 -11.723 -9.014 QT
-11.903 -9.256 -12.231 -9.256 QT
-12.637 -9.256 -12.997 -8.999 QT
-13.356 -8.741 -13.606 -8.342 QT
-13.856 -7.944 -13.95 -7.538 QT
-13.981 -7.459 -14.059 -7.459 QT
-14.215 -7.459 L
-14.325 -7.459 -14.325 -7.584 QT
-14.325 -7.616 L
-14.2 -8.1 -13.895 -8.561 QT
-13.59 -9.022 -13.145 -9.311 QT
-12.7 -9.6 -12.2 -9.6 QT
-11.715 -9.6 -11.333 -9.342 QT
-10.95 -9.084 -10.793 -8.647 QT
-10.575 -9.053 -10.231 -9.327 QT
-9.887 -9.6 -9.465 -9.6 QT
-9.184 -9.6 -8.895 -9.499 QT
-8.606 -9.397 -8.418 -9.194 QT
-8.231 -8.991 -8.231 -8.694 QT
-8.231 -8.35 -8.45 -8.116 QT
-8.668 -7.881 -8.997 -7.881 QT
-9.2 -7.881 -9.34 -8.014 QT
-9.481 -8.147 -9.481 -8.35 QT
-9.481 -8.631 -9.293 -8.834 QT
-9.106 -9.038 -8.84 -9.069 QT
-9.075 -9.256 -9.497 -9.256 QT
-9.918 -9.256 -10.223 -8.874 QT
-10.528 -8.491 -10.653 -8.006 QT
-11.231 -5.709 L
-11.372 -5.194 -11.372 -4.85 QT
-11.372 -4.522 -11.184 -4.288 QT
-10.997 -4.053 -10.684 -4.053 QT
-10.075 -4.053 -9.598 -4.584 QT
-9.122 -5.116 -8.965 -5.756 QT
-8.934 -5.834 -8.856 -5.834 QT
-8.7 -5.834 L
-8.653 -5.834 -8.622 -5.803 QT
-8.59 -5.772 -8.59 -5.725 QT
-8.59 -5.709 -8.606 -5.678 QT
-8.778 -4.913 -9.372 -4.311 QT
-9.965 -3.709 -10.7 -3.709 QT
-11.184 -3.709 -11.567 -3.967 QT
-11.95 -4.225 -12.106 -4.663 QT
-12.309 -4.272 -12.668 -3.991 QT
-13.028 -3.709 -13.434 -3.709 QT
-13.715 -3.709 -14.012 -3.803 QT
-14.309 -3.897 -14.489 -4.1 QT
-14.668 -4.303 -14.668 -4.616 QT
-14.668 -4.928 -14.458 -5.178 QT
-14.247 -5.428 -13.934 -5.428 QT
-13.715 -5.428 -13.567 -5.295 QT
-13.418 -5.163 -13.418 -4.959 QT
-13.418 -4.678 -13.606 -4.475 QT
-13.793 -4.272 -14.059 -4.225 QT
cp
f
GR
GS
[0 -0.6 0.6 0 18.8 151.79987] CT
0.149 GC
N
1.413 -2.1 M
1.413 -20.1 L
3.881 -20.1 L
3.881 -19.381 L
2.131 -19.381 L
2.131 -2.819 L
3.881 -2.819 L
3.881 -2.1 L
1.413 -2.1 L
cp
f
GR
GS
[0 -0.6 0.6 0 18.8 151.79987] CT
0.149 GC
N
5.771 -6.913 M
5.771 -7.006 5.787 -7.069 QT
7.13 -12.444 L
7.271 -12.944 7.271 -13.319 QT
7.271 -14.084 6.74 -14.084 QT
6.177 -14.084 5.904 -13.413 QT
5.63 -12.741 5.38 -11.709 QT
5.38 -11.663 5.326 -11.631 QT
5.271 -11.6 5.224 -11.6 QT
5.021 -11.6 L
4.958 -11.6 4.912 -11.67 QT
4.865 -11.741 4.865 -11.788 QT
5.052 -12.569 5.232 -13.116 QT
5.412 -13.663 5.794 -14.108 QT
6.177 -14.553 6.755 -14.553 QT
7.427 -14.553 7.951 -14.131 QT
8.474 -13.709 8.474 -13.038 QT
9.005 -13.741 9.724 -14.147 QT
10.443 -14.553 11.255 -14.553 QT
12.099 -14.553 12.724 -14.116 QT
13.349 -13.678 13.349 -12.881 QT
13.896 -13.663 14.638 -14.108 QT
15.38 -14.553 16.271 -14.553 QT
17.193 -14.553 17.763 -14.045 QT
18.333 -13.538 18.333 -12.616 QT
18.333 -11.881 18.005 -10.834 QT
17.677 -9.788 17.177 -8.491 QT
16.927 -7.866 16.927 -7.413 QT
16.927 -6.866 17.349 -6.866 QT
18.052 -6.866 18.513 -7.624 QT
18.974 -8.381 19.177 -9.241 QT
19.224 -9.35 19.318 -9.35 QT
19.537 -9.35 L
19.599 -9.35 19.646 -9.303 QT
19.693 -9.256 19.693 -9.194 QT
19.693 -9.178 19.677 -9.147 QT
19.443 -8.116 18.826 -7.256 QT
18.208 -6.397 17.302 -6.397 QT
16.662 -6.397 16.216 -6.834 QT
15.771 -7.272 15.771 -7.897 QT
15.771 -8.209 15.927 -8.6 QT
16.427 -9.944 16.771 -11.006 QT
17.115 -12.069 17.115 -12.881 QT
17.115 -13.381 16.912 -13.733 QT
16.708 -14.084 16.224 -14.084 QT
15.24 -14.084 14.521 -13.483 QT
13.802 -12.881 13.271 -11.897 QT
13.24 -11.709 13.224 -11.616 QT
12.068 -6.991 L
12.005 -6.756 11.787 -6.577 QT
11.568 -6.397 11.302 -6.397 QT
11.099 -6.397 10.935 -6.538 QT
10.771 -6.678 10.771 -6.913 QT
10.771 -7.006 10.787 -7.069 QT
11.943 -11.647 L
12.13 -12.397 12.13 -12.881 QT
12.13 -13.381 11.919 -13.733 QT
11.708 -14.084 11.224 -14.084 QT
10.552 -14.084 10.005 -13.795 QT
9.458 -13.506 9.044 -13.03 QT
8.63 -12.553 8.287 -11.897 QT
7.068 -6.991 L
7.005 -6.756 6.787 -6.577 QT
6.568 -6.397 6.302 -6.397 QT
6.083 -6.397 5.927 -6.538 QT
5.771 -6.678 5.771 -6.913 QT
cp
f
GR
GS
[0 -0.6 0.6 0 18.8 151.79987] CT
0.149 GC
N
20.868 -2.1 M
20.868 -2.819 L
22.618 -2.819 L
22.618 -19.381 L
20.868 -19.381 L
20.868 -20.1 L
23.337 -20.1 L
23.337 -2.1 L
20.868 -2.1 L
cp
f
GR
GS
[0.6 0 0 0.6 217.5002 21.75] CT
N
-120.619 -6.6 M
-120.806 -6.6 -120.806 -6.834 QT
-120.79 -6.881 -120.767 -6.991 QT
-120.744 -7.1 -120.697 -7.17 QT
-120.65 -7.241 -120.572 -7.241 QT
-118.853 -7.241 -118.572 -8.334 QT
-116.228 -17.725 L
-116.197 -17.897 -116.197 -17.975 QT
-116.197 -18.163 -116.4 -18.194 QT
-116.744 -18.256 -117.712 -18.256 QT
-117.884 -18.256 -117.884 -18.506 QT
-117.869 -18.538 -117.845 -18.655 QT
-117.822 -18.772 -117.775 -18.834 QT
-117.728 -18.897 -117.65 -18.897 QT
-114.478 -18.897 L
-114.275 -18.897 -114.259 -18.694 QT
-112.853 -8.381 L
-106.29 -18.694 L
-106.165 -18.897 -105.947 -18.897 QT
-102.884 -18.897 L
-102.712 -18.897 -102.712 -18.663 QT
-102.728 -18.616 -102.751 -18.506 QT
-102.775 -18.397 -102.822 -18.327 QT
-102.869 -18.256 -102.947 -18.256 QT
-104.04 -18.256 -104.478 -18.147 QT
-104.712 -18.069 -104.822 -17.647 QT
-107.29 -7.772 L
-107.322 -7.6 -107.322 -7.522 QT
-107.322 -7.444 -107.298 -7.397 QT
-107.275 -7.35 -107.236 -7.334 QT
-107.197 -7.319 -107.103 -7.303 QT
-106.759 -7.241 -105.806 -7.241 QT
-105.634 -7.241 -105.634 -6.991 QT
-105.697 -6.741 -105.728 -6.67 QT
-105.759 -6.6 -105.931 -6.6 QT
-110.634 -6.6 L
-110.806 -6.6 -110.806 -6.834 QT
-110.806 -6.881 -110.775 -6.991 QT
-110.744 -7.1 -110.697 -7.17 QT
-110.65 -7.241 -110.587 -7.241 QT
-109.478 -7.241 -109.056 -7.35 QT
-108.806 -7.428 -108.712 -7.834 QT
-106.119 -18.256 L
-113.384 -6.803 L
-113.494 -6.6 -113.744 -6.6 QT
-113.978 -6.6 -113.994 -6.803 QT
-115.525 -18.116 L
-117.994 -8.256 L
-118.009 -8.209 -118.025 -8.147 QT
-118.04 -8.084 -118.056 -7.991 QT
-118.056 -7.522 -117.642 -7.381 QT
-117.228 -7.241 -116.65 -7.241 QT
-116.462 -7.241 -116.462 -6.991 QT
-116.525 -6.756 -116.564 -6.678 QT
-116.603 -6.6 -116.775 -6.6 QT
-120.619 -6.6 L
cp
f
GR
GS
[0.6 0 0 0.6 217.5002 21.75] CT
N
-98.631 -6.397 M
-99.756 -6.397 -100.412 -7.256 QT
-101.068 -8.116 -101.068 -9.288 QT
-101.068 -10.428 -100.475 -11.67 QT
-99.881 -12.913 -98.865 -13.733 QT
-97.85 -14.553 -96.678 -14.553 QT
-96.146 -14.553 -95.725 -14.264 QT
-95.303 -13.975 -95.053 -13.475 QT
-94.85 -14.194 -94.271 -14.194 QT
-94.037 -14.194 -93.881 -14.061 QT
-93.725 -13.928 -93.725 -13.694 QT
-93.725 -13.647 -93.732 -13.616 QT
-93.74 -13.584 -93.756 -13.553 QT
-95.006 -8.522 L
-95.131 -7.991 -95.131 -7.647 QT
-95.131 -6.866 -94.615 -6.866 QT
-94.053 -6.866 -93.756 -7.584 QT
-93.459 -8.303 -93.256 -9.241 QT
-93.225 -9.35 -93.115 -9.35 QT
-92.896 -9.35 L
-92.818 -9.35 -92.779 -9.288 QT
-92.74 -9.225 -92.74 -9.178 QT
-93.053 -7.913 -93.428 -7.155 QT
-93.803 -6.397 -94.646 -6.397 QT
-95.256 -6.397 -95.717 -6.756 QT
-96.178 -7.116 -96.303 -7.694 QT
-97.459 -6.397 -98.631 -6.397 QT
cp
-98.615 -6.866 M
-97.959 -6.866 -97.35 -7.358 QT
-96.74 -7.85 -96.303 -8.506 QT
-96.287 -8.522 -96.287 -8.553 QT
-95.318 -12.475 L
-95.303 -12.522 L
-95.396 -13.163 -95.756 -13.624 QT
-96.115 -14.084 -96.725 -14.084 QT
-97.318 -14.084 -97.842 -13.592 QT
-98.365 -13.1 -98.725 -12.413 QT
-99.084 -11.694 -99.404 -10.436 QT
-99.725 -9.178 -99.725 -8.491 QT
-99.725 -7.866 -99.459 -7.366 QT
-99.193 -6.866 -98.615 -6.866 QT
cp
f
GR
GS
[0.6 0 0 0.6 217.5002 21.75] CT
N
-90.502 -7.694 M
-90.018 -6.866 -88.565 -6.866 QT
-87.924 -6.866 -87.354 -7.084 QT
-86.784 -7.303 -86.409 -7.733 QT
-86.034 -8.163 -86.034 -8.788 QT
-86.034 -9.241 -86.37 -9.545 QT
-86.706 -9.85 -87.19 -9.944 QT
-88.159 -10.147 L
-88.831 -10.303 -89.26 -10.764 QT
-89.69 -11.225 -89.69 -11.881 QT
-89.69 -12.678 -89.252 -13.288 QT
-88.815 -13.897 -88.104 -14.225 QT
-87.393 -14.553 -86.627 -14.553 QT
-85.815 -14.553 -85.167 -14.163 QT
-84.518 -13.772 -84.518 -13.006 QT
-84.518 -12.6 -84.752 -12.28 QT
-84.987 -11.959 -85.409 -11.959 QT
-85.643 -11.959 -85.815 -12.116 QT
-85.987 -12.272 -85.987 -12.506 QT
-85.987 -12.725 -85.87 -12.92 QT
-85.752 -13.116 -85.549 -13.233 QT
-85.346 -13.35 -85.143 -13.35 QT
-85.299 -13.741 -85.737 -13.913 QT
-86.174 -14.084 -86.674 -14.084 QT
-87.127 -14.084 -87.581 -13.905 QT
-88.034 -13.725 -88.315 -13.366 QT
-88.596 -13.006 -88.596 -12.522 QT
-88.596 -12.194 -88.37 -11.952 QT
-88.143 -11.709 -87.799 -11.6 QT
-86.752 -11.397 L
-86.252 -11.288 -85.838 -11.022 QT
-85.424 -10.756 -85.182 -10.342 QT
-84.94 -9.928 -84.94 -9.397 QT
-84.94 -8.741 -85.315 -8.084 QT
-85.69 -7.428 -86.221 -7.053 QT
-87.19 -6.397 -88.581 -6.397 QT
-89.534 -6.397 -90.331 -6.834 QT
-91.127 -7.272 -91.127 -8.147 QT
-91.127 -8.647 -90.846 -9.006 QT
-90.565 -9.366 -90.065 -9.366 QT
-89.784 -9.366 -89.581 -9.194 QT
-89.377 -9.022 -89.377 -8.725 QT
-89.377 -8.319 -89.69 -8.006 QT
-90.002 -7.694 -90.409 -7.694 QT
-90.502 -7.694 L
cp
f
GR
GS
[0.6 0 0 0.6 217.5002 21.75] CT
N
-81.909 -7.694 M
-81.424 -6.866 -79.971 -6.866 QT
-79.331 -6.866 -78.76 -7.084 QT
-78.19 -7.303 -77.815 -7.733 QT
-77.44 -8.163 -77.44 -8.788 QT
-77.44 -9.241 -77.776 -9.545 QT
-78.112 -9.85 -78.596 -9.944 QT
-79.565 -10.147 L
-80.237 -10.303 -80.667 -10.764 QT
-81.096 -11.225 -81.096 -11.881 QT
-81.096 -12.678 -80.659 -13.288 QT
-80.221 -13.897 -79.51 -14.225 QT
-78.799 -14.553 -78.034 -14.553 QT
-77.221 -14.553 -76.573 -14.163 QT
-75.924 -13.772 -75.924 -13.006 QT
-75.924 -12.6 -76.159 -12.28 QT
-76.393 -11.959 -76.815 -11.959 QT
-77.049 -11.959 -77.221 -12.116 QT
-77.393 -12.272 -77.393 -12.506 QT
-77.393 -12.725 -77.276 -12.92 QT
-77.159 -13.116 -76.956 -13.233 QT
-76.752 -13.35 -76.549 -13.35 QT
-76.706 -13.741 -77.143 -13.913 QT
-77.581 -14.084 -78.081 -14.084 QT
-78.534 -14.084 -78.987 -13.905 QT
-79.44 -13.725 -79.721 -13.366 QT
-80.002 -13.006 -80.002 -12.522 QT
-80.002 -12.194 -79.776 -11.952 QT
-79.549 -11.709 -79.206 -11.6 QT
-78.159 -11.397 L
-77.659 -11.288 -77.245 -11.022 QT
-76.831 -10.756 -76.588 -10.342 QT
-76.346 -9.928 -76.346 -9.397 QT
-76.346 -8.741 -76.721 -8.084 QT
-77.096 -7.428 -77.627 -7.053 QT
-78.596 -6.397 -79.987 -6.397 QT
-80.94 -6.397 -81.737 -6.834 QT
-82.534 -7.272 -82.534 -8.147 QT
-82.534 -8.647 -82.252 -9.006 QT
-81.971 -9.366 -81.471 -9.366 QT
-81.19 -9.366 -80.987 -9.194 QT
-80.784 -9.022 -80.784 -8.725 QT
-80.784 -8.319 -81.096 -8.006 QT
-81.409 -7.694 -81.815 -7.694 QT
-81.909 -7.694 L
cp
f
GR
GS
[0.6 0 0 0.6 217.5002 21.75] CT
N
-66.657 -8.741 M
-66.657 -7.959 -66.259 -7.413 QT
-65.86 -6.866 -65.11 -6.866 QT
-64.032 -6.866 -63.048 -7.358 QT
-62.063 -7.85 -61.438 -8.725 QT
-61.376 -8.788 -61.298 -8.788 QT
-61.204 -8.788 -61.11 -8.686 QT
-61.016 -8.584 -61.016 -8.491 QT
-61.016 -8.413 -61.063 -8.381 QT
-61.719 -7.459 -62.837 -6.928 QT
-63.954 -6.397 -65.141 -6.397 QT
-66.001 -6.397 -66.665 -6.803 QT
-67.329 -7.209 -67.688 -7.897 QT
-68.048 -8.584 -68.048 -9.444 QT
-68.048 -10.663 -67.368 -11.858 QT
-66.688 -13.053 -65.563 -13.803 QT
-64.438 -14.553 -63.204 -14.553 QT
-62.391 -14.553 -61.743 -14.163 QT
-61.094 -13.772 -61.094 -13.006 QT
-61.094 -12.522 -61.384 -12.17 QT
-61.673 -11.819 -62.157 -11.819 QT
-62.454 -11.819 -62.649 -11.999 QT
-62.844 -12.178 -62.844 -12.475 QT
-62.844 -12.897 -62.532 -13.194 QT
-62.219 -13.491 -61.813 -13.491 QT
-61.782 -13.491 L
-61.985 -13.803 -62.384 -13.944 QT
-62.782 -14.084 -63.219 -14.084 QT
-64.282 -14.084 -65.071 -13.186 QT
-65.86 -12.288 -66.259 -11.038 QT
-66.657 -9.788 -66.657 -8.741 QT
cp
f
GR
GS
[0.6 0 0 0.6 217.5002 21.75] CT
N
-57.208 -6.397 M
-58.067 -6.397 -58.715 -6.842 QT
-59.364 -7.288 -59.7 -8.053 QT
-60.036 -8.819 -60.036 -9.663 QT
-60.036 -10.944 -59.395 -12.069 QT
-58.754 -13.194 -57.645 -13.874 QT
-56.536 -14.553 -55.27 -14.553 QT
-54.489 -14.553 -53.918 -14.155 QT
-53.348 -13.756 -53.348 -13.006 QT
-53.348 -11.975 -54.168 -11.467 QT
-54.989 -10.959 -56.028 -10.842 QT
-57.067 -10.725 -58.333 -10.725 QT
-58.379 -10.725 L
-58.676 -9.647 -58.676 -8.881 QT
-58.676 -8.084 -58.301 -7.475 QT
-57.926 -6.866 -57.176 -6.866 QT
-56.098 -6.866 -55.114 -7.358 QT
-54.129 -7.85 -53.504 -8.725 QT
-53.442 -8.788 -53.364 -8.788 QT
-53.27 -8.788 -53.176 -8.686 QT
-53.083 -8.584 -53.083 -8.491 QT
-53.083 -8.413 -53.129 -8.381 QT
-53.786 -7.459 -54.903 -6.928 QT
-56.02 -6.397 -57.208 -6.397 QT
cp
-58.27 -11.194 M
-57.223 -11.194 -56.34 -11.288 QT
-55.458 -11.381 -54.731 -11.772 QT
-54.004 -12.163 -54.004 -12.991 QT
-54.004 -13.319 -54.192 -13.569 QT
-54.379 -13.819 -54.676 -13.952 QT
-54.973 -14.084 -55.286 -14.084 QT
-56.051 -14.084 -56.661 -13.67 QT
-57.27 -13.256 -57.668 -12.592 QT
-58.067 -11.928 -58.27 -11.194 QT
cp
f
GR
GS
[0.6 0 0 0.6 217.5002 21.75] CT
N
-50.905 -6.913 M
-50.905 -7.006 -50.89 -7.069 QT
-49.546 -12.444 L
-49.405 -12.944 -49.405 -13.319 QT
-49.405 -14.084 -49.937 -14.084 QT
-50.499 -14.084 -50.773 -13.413 QT
-51.046 -12.741 -51.296 -11.709 QT
-51.296 -11.663 -51.351 -11.631 QT
-51.405 -11.6 -51.452 -11.6 QT
-51.655 -11.6 L
-51.718 -11.6 -51.765 -11.67 QT
-51.812 -11.741 -51.812 -11.788 QT
-51.624 -12.569 -51.444 -13.116 QT
-51.265 -13.663 -50.882 -14.108 QT
-50.499 -14.553 -49.921 -14.553 QT
-49.249 -14.553 -48.726 -14.131 QT
-48.202 -13.709 -48.202 -13.038 QT
-47.671 -13.741 -46.952 -14.147 QT
-46.234 -14.553 -45.421 -14.553 QT
-44.78 -14.553 -44.312 -14.334 QT
-43.843 -14.116 -43.585 -13.67 QT
-43.327 -13.225 -43.327 -12.616 QT
-43.327 -11.881 -43.655 -10.834 QT
-43.984 -9.788 -44.484 -8.491 QT
-44.734 -7.897 -44.734 -7.413 QT
-44.734 -6.866 -44.327 -6.866 QT
-43.624 -6.866 -43.155 -7.624 QT
-42.687 -8.381 -42.484 -9.241 QT
-42.452 -9.35 -42.343 -9.35 QT
-42.124 -9.35 L
-42.062 -9.35 -42.007 -9.303 QT
-41.952 -9.256 -41.952 -9.194 QT
-41.952 -9.178 -41.984 -9.147 QT
-42.218 -8.116 -42.835 -7.256 QT
-43.452 -6.397 -44.359 -6.397 QT
-44.999 -6.397 -45.444 -6.834 QT
-45.89 -7.272 -45.89 -7.897 QT
-45.89 -8.225 -45.749 -8.6 QT
-45.515 -9.178 -45.226 -9.999 QT
-44.937 -10.819 -44.741 -11.569 QT
-44.546 -12.319 -44.546 -12.881 QT
-44.546 -13.381 -44.757 -13.733 QT
-44.968 -14.084 -45.452 -14.084 QT
-46.124 -14.084 -46.671 -13.795 QT
-47.218 -13.506 -47.632 -13.03 QT
-48.046 -12.553 -48.39 -11.897 QT
-49.609 -6.991 L
-49.671 -6.756 -49.89 -6.577 QT
-50.109 -6.397 -50.374 -6.397 QT
-50.593 -6.397 -50.749 -6.538 QT
-50.905 -6.678 -50.905 -6.913 QT
cp
f
GR
GS
[0.6 0 0 0.6 217.5002 21.75] CT
N
-40.182 -8.053 M
-40.182 -8.319 -40.12 -8.553 QT
-38.823 -13.725 L
-40.714 -13.725 L
-40.901 -13.725 -40.901 -13.959 QT
-40.823 -14.366 -40.651 -14.366 QT
-38.667 -14.366 L
-37.948 -17.303 L
-37.87 -17.538 -37.659 -17.702 QT
-37.448 -17.866 -37.182 -17.866 QT
-36.964 -17.866 -36.807 -17.733 QT
-36.651 -17.6 -36.651 -17.366 QT
-36.651 -17.319 -36.659 -17.288 QT
-36.667 -17.256 -36.667 -17.225 QT
-37.385 -14.366 L
-35.542 -14.366 L
-35.354 -14.366 -35.354 -14.131 QT
-35.354 -14.084 -35.385 -13.975 QT
-35.417 -13.866 -35.456 -13.795 QT
-35.495 -13.725 -35.589 -13.725 QT
-37.542 -13.725 L
-38.839 -8.522 L
-38.964 -8.022 -38.964 -7.647 QT
-38.964 -6.866 -38.448 -6.866 QT
-37.651 -6.866 -37.042 -7.616 QT
-36.432 -8.366 -36.104 -9.241 QT
-36.042 -9.35 -35.964 -9.35 QT
-35.745 -9.35 L
-35.682 -9.35 -35.635 -9.303 QT
-35.589 -9.256 -35.589 -9.194 QT
-35.589 -9.163 -35.604 -9.147 QT
-35.995 -8.053 -36.753 -7.225 QT
-37.51 -6.397 -38.495 -6.397 QT
-39.198 -6.397 -39.69 -6.866 QT
-40.182 -7.334 -40.182 -8.053 QT
cp
f
GR
GS
[0.6 0 0 0.6 217.5002 21.75] CT
N
-31.046 -6.397 M
-31.906 -6.397 -32.554 -6.842 QT
-33.203 -7.288 -33.539 -8.053 QT
-33.874 -8.819 -33.874 -9.663 QT
-33.874 -10.944 -33.234 -12.069 QT
-32.593 -13.194 -31.484 -13.874 QT
-30.374 -14.553 -29.109 -14.553 QT
-28.328 -14.553 -27.757 -14.155 QT
-27.187 -13.756 -27.187 -13.006 QT
-27.187 -11.975 -28.007 -11.467 QT
-28.828 -10.959 -29.867 -10.842 QT
-30.906 -10.725 -32.171 -10.725 QT
-32.218 -10.725 L
-32.515 -9.647 -32.515 -8.881 QT
-32.515 -8.084 -32.14 -7.475 QT
-31.765 -6.866 -31.015 -6.866 QT
-29.937 -6.866 -28.953 -7.358 QT
-27.968 -7.85 -27.343 -8.725 QT
-27.281 -8.788 -27.203 -8.788 QT
-27.109 -8.788 -27.015 -8.686 QT
-26.921 -8.584 -26.921 -8.491 QT
-26.921 -8.413 -26.968 -8.381 QT
-27.624 -7.459 -28.742 -6.928 QT
-29.859 -6.397 -31.046 -6.397 QT
cp
-32.109 -11.194 M
-31.062 -11.194 -30.179 -11.288 QT
-29.296 -11.381 -28.57 -11.772 QT
-27.843 -12.163 -27.843 -12.991 QT
-27.843 -13.319 -28.031 -13.569 QT
-28.218 -13.819 -28.515 -13.952 QT
-28.812 -14.084 -29.124 -14.084 QT
-29.89 -14.084 -30.499 -13.67 QT
-31.109 -13.256 -31.507 -12.592 QT
-31.906 -11.928 -32.109 -11.194 QT
cp
f
GR
GS
[0.6 0 0 0.6 217.5002 21.75] CT
N
-24.744 -6.913 M
-24.744 -7.006 -24.729 -7.069 QT
-23.385 -12.444 L
-23.244 -12.944 -23.244 -13.319 QT
-23.244 -14.084 -23.775 -14.084 QT
-24.338 -14.084 -24.611 -13.413 QT
-24.885 -12.741 -25.135 -11.709 QT
-25.135 -11.663 -25.19 -11.631 QT
-25.244 -11.6 -25.291 -11.6 QT
-25.494 -11.6 L
-25.557 -11.6 -25.604 -11.67 QT
-25.65 -11.741 -25.65 -11.788 QT
-25.463 -12.569 -25.283 -13.116 QT
-25.104 -13.663 -24.721 -14.108 QT
-24.338 -14.553 -23.76 -14.553 QT
-23.135 -14.553 -22.666 -14.194 QT
-22.197 -13.834 -22.088 -13.241 QT
-21.619 -13.85 -21.041 -14.202 QT
-20.463 -14.553 -19.76 -14.553 QT
-19.197 -14.553 -18.76 -14.217 QT
-18.322 -13.881 -18.322 -13.319 QT
-18.322 -12.866 -18.604 -12.522 QT
-18.885 -12.178 -19.369 -12.178 QT
-19.65 -12.178 -19.854 -12.358 QT
-20.057 -12.538 -20.057 -12.834 QT
-20.057 -13.225 -19.768 -13.538 QT
-19.479 -13.85 -19.088 -13.85 QT
-19.385 -14.084 -19.791 -14.084 QT
-20.572 -14.084 -21.143 -13.538 QT
-21.713 -12.991 -22.166 -12.147 QT
-23.447 -6.991 L
-23.51 -6.756 -23.729 -6.577 QT
-23.947 -6.397 -24.213 -6.397 QT
-24.432 -6.397 -24.588 -6.538 QT
-24.744 -6.678 -24.744 -6.913 QT
cp
f
GR
GS
[0.6 0 0 0.6 217.5002 21.75] CT
N
-9.337 -8.553 M
-9.337 -9.147 -9.181 -9.764 QT
-9.024 -10.381 -8.735 -11.147 QT
-8.446 -11.913 -8.243 -12.475 QT
-7.993 -13.131 -7.993 -13.553 QT
-7.993 -14.084 -8.399 -14.084 QT
-9.103 -14.084 -9.564 -13.35 QT
-10.024 -12.616 -10.243 -11.709 QT
-10.29 -11.6 -10.399 -11.6 QT
-10.603 -11.6 L
-10.759 -11.6 -10.759 -11.772 QT
-10.759 -11.819 L
-10.462 -12.897 -9.868 -13.725 QT
-9.274 -14.553 -8.353 -14.553 QT
-7.712 -14.553 -7.274 -14.131 QT
-6.837 -13.709 -6.837 -13.053 QT
-6.837 -12.725 -6.978 -12.35 QT
-7.056 -12.131 -7.337 -11.397 QT
-7.618 -10.663 -7.767 -10.178 QT
-7.915 -9.694 -8.017 -9.225 QT
-8.118 -8.756 -8.118 -8.303 QT
-8.118 -7.694 -7.86 -7.28 QT
-7.603 -6.866 -7.04 -6.866 QT
-5.884 -6.866 -5.009 -8.303 QT
-4.993 -8.366 -4.978 -8.436 QT
-4.962 -8.506 -4.962 -8.553 QT
-3.665 -13.788 L
-3.603 -14.022 -3.384 -14.194 QT
-3.165 -14.366 -2.915 -14.366 QT
-2.696 -14.366 -2.532 -14.225 QT
-2.368 -14.084 -2.368 -13.85 QT
-2.368 -13.741 -2.384 -13.709 QT
-3.681 -8.522 L
-3.806 -7.991 -3.806 -7.647 QT
-3.806 -6.866 -3.29 -6.866 QT
-2.712 -6.866 -2.423 -7.584 QT
-2.134 -8.303 -1.931 -9.241 QT
-1.899 -9.35 -1.79 -9.35 QT
-1.571 -9.35 L
-1.509 -9.35 -1.462 -9.288 QT
-1.415 -9.225 -1.415 -9.178 QT
-1.603 -8.397 -1.79 -7.842 QT
-1.978 -7.288 -2.36 -6.842 QT
-2.743 -6.397 -3.321 -6.397 QT
-3.899 -6.397 -4.353 -6.709 QT
-4.806 -7.022 -4.962 -7.553 QT
-5.368 -7.038 -5.915 -6.717 QT
-6.462 -6.397 -7.071 -6.397 QT
-8.103 -6.397 -8.72 -6.967 QT
-9.337 -7.538 -9.337 -8.553 QT
cp
f
GR
GS
[0.6 0 0 0.6 217.5002 21.75] CT
N
0.267 -4.225 M
0.502 -4.053 0.908 -4.053 QT
1.314 -4.053 1.627 -4.444 QT
1.939 -4.834 2.064 -5.288 QT
2.642 -7.6 L
2.783 -8.225 2.783 -8.459 QT
2.783 -8.772 2.603 -9.014 QT
2.424 -9.256 2.096 -9.256 QT
1.689 -9.256 1.33 -8.999 QT
0.971 -8.741 0.721 -8.342 QT
0.471 -7.944 0.377 -7.538 QT
0.346 -7.459 0.267 -7.459 QT
0.111 -7.459 L
0.002 -7.459 0.002 -7.584 QT
0.002 -7.616 L
0.127 -8.1 0.432 -8.561 QT
0.736 -9.022 1.182 -9.311 QT
1.627 -9.6 2.127 -9.6 QT
2.611 -9.6 2.994 -9.342 QT
3.377 -9.084 3.533 -8.647 QT
3.752 -9.053 4.096 -9.327 QT
4.439 -9.6 4.861 -9.6 QT
5.142 -9.6 5.432 -9.499 QT
5.721 -9.397 5.908 -9.194 QT
6.096 -8.991 6.096 -8.694 QT
6.096 -8.35 5.877 -8.116 QT
5.658 -7.881 5.33 -7.881 QT
5.127 -7.881 4.986 -8.014 QT
4.846 -8.147 4.846 -8.35 QT
4.846 -8.631 5.033 -8.834 QT
5.221 -9.038 5.486 -9.069 QT
5.252 -9.256 4.83 -9.256 QT
4.408 -9.256 4.103 -8.874 QT
3.799 -8.491 3.674 -8.006 QT
3.096 -5.709 L
2.955 -5.194 2.955 -4.85 QT
2.955 -4.522 3.142 -4.288 QT
3.33 -4.053 3.642 -4.053 QT
4.252 -4.053 4.728 -4.584 QT
5.205 -5.116 5.361 -5.756 QT
5.392 -5.834 5.471 -5.834 QT
5.627 -5.834 L
5.674 -5.834 5.705 -5.803 QT
5.736 -5.772 5.736 -5.725 QT
5.736 -5.709 5.721 -5.678 QT
5.549 -4.913 4.955 -4.311 QT
4.361 -3.709 3.627 -3.709 QT
3.142 -3.709 2.76 -3.967 QT
2.377 -4.225 2.221 -4.663 QT
2.017 -4.272 1.658 -3.991 QT
1.299 -3.709 0.892 -3.709 QT
0.611 -3.709 0.314 -3.803 QT
0.017 -3.897 -0.162 -4.1 QT
-0.342 -4.303 -0.342 -4.616 QT
-0.342 -4.928 -0.131 -5.178 QT
0.08 -5.428 0.392 -5.428 QT
0.611 -5.428 0.76 -5.295 QT
0.908 -5.163 0.908 -4.959 QT
0.908 -4.678 0.721 -4.475 QT
0.533 -4.272 0.267 -4.225 QT
cp
f
GR
GS
[0.6 0 0 0.6 217.5002 21.75] CT
N
16.739 -6.397 M
15.614 -6.397 14.958 -7.256 QT
14.302 -8.116 14.302 -9.288 QT
14.302 -10.428 14.895 -11.67 QT
15.489 -12.913 16.505 -13.733 QT
17.52 -14.553 18.692 -14.553 QT
19.224 -14.553 19.645 -14.256 QT
20.067 -13.959 20.317 -13.475 QT
21.317 -17.491 L
21.395 -17.803 21.411 -17.975 QT
21.411 -18.256 20.239 -18.256 QT
20.052 -18.256 20.052 -18.506 QT
20.067 -18.538 20.099 -18.655 QT
20.13 -18.772 20.177 -18.834 QT
20.224 -18.897 20.317 -18.897 QT
22.739 -19.084 L
22.958 -19.084 22.958 -18.866 QT
20.364 -8.506 L
20.239 -8.209 20.239 -7.647 QT
20.239 -6.866 20.755 -6.866 QT
21.317 -6.866 21.614 -7.584 QT
21.911 -8.303 22.114 -9.241 QT
22.145 -9.35 22.255 -9.35 QT
22.474 -9.35 L
22.552 -9.35 22.591 -9.288 QT
22.63 -9.225 22.63 -9.178 QT
22.317 -7.913 21.942 -7.155 QT
21.567 -6.397 20.724 -6.397 QT
20.114 -6.397 19.653 -6.756 QT
19.192 -7.116 19.067 -7.694 QT
17.911 -6.397 16.739 -6.397 QT
cp
16.755 -6.866 M
17.411 -6.866 18.02 -7.358 QT
18.63 -7.85 19.067 -8.506 QT
19.083 -8.522 19.083 -8.584 QT
20.067 -12.538 L
19.974 -13.178 19.614 -13.631 QT
19.255 -14.084 18.645 -14.084 QT
18.052 -14.084 17.528 -13.592 QT
17.005 -13.1 16.645 -12.413 QT
16.286 -11.694 15.966 -10.436 QT
15.645 -9.178 15.645 -8.491 QT
15.645 -7.866 15.911 -7.366 QT
16.177 -6.866 16.755 -6.866 QT
cp
f
GR
GS
[0.6 0 0 0.6 217.5002 21.75] CT
N
24.563 -7.897 M
24.563 -8.225 24.703 -8.6 QT
26.156 -12.475 L
26.406 -13.131 26.406 -13.553 QT
26.406 -14.084 26 -14.084 QT
25.297 -14.084 24.836 -13.35 QT
24.375 -12.616 24.156 -11.709 QT
24.11 -11.6 24 -11.6 QT
23.797 -11.6 L
23.641 -11.6 23.641 -11.772 QT
23.641 -11.819 L
23.938 -12.897 24.531 -13.725 QT
25.125 -14.553 26.047 -14.553 QT
26.688 -14.553 27.125 -14.131 QT
27.563 -13.709 27.563 -13.053 QT
27.563 -12.725 27.422 -12.35 QT
25.953 -8.491 L
25.719 -7.897 25.719 -7.413 QT
25.719 -6.866 26.125 -6.866 QT
26.828 -6.866 27.297 -7.624 QT
27.766 -8.381 27.969 -9.241 QT
28 -9.35 28.11 -9.35 QT
28.328 -9.35 L
28.391 -9.35 28.438 -9.303 QT
28.485 -9.256 28.485 -9.194 QT
28.485 -9.178 28.469 -9.147 QT
28.219 -8.116 27.61 -7.256 QT
27 -6.397 26.094 -6.397 QT
25.453 -6.397 25.008 -6.834 QT
24.563 -7.272 24.563 -7.897 QT
cp
26.594 -17.506 M
26.594 -17.881 26.906 -18.194 QT
27.219 -18.506 27.61 -18.506 QT
27.906 -18.506 28.11 -18.311 QT
28.313 -18.116 28.313 -17.834 QT
28.313 -17.428 27.992 -17.124 QT
27.672 -16.819 27.281 -16.819 QT
26.985 -16.819 26.789 -17.022 QT
26.594 -17.225 26.594 -17.506 QT
cp
f
GR
GS
[0.6 0 0 0.6 217.5002 21.75] CT
N
31.035 -7.694 M
31.519 -6.866 32.973 -6.866 QT
33.613 -6.866 34.183 -7.084 QT
34.754 -7.303 35.129 -7.733 QT
35.504 -8.163 35.504 -8.788 QT
35.504 -9.241 35.168 -9.545 QT
34.832 -9.85 34.348 -9.944 QT
33.379 -10.147 L
32.707 -10.303 32.277 -10.764 QT
31.848 -11.225 31.848 -11.881 QT
31.848 -12.678 32.285 -13.288 QT
32.723 -13.897 33.433 -14.225 QT
34.144 -14.553 34.91 -14.553 QT
35.723 -14.553 36.371 -14.163 QT
37.019 -13.772 37.019 -13.006 QT
37.019 -12.6 36.785 -12.28 QT
36.551 -11.959 36.129 -11.959 QT
35.894 -11.959 35.723 -12.116 QT
35.551 -12.272 35.551 -12.506 QT
35.551 -12.725 35.668 -12.92 QT
35.785 -13.116 35.988 -13.233 QT
36.191 -13.35 36.394 -13.35 QT
36.238 -13.741 35.801 -13.913 QT
35.363 -14.084 34.863 -14.084 QT
34.41 -14.084 33.957 -13.905 QT
33.504 -13.725 33.223 -13.366 QT
32.941 -13.006 32.941 -12.522 QT
32.941 -12.194 33.168 -11.952 QT
33.394 -11.709 33.738 -11.6 QT
34.785 -11.397 L
35.285 -11.288 35.699 -11.022 QT
36.113 -10.756 36.355 -10.342 QT
36.598 -9.928 36.598 -9.397 QT
36.598 -8.741 36.223 -8.084 QT
35.848 -7.428 35.316 -7.053 QT
34.348 -6.397 32.957 -6.397 QT
32.004 -6.397 31.207 -6.834 QT
30.41 -7.272 30.41 -8.147 QT
30.41 -8.647 30.691 -9.006 QT
30.973 -9.366 31.473 -9.366 QT
31.754 -9.366 31.957 -9.194 QT
32.16 -9.022 32.16 -8.725 QT
32.16 -8.319 31.848 -8.006 QT
31.535 -7.694 31.129 -7.694 QT
31.035 -7.694 L
cp
f
GR
GS
[0.6 0 0 0.6 217.5002 21.75] CT
N
37.613 -3.116 M
37.457 -3.116 37.457 -3.334 QT
37.519 -3.741 37.691 -3.741 QT
38.254 -3.741 38.48 -3.842 QT
38.707 -3.944 38.816 -4.35 QT
40.848 -12.459 L
40.988 -12.788 40.988 -13.319 QT
40.988 -14.084 40.457 -14.084 QT
39.894 -14.084 39.621 -13.413 QT
39.348 -12.741 39.098 -11.709 QT
39.098 -11.6 38.941 -11.6 QT
38.738 -11.6 L
38.691 -11.6 38.637 -11.67 QT
38.582 -11.741 38.582 -11.788 QT
38.785 -12.569 38.965 -13.116 QT
39.144 -13.663 39.527 -14.108 QT
39.91 -14.553 40.473 -14.553 QT
41.098 -14.553 41.558 -14.209 QT
42.019 -13.866 42.16 -13.256 QT
42.644 -13.834 43.246 -14.194 QT
43.848 -14.553 44.473 -14.553 QT
45.223 -14.553 45.785 -14.147 QT
46.348 -13.741 46.629 -13.092 QT
46.91 -12.444 46.91 -11.678 QT
46.91 -10.522 46.316 -9.28 QT
45.723 -8.038 44.707 -7.217 QT
43.691 -6.397 42.535 -6.397 QT
42.004 -6.397 41.574 -6.694 QT
41.144 -6.991 40.91 -7.475 QT
40.098 -4.272 L
40.051 -4.022 40.051 -3.975 QT
40.051 -3.741 41.238 -3.741 QT
41.41 -3.741 41.41 -3.506 QT
41.348 -3.272 41.308 -3.194 QT
41.269 -3.116 41.113 -3.116 QT
37.613 -3.116 L
cp
42.551 -6.866 M
43.176 -6.866 43.707 -7.381 QT
44.238 -7.897 44.582 -8.538 QT
44.832 -9.022 45.043 -9.725 QT
45.254 -10.428 45.41 -11.217 QT
45.566 -12.006 45.566 -12.475 QT
45.566 -12.881 45.457 -13.241 QT
45.348 -13.6 45.098 -13.842 QT
44.848 -14.084 44.441 -14.084 QT
43.785 -14.084 43.199 -13.616 QT
42.613 -13.147 42.129 -12.459 QT
42.129 -12.397 L
41.144 -8.413 L
41.269 -7.772 41.621 -7.319 QT
41.973 -6.866 42.551 -6.866 QT
cp
f
GR
GS
[0.6 0 0 0.6 217.5002 21.75] CT
N
48.087 -8.053 M
48.087 -8.116 48.095 -8.217 QT
48.103 -8.319 48.118 -8.42 QT
48.134 -8.522 48.134 -8.584 QT
50.368 -17.491 L
50.431 -17.803 50.462 -17.975 QT
50.462 -18.256 49.29 -18.256 QT
49.103 -18.256 49.103 -18.506 QT
49.118 -18.538 49.15 -18.655 QT
49.181 -18.772 49.228 -18.834 QT
49.275 -18.897 49.368 -18.897 QT
51.79 -19.084 L
52.009 -19.084 52.009 -18.866 QT
49.415 -8.506 L
49.29 -8.225 49.29 -7.647 QT
49.29 -6.866 49.806 -6.866 QT
50.368 -6.866 50.642 -7.561 QT
50.915 -8.256 51.134 -9.241 QT
51.181 -9.35 51.29 -9.35 QT
51.493 -9.35 L
51.571 -9.35 51.618 -9.295 QT
51.665 -9.241 51.665 -9.178 QT
51.462 -8.303 51.29 -7.795 QT
51.118 -7.288 50.736 -6.842 QT
50.353 -6.397 49.775 -6.397 QT
49.056 -6.397 48.571 -6.866 QT
48.087 -7.334 48.087 -8.053 QT
cp
f
GR
GS
[0.6 0 0 0.6 217.5002 21.75] CT
N
56.246 -6.397 M
55.121 -6.397 54.465 -7.256 QT
53.809 -8.116 53.809 -9.288 QT
53.809 -10.428 54.403 -11.67 QT
54.996 -12.913 56.012 -13.733 QT
57.028 -14.553 58.199 -14.553 QT
58.731 -14.553 59.153 -14.264 QT
59.574 -13.975 59.824 -13.475 QT
60.028 -14.194 60.606 -14.194 QT
60.84 -14.194 60.996 -14.061 QT
61.153 -13.928 61.153 -13.694 QT
61.153 -13.647 61.145 -13.616 QT
61.137 -13.584 61.121 -13.553 QT
59.871 -8.522 L
59.746 -7.991 59.746 -7.647 QT
59.746 -6.866 60.262 -6.866 QT
60.824 -6.866 61.121 -7.584 QT
61.418 -8.303 61.621 -9.241 QT
61.653 -9.35 61.762 -9.35 QT
61.981 -9.35 L
62.059 -9.35 62.098 -9.288 QT
62.137 -9.225 62.137 -9.178 QT
61.824 -7.913 61.449 -7.155 QT
61.074 -6.397 60.231 -6.397 QT
59.621 -6.397 59.16 -6.756 QT
58.699 -7.116 58.574 -7.694 QT
57.418 -6.397 56.246 -6.397 QT
cp
56.262 -6.866 M
56.918 -6.866 57.528 -7.358 QT
58.137 -7.85 58.574 -8.506 QT
58.59 -8.522 58.59 -8.553 QT
59.559 -12.475 L
59.574 -12.522 L
59.481 -13.163 59.121 -13.624 QT
58.762 -14.084 58.153 -14.084 QT
57.559 -14.084 57.035 -13.592 QT
56.512 -13.1 56.153 -12.413 QT
55.793 -11.694 55.473 -10.436 QT
55.153 -9.178 55.153 -8.491 QT
55.153 -7.866 55.418 -7.366 QT
55.684 -6.866 56.262 -6.866 QT
cp
f
GR
GS
[0.6 0 0 0.6 217.5002 21.75] CT
N
64.921 -8.741 M
64.921 -7.959 65.32 -7.413 QT
65.718 -6.866 66.468 -6.866 QT
67.546 -6.866 68.531 -7.358 QT
69.515 -7.85 70.14 -8.725 QT
70.203 -8.788 70.281 -8.788 QT
70.375 -8.788 70.468 -8.686 QT
70.562 -8.584 70.562 -8.491 QT
70.562 -8.413 70.515 -8.381 QT
69.859 -7.459 68.742 -6.928 QT
67.625 -6.397 66.437 -6.397 QT
65.578 -6.397 64.914 -6.803 QT
64.25 -7.209 63.89 -7.897 QT
63.531 -8.584 63.531 -9.444 QT
63.531 -10.663 64.21 -11.858 QT
64.89 -13.053 66.015 -13.803 QT
67.14 -14.553 68.375 -14.553 QT
69.187 -14.553 69.835 -14.163 QT
70.484 -13.772 70.484 -13.006 QT
70.484 -12.522 70.195 -12.17 QT
69.906 -11.819 69.421 -11.819 QT
69.125 -11.819 68.929 -11.999 QT
68.734 -12.178 68.734 -12.475 QT
68.734 -12.897 69.046 -13.194 QT
69.359 -13.491 69.765 -13.491 QT
69.796 -13.491 L
69.593 -13.803 69.195 -13.944 QT
68.796 -14.084 68.359 -14.084 QT
67.296 -14.084 66.507 -13.186 QT
65.718 -12.288 65.32 -11.038 QT
64.921 -9.788 64.921 -8.741 QT
cp
f
GR
GS
[0.6 0 0 0.6 217.5002 21.75] CT
N
74.371 -6.397 M
73.512 -6.397 72.863 -6.842 QT
72.215 -7.288 71.879 -8.053 QT
71.543 -8.819 71.543 -9.663 QT
71.543 -10.944 72.183 -12.069 QT
72.824 -13.194 73.933 -13.874 QT
75.043 -14.553 76.308 -14.553 QT
77.09 -14.553 77.66 -14.155 QT
78.23 -13.756 78.23 -13.006 QT
78.23 -11.975 77.41 -11.467 QT
76.59 -10.959 75.551 -10.842 QT
74.512 -10.725 73.246 -10.725 QT
73.199 -10.725 L
72.902 -9.647 72.902 -8.881 QT
72.902 -8.084 73.277 -7.475 QT
73.652 -6.866 74.402 -6.866 QT
75.48 -6.866 76.465 -7.358 QT
77.449 -7.85 78.074 -8.725 QT
78.137 -8.788 78.215 -8.788 QT
78.308 -8.788 78.402 -8.686 QT
78.496 -8.584 78.496 -8.491 QT
78.496 -8.413 78.449 -8.381 QT
77.793 -7.459 76.676 -6.928 QT
75.558 -6.397 74.371 -6.397 QT
cp
73.308 -11.194 M
74.355 -11.194 75.238 -11.288 QT
76.121 -11.381 76.847 -11.772 QT
77.574 -12.163 77.574 -12.991 QT
77.574 -13.319 77.387 -13.569 QT
77.199 -13.819 76.902 -13.952 QT
76.605 -14.084 76.293 -14.084 QT
75.527 -14.084 74.918 -13.67 QT
74.308 -13.256 73.91 -12.592 QT
73.512 -11.928 73.308 -11.194 QT
cp
f
GR
GS
[0.6 0 0 0.6 217.5002 21.75] CT
N
80.673 -6.913 M
80.673 -7.006 80.689 -7.069 QT
82.032 -12.444 L
82.173 -12.944 82.173 -13.319 QT
82.173 -14.084 81.642 -14.084 QT
81.079 -14.084 80.806 -13.413 QT
80.532 -12.741 80.282 -11.709 QT
80.282 -11.663 80.228 -11.631 QT
80.173 -11.6 80.126 -11.6 QT
79.923 -11.6 L
79.861 -11.6 79.814 -11.67 QT
79.767 -11.741 79.767 -11.788 QT
79.954 -12.569 80.134 -13.116 QT
80.314 -13.663 80.696 -14.108 QT
81.079 -14.553 81.657 -14.553 QT
82.329 -14.553 82.853 -14.131 QT
83.376 -13.709 83.376 -13.038 QT
83.907 -13.741 84.626 -14.147 QT
85.345 -14.553 86.157 -14.553 QT
87.001 -14.553 87.626 -14.116 QT
88.251 -13.678 88.251 -12.881 QT
88.798 -13.663 89.54 -14.108 QT
90.282 -14.553 91.173 -14.553 QT
92.095 -14.553 92.665 -14.045 QT
93.236 -13.538 93.236 -12.616 QT
93.236 -11.881 92.907 -10.834 QT
92.579 -9.788 92.079 -8.491 QT
91.829 -7.866 91.829 -7.413 QT
91.829 -6.866 92.251 -6.866 QT
92.954 -6.866 93.415 -7.624 QT
93.876 -8.381 94.079 -9.241 QT
94.126 -9.35 94.22 -9.35 QT
94.439 -9.35 L
94.501 -9.35 94.548 -9.303 QT
94.595 -9.256 94.595 -9.194 QT
94.595 -9.178 94.579 -9.147 QT
94.345 -8.116 93.728 -7.256 QT
93.111 -6.397 92.204 -6.397 QT
91.564 -6.397 91.118 -6.834 QT
90.673 -7.272 90.673 -7.897 QT
90.673 -8.209 90.829 -8.6 QT
91.329 -9.944 91.673 -11.006 QT
92.017 -12.069 92.017 -12.881 QT
92.017 -13.381 91.814 -13.733 QT
91.611 -14.084 91.126 -14.084 QT
90.142 -14.084 89.423 -13.483 QT
88.704 -12.881 88.173 -11.897 QT
88.142 -11.709 88.126 -11.616 QT
86.97 -6.991 L
86.907 -6.756 86.689 -6.577 QT
86.47 -6.397 86.204 -6.397 QT
86.001 -6.397 85.837 -6.538 QT
85.673 -6.678 85.673 -6.913 QT
85.673 -7.006 85.689 -7.069 QT
86.845 -11.647 L
87.032 -12.397 87.032 -12.881 QT
87.032 -13.381 86.821 -13.733 QT
86.611 -14.084 86.126 -14.084 QT
85.454 -14.084 84.907 -13.795 QT
84.361 -13.506 83.946 -13.03 QT
83.532 -12.553 83.189 -11.897 QT
81.97 -6.991 L
81.907 -6.756 81.689 -6.577 QT
81.47 -6.397 81.204 -6.397 QT
80.986 -6.397 80.829 -6.538 QT
80.673 -6.678 80.673 -6.913 QT
cp
f
GR
GS
[0.6 0 0 0.6 217.5002 21.75] CT
N
99.004 -6.397 M
98.145 -6.397 97.497 -6.842 QT
96.848 -7.288 96.512 -8.053 QT
96.176 -8.819 96.176 -9.663 QT
96.176 -10.944 96.817 -12.069 QT
97.457 -13.194 98.567 -13.874 QT
99.676 -14.553 100.942 -14.553 QT
101.723 -14.553 102.293 -14.155 QT
102.864 -13.756 102.864 -13.006 QT
102.864 -11.975 102.043 -11.467 QT
101.223 -10.959 100.184 -10.842 QT
99.145 -10.725 97.879 -10.725 QT
97.832 -10.725 L
97.536 -9.647 97.536 -8.881 QT
97.536 -8.084 97.911 -7.475 QT
98.286 -6.866 99.036 -6.866 QT
100.114 -6.866 101.098 -7.358 QT
102.082 -7.85 102.707 -8.725 QT
102.77 -8.788 102.848 -8.788 QT
102.942 -8.788 103.036 -8.686 QT
103.129 -8.584 103.129 -8.491 QT
103.129 -8.413 103.082 -8.381 QT
102.426 -7.459 101.309 -6.928 QT
100.192 -6.397 99.004 -6.397 QT
cp
97.942 -11.194 M
98.989 -11.194 99.872 -11.288 QT
100.754 -11.381 101.481 -11.772 QT
102.207 -12.163 102.207 -12.991 QT
102.207 -13.319 102.02 -13.569 QT
101.832 -13.819 101.536 -13.952 QT
101.239 -14.084 100.926 -14.084 QT
100.161 -14.084 99.551 -13.67 QT
98.942 -13.256 98.543 -12.592 QT
98.145 -11.928 97.942 -11.194 QT
cp
f
GR
GS
[0.6 0 0 0.6 217.5002 21.75] CT
N
105.306 -6.913 M
105.306 -7.006 105.322 -7.069 QT
106.666 -12.444 L
106.806 -12.944 106.806 -13.319 QT
106.806 -14.084 106.275 -14.084 QT
105.713 -14.084 105.439 -13.413 QT
105.166 -12.741 104.916 -11.709 QT
104.916 -11.663 104.861 -11.631 QT
104.806 -11.6 104.76 -11.6 QT
104.556 -11.6 L
104.494 -11.6 104.447 -11.67 QT
104.4 -11.741 104.4 -11.788 QT
104.588 -12.569 104.767 -13.116 QT
104.947 -13.663 105.33 -14.108 QT
105.713 -14.553 106.291 -14.553 QT
106.963 -14.553 107.486 -14.131 QT
108.01 -13.709 108.01 -13.038 QT
108.541 -13.741 109.26 -14.147 QT
109.978 -14.553 110.791 -14.553 QT
111.431 -14.553 111.9 -14.334 QT
112.369 -14.116 112.627 -13.67 QT
112.885 -13.225 112.885 -12.616 QT
112.885 -11.881 112.556 -10.834 QT
112.228 -9.788 111.728 -8.491 QT
111.478 -7.897 111.478 -7.413 QT
111.478 -6.866 111.885 -6.866 QT
112.588 -6.866 113.056 -7.624 QT
113.525 -8.381 113.728 -9.241 QT
113.76 -9.35 113.869 -9.35 QT
114.088 -9.35 L
114.15 -9.35 114.205 -9.303 QT
114.26 -9.256 114.26 -9.194 QT
114.26 -9.178 114.228 -9.147 QT
113.994 -8.116 113.377 -7.256 QT
112.76 -6.397 111.853 -6.397 QT
111.213 -6.397 110.767 -6.834 QT
110.322 -7.272 110.322 -7.897 QT
110.322 -8.225 110.463 -8.6 QT
110.697 -9.178 110.986 -9.999 QT
111.275 -10.819 111.47 -11.569 QT
111.666 -12.319 111.666 -12.881 QT
111.666 -13.381 111.455 -13.733 QT
111.244 -14.084 110.76 -14.084 QT
110.088 -14.084 109.541 -13.795 QT
108.994 -13.506 108.58 -13.03 QT
108.166 -12.553 107.822 -11.897 QT
106.603 -6.991 L
106.541 -6.756 106.322 -6.577 QT
106.103 -6.397 105.838 -6.397 QT
105.619 -6.397 105.463 -6.538 QT
105.306 -6.678 105.306 -6.913 QT
cp
f
GR
GS
[0.6 0 0 0.6 217.5002 21.75] CT
N
116.029 -8.053 M
116.029 -8.319 116.092 -8.553 QT
117.389 -13.725 L
115.498 -13.725 L
115.311 -13.725 115.311 -13.959 QT
115.389 -14.366 115.561 -14.366 QT
117.545 -14.366 L
118.264 -17.303 L
118.342 -17.538 118.553 -17.702 QT
118.764 -17.866 119.029 -17.866 QT
119.248 -17.866 119.404 -17.733 QT
119.561 -17.6 119.561 -17.366 QT
119.561 -17.319 119.553 -17.288 QT
119.545 -17.256 119.545 -17.225 QT
118.826 -14.366 L
120.67 -14.366 L
120.858 -14.366 120.858 -14.131 QT
120.858 -14.084 120.826 -13.975 QT
120.795 -13.866 120.756 -13.795 QT
120.717 -13.725 120.623 -13.725 QT
118.67 -13.725 L
117.373 -8.522 L
117.248 -8.022 117.248 -7.647 QT
117.248 -6.866 117.764 -6.866 QT
118.561 -6.866 119.17 -7.616 QT
119.779 -8.366 120.108 -9.241 QT
120.17 -9.35 120.248 -9.35 QT
120.467 -9.35 L
120.529 -9.35 120.576 -9.303 QT
120.623 -9.256 120.623 -9.194 QT
120.623 -9.163 120.608 -9.147 QT
120.217 -8.053 119.459 -7.225 QT
118.701 -6.397 117.717 -6.397 QT
117.014 -6.397 116.522 -6.866 QT
116.029 -7.334 116.029 -8.053 QT
cp
f
GR
GS
[0.6 0 0 0.6 0 0] CT
0 0.447 0.741 RC
1 LJ
0.833 LW
N
91 86.556 M
96.43 87.539 L
107.29 88.068 L
112.72 86.968 L
123.58 98.826 L
129.01 99.001 L
139.87 99.409 L
145.3 99.06 L
150.73 96.899 L
161.59 96.073 L
167.02 95.726 L
177.88 95.569 L
183.31 95.434 L
194.17 95.375 L
199.6 95.725 L
205.03 95.634 L
215.89 95.556 L
221.32 96.035 L
232.18 95.977 L
237.61 96.033 L
248.47 96.544 L
253.9 96.232 L
259.33 96.121 L
270.19 96.125 L
275.62 96.282 L
286.48 96.235 L
291.91 96.294 L
302.77 96.232 L
308.2 96.272 L
313.63 96.258 L
324.49 96.242 L
329.92 96.068 L
340.78 96.319 L
346.21 96.333 L
357.07 96.313 L
362.5 96.402 L
367.93 96.424 L
378.79 96.304 L
384.22 96.374 L
395.08 95.656 L
400.51 95.374 L
411.37 95.4 L
416.8 95.621 L
422.23 95.665 L
433.09 96.5 L
438.52 98.439 L
449.38 98.33 L
454.81 98.501 L
465.67 98.194 L
471.1 98.231 L
476.53 98.325 L
487.39 98.06 L
492.82 97.962 L
503.68 98.371 L
509.11 98.395 L
519.97 98.245 L
525.4 98.229 L
530.83 98.167 L
541.69 98.329 L
547.12 98.319 L
557.98 98.195 L
563.41 98.211 L
574.27 98.215 L
579.7 98.344 L
585.13 98.298 L
595.99 98.404 L
601.42 98.403 L
612.28 98.36 L
617.71 98.33 L
628.57 98.276 L
634 98.154 L
S
GR
GS
[0.6 0 0 0.6 0 0] CT
0.851 0.325 0.098 RC
1 LJ
0.833 LW
N
91 86.556 M
96.43 91.509 L
107.29 93.468 L
112.72 95.573 L
123.58 86.214 L
129.01 85.199 L
139.87 83.872 L
145.3 80.827 L
150.73 78.772 L
161.59 79.683 L
167.02 78.423 L
177.88 78.985 L
183.31 78.568 L
194.17 78.232 L
199.6 77.791 L
205.03 77.492 L
215.89 77.081 L
221.32 77.606 L
232.18 77.081 L
237.61 76.848 L
248.47 76.63 L
253.9 76.37 L
259.33 76.233 L
270.19 76.113 L
275.62 75.837 L
286.48 75.78 L
291.91 75.761 L
302.77 75.376 L
308.2 75.591 L
313.63 75.485 L
324.49 75.136 L
329.92 74.871 L
340.78 74.924 L
346.21 74.641 L
357.07 74.833 L
362.5 74.641 L
367.93 74.671 L
378.79 74.703 L
384.22 74.289 L
395.08 68.813 L
400.51 71.264 L
411.37 70.585 L
416.8 69.538 L
422.23 69.638 L
433.09 63.827 L
438.52 64.673 L
449.38 66.385 L
454.81 65.739 L
465.67 66.138 L
471.1 65.714 L
476.53 66.32 L
487.39 66.011 L
492.82 65.65 L
503.68 65.454 L
509.11 65.627 L
519.97 65.575 L
525.4 65.416 L
530.83 65.393 L
541.69 65.372 L
547.12 65.325 L
557.98 65.214 L
563.41 65.063 L
574.27 65.121 L
579.7 65.109 L
585.13 65.017 L
595.99 64.806 L
601.42 64.872 L
612.28 64.684 L
617.71 64.704 L
628.57 64.375 L
634 64.541 L
S
GR
GS
[0.6 0 0 0.6 0 0] CT
0.929 0.694 0.125 RC
1 LJ
0.833 LW
N
91 86.556 M
96.43 124.616 L
107.29 136.944 L
112.72 192.492 L
123.58 204.895 L
129.01 205.577 L
139.87 209.939 L
145.3 226.625 L
150.73 245.144 L
161.59 243.902 L
167.02 242.517 L
177.88 243.371 L
183.31 242.624 L
194.17 242.326 L
199.6 242.344 L
205.03 240.809 L
215.89 241.973 L
221.32 242.001 L
232.18 241.968 L
237.61 242.178 L
248.47 242.535 L
253.9 242.634 L
259.33 242.851 L
270.19 243.264 L
275.62 243.211 L
286.48 243.255 L
291.91 243.416 L
302.77 243.665 L
308.2 243.917 L
313.63 243.875 L
324.49 243.989 L
329.92 243.721 L
340.78 243.969 L
346.21 244.175 L
357.07 244.164 L
362.5 244.018 L
367.93 243.92 L
378.79 244.254 L
384.22 245.781 L
395.08 251.053 L
400.51 249.299 L
411.37 250.635 L
416.8 254.021 L
422.23 253.64 L
433.09 269.816 L
438.52 285.953 L
449.38 281.249 L
454.81 283.388 L
465.67 280.709 L
471.1 280.586 L
476.53 279.566 L
487.39 279.928 L
492.82 280.271 L
503.68 279.96 L
509.11 280.707 L
519.97 280.933 L
525.4 280.462 L
530.83 280.781 L
541.69 280.761 L
547.12 281.142 L
557.98 281.094 L
563.41 280.971 L
574.27 281.189 L
579.7 281.366 L
585.13 281.673 L
595.99 281.895 L
601.42 281.594 L
612.28 281.553 L
617.71 281.58 L
628.57 281.671 L
634 281.785 L
S
GR
GS
[0.6 0 0 0.6 0 0] CT
0.494 0.184 0.557 RC
1 LJ
0.833 LW
N
91 86.556 M
96.43 94.866 L
107.29 96.892 L
112.72 90.904 L
123.58 90.059 L
129.01 90.689 L
139.87 89.817 L
145.3 88.723 L
150.73 89.082 L
161.59 90.311 L
167.02 89.793 L
177.88 89.413 L
183.31 88.56 L
194.17 88.806 L
199.6 88.867 L
205.03 89.102 L
215.89 88.841 L
221.32 89.08 L
232.18 88.747 L
237.61 88.931 L
248.47 88.634 L
253.9 88.542 L
259.33 88.489 L
270.19 88.772 L
275.62 88.435 L
286.48 88.66 L
291.91 88.673 L
302.77 88.417 L
308.2 88.513 L
313.63 88.518 L
324.49 88.448 L
329.92 88.436 L
340.78 88.575 L
346.21 88.489 L
357.07 88.204 L
362.5 88.411 L
367.93 88.29 L
378.79 88.357 L
384.22 88.225 L
395.08 85.504 L
400.51 87.484 L
411.37 86.804 L
416.8 86.679 L
422.23 86.488 L
433.09 85.876 L
438.52 83.141 L
449.38 83.877 L
454.81 83.537 L
465.67 84.014 L
471.1 83.35 L
476.53 84.12 L
487.39 83.286 L
492.82 83.316 L
503.68 83.327 L
509.11 83.381 L
519.97 83.409 L
525.4 83.116 L
530.83 83.218 L
541.69 83.433 L
547.12 83.288 L
557.98 83.094 L
563.41 83.255 L
574.27 83.317 L
579.7 83.2 L
585.13 83.235 L
595.99 82.955 L
601.42 82.982 L
612.28 83.126 L
617.71 83.091 L
628.57 83.043 L
634 82.976 L
S
GR
GS
[0.6 0 0 0.6 0 0] CT
0.467 0.675 0.188 RC
1 LJ
0.833 LW
N
91 86.556 M
96.43 160.613 L
107.29 183.629 L
112.72 292.317 L
123.58 298.641 L
129.01 299.071 L
139.87 308.638 L
145.3 341.572 L
150.73 378.775 L
161.59 376.95 L
167.02 374.905 L
177.88 374.216 L
183.31 373.498 L
194.17 373.17 L
199.6 373.869 L
205.03 371.979 L
215.89 373.201 L
221.32 372.747 L
232.18 373.555 L
237.61 373.891 L
248.47 373.706 L
253.9 373.597 L
259.33 374.302 L
270.19 374.251 L
275.62 374.486 L
286.48 374.838 L
291.91 374.68 L
302.77 374.971 L
308.2 375.008 L
313.63 375.369 L
324.49 375.398 L
329.92 375.586 L
340.78 375.765 L
346.21 375.94 L
357.07 375.926 L
362.5 376.053 L
367.93 376.159 L
378.79 376.643 L
384.22 379.468 L
395.08 385.203 L
400.51 379.305 L
411.37 382.229 L
416.8 389.565 L
422.23 388.798 L
433.09 422.987 L
438.52 446.987 L
449.38 437.175 L
454.81 441.683 L
465.67 436.155 L
471.1 435.992 L
476.53 434 L
487.39 434.387 L
492.82 435.24 L
503.68 434.912 L
509.11 435.739 L
519.97 435.851 L
525.4 434.917 L
530.83 435.052 L
541.69 435.134 L
547.12 435.669 L
557.98 435.8 L
563.41 435.673 L
574.27 435.932 L
579.7 435.85 L
585.13 436.093 L
595.99 435.739 L
601.42 435.867 L
612.28 435.902 L
617.71 435.811 L
628.57 435.835 L
634 436.009 L
S
GR
GS
[0.6 0 0 0.6 0 0] CT
1 GC
N
623 229 M
623 121 L
488 121 L
488 229 L
cp
f
GR
GS
[0.6 0 0 0.6 328.11541 80.13488] CT
/Helvetica 15 F
GS
[1 0 0 1 0 0] CT
0 6 moveto 
1 -1 scale
(0,00\272) t 
GR
GR
GS
[0.6 0 0 0.6 0 0] CT
0 0.447 0.741 RC
1 LJ
0.833 LW
N
493.009 133.558 M
543.102 133.558 L
S
GR
GS
[0.6 0 0 0.6 328.11541 92.56744] CT
/Helvetica 15 F
GS
[1 0 0 1 0 0] CT
0 6 moveto 
1 -1 scale
(0,25\272 conc) t 
GR
GR
GS
[0.6 0 0 0.6 0 0] CT
0.851 0.325 0.098 RC
1 LJ
0.833 LW
N
493.009 154.279 M
543.102 154.279 L
S
GR
GS
[0.6 0 0 0.6 328.11541 105] CT
/Helvetica 15 F
GS
[1 0 0 1 0 0] CT
0 6 moveto 
1 -1 scale
(0,25\272 ecc) t 
GR
GR
GS
[0.6 0 0 0.6 0 0] CT
0.929 0.694 0.125 RC
1 LJ
0.833 LW
N
493.009 175 M
543.102 175 L
S
GR
GS
[0.6 0 0 0.6 328.11541 117.43256] CT
/Helvetica 15 F
GS
[1 0 0 1 0 0] CT
0 6 moveto 
1 -1 scale
(0,50\272 conc) t 
GR
GR
GS
[0.6 0 0 0.6 0 0] CT
0.494 0.184 0.557 RC
1 LJ
0.833 LW
N
493.009 195.721 M
543.102 195.721 L
S
GR
GS
[0.6 0 0 0.6 328.11541 129.86512] CT
/Helvetica 15 F
GS
[1 0 0 1 0 0] CT
0 6 moveto 
1 -1 scale
(0,50\272 ecc) t 
GR
GR
GS
[0.6 0 0 0.6 0 0] CT
0.467 0.675 0.188 RC
1 LJ
0.833 LW
N
493.009 216.442 M
543.102 216.442 L
S
GR
GS
[0.6 0 0 0.6 0 0] CT
0.149 GC
10.0 ML
0.833 LW
N
488 229 M
488 121 L
623 121 L
623 229 L
cp
S
GR
%%Trailer
%%Pages: 1
%%EOF
