%!PS-Adobe-3.0 EPSF-3.0
%%Creator: (MATLAB, The Mathworks, Inc. Version 9.5.0.1067069 \(R2018b\) Update 4. Operating System: Windows 10)
%%Title: ./Mass_center_Uz_displacements.eps
%%CreationDate: 2019-05-16T09:47:58
%%Pages: (atend)
%%BoundingBox:    12     5   386   305
%%LanguageLevel: 3
%%EndComments
%%BeginProlog
%%BeginResource: procset (Apache XML Graphics Std ProcSet) 1.2 0
%%Version: 1.2 0
%%Copyright: (Copyright 2001-2003,2010 The Apache Software Foundation. License terms: http://www.apache.org/licenses/LICENSE-2.0)
/bd{bind def}bind def
/ld{load def}bd
/GR/grestore ld
/GS/gsave ld
/RM/rmoveto ld
/C/curveto ld
/t/show ld
/L/lineto ld
/ML/setmiterlimit ld
/CT/concat ld
/f/fill ld
/N/newpath ld
/S/stroke ld
/CC/setcmykcolor ld
/A/ashow ld
/cp/closepath ld
/RC/setrgbcolor ld
/LJ/setlinejoin ld
/GC/setgray ld
/LW/setlinewidth ld
/M/moveto ld
/re {4 2 roll M
1 index 0 rlineto
0 exch rlineto
neg 0 rlineto
cp } bd
/_ctm matrix def
/_tm matrix def
/BT { _ctm currentmatrix pop matrix _tm copy pop 0 0 moveto } bd
/ET { _ctm setmatrix } bd
/iTm { _ctm setmatrix _tm concat } bd
/Tm { _tm astore pop iTm 0 0 moveto } bd
/ux 0.0 def
/uy 0.0 def
/F {
  /Tp exch def
  /Tf exch def
  Tf findfont Tp scalefont setfont
  /cf Tf def  /cs Tp def
} bd
/ULS {currentpoint /uy exch def /ux exch def} bd
/ULE {
  /Tcx currentpoint pop def
  gsave
  newpath
  cf findfont cs scalefont dup
  /FontMatrix get 0 get /Ts exch def /FontInfo get dup
  /UnderlinePosition get Ts mul /To exch def
  /UnderlineThickness get Ts mul /Tt exch def
  ux uy To add moveto  Tcx uy To add lineto
  Tt setlinewidth stroke
  grestore
} bd
/OLE {
  /Tcx currentpoint pop def
  gsave
  newpath
  cf findfont cs scalefont dup
  /FontMatrix get 0 get /Ts exch def /FontInfo get dup
  /UnderlinePosition get Ts mul /To exch def
  /UnderlineThickness get Ts mul /Tt exch def
  ux uy To add cs add moveto Tcx uy To add cs add lineto
  Tt setlinewidth stroke
  grestore
} bd
/SOE {
  /Tcx currentpoint pop def
  gsave
  newpath
  cf findfont cs scalefont dup
  /FontMatrix get 0 get /Ts exch def /FontInfo get dup
  /UnderlinePosition get Ts mul /To exch def
  /UnderlineThickness get Ts mul /Tt exch def
  ux uy To add cs 10 mul 26 idiv add moveto Tcx uy To add cs 10 mul 26 idiv add lineto
  Tt setlinewidth stroke
  grestore
} bd
/QT {
/Y22 exch store
/X22 exch store
/Y21 exch store
/X21 exch store
currentpoint
/Y21 load 2 mul add 3 div exch
/X21 load 2 mul add 3 div exch
/X21 load 2 mul /X22 load add 3 div
/Y21 load 2 mul /Y22 load add 3 div
/X22 load /Y22 load curveto
} bd
/SSPD {
dup length /d exch dict def
{
/v exch def
/k exch def
currentpagedevice k known {
/cpdv currentpagedevice k get def
v cpdv ne {
/upd false def
/nullv v type /nulltype eq def
/nullcpdv cpdv type /nulltype eq def
nullv nullcpdv or
{
/upd true def
} {
/sametype v type cpdv type eq def
sametype {
v type /arraytype eq {
/vlen v length def
/cpdvlen cpdv length def
vlen cpdvlen eq {
0 1 vlen 1 sub {
/i exch def
/obj v i get def
/cpdobj cpdv i get def
obj cpdobj ne {
/upd true def
exit
} if
} for
} {
/upd true def
} ifelse
} {
v type /dicttype eq {
v {
/dv exch def
/dk exch def
/cpddv cpdv dk get def
dv cpddv ne {
/upd true def
exit
} if
} forall
} {
/upd true def
} ifelse
} ifelse
} if
} ifelse
upd true eq {
d k v put
} if
} if
} if
} forall
d length 0 gt {
d setpagedevice
} if
} bd
/RE { % /NewFontName [NewEncodingArray] /FontName RE -
  findfont dup length dict begin
  {
    1 index /FID ne
    {def} {pop pop} ifelse
  } forall
  /Encoding exch def
  /FontName 1 index def
  currentdict definefont pop
  end
} bind def
%%EndResource
%%BeginResource: procset (Apache XML Graphics EPS ProcSet) 1.0 0
%%Version: 1.0 0
%%Copyright: (Copyright 2002-2003 The Apache Software Foundation. License terms: http://www.apache.org/licenses/LICENSE-2.0)
/BeginEPSF { %def
/b4_Inc_state save def         % Save state for cleanup
/dict_count countdictstack def % Count objects on dict stack
/op_count count 1 sub def      % Count objects on operand stack
userdict begin                 % Push userdict on dict stack
/showpage { } def              % Redefine showpage, { } = null proc
0 setgray 0 setlinecap         % Prepare graphics state
1 setlinewidth 0 setlinejoin
10 setmiterlimit [ ] 0 setdash newpath
/languagelevel where           % If level not equal to 1 then
{pop languagelevel             % set strokeadjust and
1 ne                           % overprint to their defaults.
{false setstrokeadjust false setoverprint
} if
} if
} bd
/EndEPSF { %def
count op_count sub {pop} repeat            % Clean up stacks
countdictstack dict_count sub {end} repeat
b4_Inc_state restore
} bd
%%EndResource
%FOPBeginFontDict
%%IncludeResource: font Courier-Oblique
%%IncludeResource: font Courier-BoldOblique
%%IncludeResource: font Courier-Bold
%%IncludeResource: font ZapfDingbats
%%IncludeResource: font Symbol
%%IncludeResource: font Helvetica
%%IncludeResource: font Helvetica-Oblique
%%IncludeResource: font Helvetica-Bold
%%IncludeResource: font Helvetica-BoldOblique
%%IncludeResource: font Times-Roman
%%IncludeResource: font Times-Italic
%%IncludeResource: font Times-Bold
%%IncludeResource: font Times-BoldItalic
%%IncludeResource: font Courier
%FOPEndFontDict
%%BeginResource: encoding WinAnsiEncoding
/WinAnsiEncoding [
/.notdef /.notdef /.notdef /.notdef /.notdef
/.notdef /.notdef /.notdef /.notdef /.notdef
/.notdef /.notdef /.notdef /.notdef /.notdef
/.notdef /.notdef /.notdef /.notdef /.notdef
/.notdef /.notdef /.notdef /.notdef /.notdef
/.notdef /.notdef /.notdef /.notdef /.notdef
/.notdef /.notdef /space /exclam /quotedbl
/numbersign /dollar /percent /ampersand /quotesingle
/parenleft /parenright /asterisk /plus /comma
/hyphen /period /slash /zero /one
/two /three /four /five /six
/seven /eight /nine /colon /semicolon
/less /equal /greater /question /at
/A /B /C /D /E
/F /G /H /I /J
/K /L /M /N /O
/P /Q /R /S /T
/U /V /W /X /Y
/Z /bracketleft /backslash /bracketright /asciicircum
/underscore /quoteleft /a /b /c
/d /e /f /g /h
/i /j /k /l /m
/n /o /p /q /r
/s /t /u /v /w
/x /y /z /braceleft /bar
/braceright /asciitilde /bullet /Euro /bullet
/quotesinglbase /florin /quotedblbase /ellipsis /dagger
/daggerdbl /circumflex /perthousand /Scaron /guilsinglleft
/OE /bullet /Zcaron /bullet /bullet
/quoteleft /quoteright /quotedblleft /quotedblright /bullet
/endash /emdash /asciitilde /trademark /scaron
/guilsinglright /oe /bullet /zcaron /Ydieresis
/space /exclamdown /cent /sterling /currency
/yen /brokenbar /section /dieresis /copyright
/ordfeminine /guillemotleft /logicalnot /sfthyphen /registered
/macron /degree /plusminus /twosuperior /threesuperior
/acute /mu /paragraph /middot /cedilla
/onesuperior /ordmasculine /guillemotright /onequarter /onehalf
/threequarters /questiondown /Agrave /Aacute /Acircumflex
/Atilde /Adieresis /Aring /AE /Ccedilla
/Egrave /Eacute /Ecircumflex /Edieresis /Igrave
/Iacute /Icircumflex /Idieresis /Eth /Ntilde
/Ograve /Oacute /Ocircumflex /Otilde /Odieresis
/multiply /Oslash /Ugrave /Uacute /Ucircumflex
/Udieresis /Yacute /Thorn /germandbls /agrave
/aacute /acircumflex /atilde /adieresis /aring
/ae /ccedilla /egrave /eacute /ecircumflex
/edieresis /igrave /iacute /icircumflex /idieresis
/eth /ntilde /ograve /oacute /ocircumflex
/otilde /odieresis /divide /oslash /ugrave
/uacute /ucircumflex /udieresis /yacute /thorn
/ydieresis
] def
%%EndResource
%FOPBeginFontReencode
/Courier-Oblique findfont
dup length dict begin
  {1 index /FID ne {def} {pop pop} ifelse} forall
  /Encoding WinAnsiEncoding def
  currentdict
end
/Courier-Oblique exch definefont pop
/Courier-BoldOblique findfont
dup length dict begin
  {1 index /FID ne {def} {pop pop} ifelse} forall
  /Encoding WinAnsiEncoding def
  currentdict
end
/Courier-BoldOblique exch definefont pop
/Courier-Bold findfont
dup length dict begin
  {1 index /FID ne {def} {pop pop} ifelse} forall
  /Encoding WinAnsiEncoding def
  currentdict
end
/Courier-Bold exch definefont pop
/Helvetica findfont
dup length dict begin
  {1 index /FID ne {def} {pop pop} ifelse} forall
  /Encoding WinAnsiEncoding def
  currentdict
end
/Helvetica exch definefont pop
/Helvetica-Oblique findfont
dup length dict begin
  {1 index /FID ne {def} {pop pop} ifelse} forall
  /Encoding WinAnsiEncoding def
  currentdict
end
/Helvetica-Oblique exch definefont pop
/Helvetica-Bold findfont
dup length dict begin
  {1 index /FID ne {def} {pop pop} ifelse} forall
  /Encoding WinAnsiEncoding def
  currentdict
end
/Helvetica-Bold exch definefont pop
/Helvetica-BoldOblique findfont
dup length dict begin
  {1 index /FID ne {def} {pop pop} ifelse} forall
  /Encoding WinAnsiEncoding def
  currentdict
end
/Helvetica-BoldOblique exch definefont pop
/Times-Roman findfont
dup length dict begin
  {1 index /FID ne {def} {pop pop} ifelse} forall
  /Encoding WinAnsiEncoding def
  currentdict
end
/Times-Roman exch definefont pop
/Times-Italic findfont
dup length dict begin
  {1 index /FID ne {def} {pop pop} ifelse} forall
  /Encoding WinAnsiEncoding def
  currentdict
end
/Times-Italic exch definefont pop
/Times-Bold findfont
dup length dict begin
  {1 index /FID ne {def} {pop pop} ifelse} forall
  /Encoding WinAnsiEncoding def
  currentdict
end
/Times-Bold exch definefont pop
/Times-BoldItalic findfont
dup length dict begin
  {1 index /FID ne {def} {pop pop} ifelse} forall
  /Encoding WinAnsiEncoding def
  currentdict
end
/Times-BoldItalic exch definefont pop
/Courier findfont
dup length dict begin
  {1 index /FID ne {def} {pop pop} ifelse} forall
  /Encoding WinAnsiEncoding def
  currentdict
end
/Courier exch definefont pop
%FOPEndFontReencode
%%EndProlog
%%Page: 1 1
%%PageBoundingBox: 0 0 420 315
%%BeginPageSetup
[1 0 0 -1 0 315] CT
%%EndPageSetup
GS
[0.6 0 0 0.6 0 0] CT
1 GC
N
0 0 700 525 re
f
GR
GS
[0.6 0 0 0.6 0 0] CT
1 GC
N
0 0 700 525 re
f
GR
GS
[0.6 0 0 0.6 0 0] CT
1 GC
N
91 467 M
634 467 L
634 39 L
91 39 L
cp
f
GR
GS
[0.6 0 0 0.6 0 0] CT
0.873 GC
1 LJ
0.833 LW
N
91 467 M
91 39 L
S
GR
GS
[0.6 0 0 0.6 0 0] CT
0.873 GC
1 LJ
0.833 LW
N
181.5 467 M
181.5 39 L
S
GR
GS
[0.6 0 0 0.6 0 0] CT
0.873 GC
1 LJ
0.833 LW
N
272 467 M
272 39 L
S
GR
GS
[0.6 0 0 0.6 0 0] CT
0.873 GC
1 LJ
0.833 LW
N
362.5 467 M
362.5 39 L
S
GR
GS
[0.6 0 0 0.6 0 0] CT
0.873 GC
1 LJ
0.833 LW
N
453 467 M
453 39 L
S
GR
GS
[0.6 0 0 0.6 0 0] CT
0.873 GC
1 LJ
0.833 LW
N
543.5 467 M
543.5 39 L
S
GR
GS
[0.6 0 0 0.6 0 0] CT
0.873 GC
1 LJ
0.833 LW
N
634 467 M
634 39 L
S
GR
GS
[0.6 0 0 0.6 0 0] CT
0.873 GC
1 LJ
0.833 LW
N
634 467 M
91 467 L
S
GR
GS
[0.6 0 0 0.6 0 0] CT
0.873 GC
1 LJ
0.833 LW
N
634 424.2 M
91 424.2 L
S
GR
GS
[0.6 0 0 0.6 0 0] CT
0.873 GC
1 LJ
0.833 LW
N
634 381.4 M
91 381.4 L
S
GR
GS
[0.6 0 0 0.6 0 0] CT
0.873 GC
1 LJ
0.833 LW
N
634 338.6 M
91 338.6 L
S
GR
GS
[0.6 0 0 0.6 0 0] CT
0.873 GC
1 LJ
0.833 LW
N
634 295.8 M
91 295.8 L
S
GR
GS
[0.6 0 0 0.6 0 0] CT
0.873 GC
1 LJ
0.833 LW
N
634 253 M
91 253 L
S
GR
GS
[0.6 0 0 0.6 0 0] CT
0.873 GC
1 LJ
0.833 LW
N
634 210.2 M
91 210.2 L
S
GR
GS
[0.6 0 0 0.6 0 0] CT
0.873 GC
1 LJ
0.833 LW
N
634 167.4 M
91 167.4 L
S
GR
GS
[0.6 0 0 0.6 0 0] CT
0.873 GC
1 LJ
0.833 LW
N
634 124.6 M
91 124.6 L
S
GR
GS
[0.6 0 0 0.6 0 0] CT
0.873 GC
1 LJ
0.833 LW
N
634 81.8 M
91 81.8 L
S
GR
GS
[0.6 0 0 0.6 0 0] CT
0.873 GC
1 LJ
0.833 LW
N
634 39 M
91 39 L
S
GR
GS
[0.6 0 0 0.6 0 0] CT
0.149 GC
2 setlinecap
1 LJ
0.833 LW
N
91 467 M
634 467 L
S
GR
GS
[0.6 0 0 0.6 0 0] CT
0.149 GC
2 setlinecap
1 LJ
0.833 LW
N
91 467 M
91 461.57 L
S
GR
GS
[0.6 0 0 0.6 0 0] CT
0.149 GC
2 setlinecap
1 LJ
0.833 LW
N
181.5 467 M
181.5 461.57 L
S
GR
GS
[0.6 0 0 0.6 0 0] CT
0.149 GC
2 setlinecap
1 LJ
0.833 LW
N
272 467 M
272 461.57 L
S
GR
GS
[0.6 0 0 0.6 0 0] CT
0.149 GC
2 setlinecap
1 LJ
0.833 LW
N
362.5 467 M
362.5 461.57 L
S
GR
GS
[0.6 0 0 0.6 0 0] CT
0.149 GC
2 setlinecap
1 LJ
0.833 LW
N
453 467 M
453 461.57 L
S
GR
GS
[0.6 0 0 0.6 0 0] CT
0.149 GC
2 setlinecap
1 LJ
0.833 LW
N
543.5 467 M
543.5 461.57 L
S
GR
GS
[0.6 0 0 0.6 0 0] CT
0.149 GC
2 setlinecap
1 LJ
0.833 LW
N
634 467 M
634 461.57 L
S
GR
GS
[0.6 0 0 0.6 54.6 284.20001] CT
0.149 GC
/Helvetica 16.667 F
GS
[1 0 0 1 0 0] CT
-5 17 moveto 
1 -1 scale
(0) t 
GR
GR
GS
[0.6 0 0 0.6 108.9 284.20001] CT
0.149 GC
/Helvetica 16.667 F
GS
[1 0 0 1 0 0] CT
-5 17 moveto 
1 -1 scale
(2) t 
GR
GR
GS
[0.6 0 0 0.6 163.2 284.20001] CT
0.149 GC
/Helvetica 16.667 F
GS
[1 0 0 1 0 0] CT
-5 17 moveto 
1 -1 scale
(4) t 
GR
GR
GS
[0.6 0 0 0.6 217.5 284.20001] CT
0.149 GC
/Helvetica 16.667 F
GS
[1 0 0 1 0 0] CT
-5 17 moveto 
1 -1 scale
(6) t 
GR
GR
GS
[0.6 0 0 0.6 271.8 284.20001] CT
0.149 GC
/Helvetica 16.667 F
GS
[1 0 0 1 0 0] CT
-5 17 moveto 
1 -1 scale
(8) t 
GR
GR
GS
[0.6 0 0 0.6 326.1 284.20001] CT
0.149 GC
/Helvetica 16.667 F
GS
[1 0 0 1 0 0] CT
-9.5 17 moveto 
1 -1 scale
(10) t 
GR
GR
GS
[0.6 0 0 0.6 380.4 284.20001] CT
0.149 GC
/Helvetica 16.667 F
GS
[1 0 0 1 0 0] CT
-9.5 17 moveto 
1 -1 scale
(12) t 
GR
GR
GS
[0.6 0 0 0.6 217.50015 297.80001] CT
0.149 GC
N
-71.598 15.4 M
-71.77 15.4 -71.77 15.166 QT
-71.755 15.119 -71.731 15.009 QT
-71.708 14.9 -71.661 14.83 QT
-71.614 14.759 -71.536 14.759 QT
-70.442 14.759 -70.005 14.65 QT
-69.77 14.572 -69.677 14.166 QT
-67.192 4.275 L
-67.161 4.103 -67.161 4.025 QT
-67.161 3.837 -67.38 3.806 QT
-67.723 3.744 -68.677 3.744 QT
-68.848 3.744 -68.848 3.494 QT
-68.848 3.462 -68.817 3.345 QT
-68.786 3.228 -68.739 3.166 QT
-68.692 3.103 -68.63 3.103 QT
-62.161 3.103 L
-60.895 3.103 -59.958 3.712 QT
-59.02 4.322 -58.52 5.353 QT
-58.02 6.384 -58.02 7.634 QT
-58.02 9.025 -58.591 10.4 QT
-59.161 11.775 -60.184 12.916 QT
-61.208 14.056 -62.528 14.728 QT
-63.848 15.4 -65.239 15.4 QT
-71.598 15.4 L
cp
-68.223 14.619 M
-68.223 14.759 -67.614 14.759 QT
-65.52 14.759 L
-64.52 14.759 -63.591 14.353 QT
-62.661 13.947 -61.927 13.212 QT
-61.255 12.541 -60.731 11.447 QT
-60.208 10.353 -59.927 9.158 QT
-59.645 7.962 -59.645 6.947 QT
-59.645 6.228 -59.856 5.634 QT
-60.067 5.041 -60.458 4.619 QT
-60.848 4.197 -61.442 3.97 QT
-62.036 3.744 -62.77 3.744 QT
-64.755 3.744 L
-65.239 3.744 -65.395 3.822 QT
-65.552 3.9 -65.692 4.353 QT
-68.145 14.228 L
-68.223 14.447 -68.223 14.619 QT
cp
f
GR
GS
[0.6 0 0 0.6 217.50015 297.80001] CT
0.149 GC
N
-55.27 17.978 M
-54.895 18.619 -53.958 18.619 QT
-53.098 18.619 -52.473 18.025 QT
-51.848 17.431 -51.465 16.58 QT
-51.083 15.728 -50.88 14.853 QT
-51.676 15.603 -52.614 15.603 QT
-53.317 15.603 -53.817 15.353 QT
-54.317 15.103 -54.598 14.619 QT
-54.88 14.134 -54.88 13.447 QT
-54.88 12.853 -54.723 12.236 QT
-54.567 11.619 -54.278 10.853 QT
-53.989 10.087 -53.786 9.525 QT
-53.536 8.869 -53.536 8.447 QT
-53.536 7.916 -53.942 7.916 QT
-54.645 7.916 -55.106 8.65 QT
-55.567 9.384 -55.786 10.291 QT
-55.833 10.4 -55.942 10.4 QT
-56.145 10.4 L
-56.301 10.4 -56.301 10.228 QT
-56.301 10.181 L
-56.005 9.103 -55.411 8.275 QT
-54.817 7.447 -53.895 7.447 QT
-53.255 7.447 -52.817 7.869 QT
-52.38 8.291 -52.38 8.947 QT
-52.38 9.275 -52.52 9.65 QT
-52.598 9.869 -52.88 10.603 QT
-53.161 11.337 -53.309 11.822 QT
-53.458 12.306 -53.559 12.775 QT
-53.661 13.244 -53.661 13.697 QT
-53.661 14.306 -53.403 14.72 QT
-53.145 15.134 -52.598 15.134 QT
-51.473 15.134 -50.583 13.759 QT
-49.223 8.212 L
-49.161 7.978 -48.942 7.806 QT
-48.723 7.634 -48.473 7.634 QT
-48.255 7.634 -48.09 7.775 QT
-47.926 7.916 -47.926 8.15 QT
-47.926 8.259 -47.942 8.291 QT
-49.723 15.447 L
-49.958 16.369 -50.59 17.212 QT
-51.223 18.056 -52.122 18.572 QT
-53.02 19.087 -53.989 19.087 QT
-54.442 19.087 -54.903 18.908 QT
-55.364 18.728 -55.645 18.369 QT
-55.926 18.009 -55.926 17.525 QT
-55.926 17.041 -55.637 16.681 QT
-55.348 16.322 -54.864 16.322 QT
-54.567 16.322 -54.372 16.501 QT
-54.176 16.681 -54.176 16.962 QT
-54.176 17.384 -54.481 17.689 QT
-54.786 17.994 -55.208 17.994 QT
-55.223 17.978 -55.239 17.978 QT
-55.255 17.978 -55.27 17.978 QT
cp
f
GR
GS
[0.6 0 0 0.6 217.50015 297.80001] CT
0.149 GC
N
-45.749 15.087 M
-45.749 14.994 -45.733 14.931 QT
-44.389 9.556 L
-44.249 9.056 -44.249 8.681 QT
-44.249 7.916 -44.78 7.916 QT
-45.343 7.916 -45.616 8.587 QT
-45.889 9.259 -46.139 10.291 QT
-46.139 10.337 -46.194 10.369 QT
-46.249 10.4 -46.296 10.4 QT
-46.499 10.4 L
-46.561 10.4 -46.608 10.33 QT
-46.655 10.259 -46.655 10.212 QT
-46.468 9.431 -46.288 8.884 QT
-46.108 8.337 -45.725 7.892 QT
-45.343 7.447 -44.764 7.447 QT
-44.093 7.447 -43.569 7.869 QT
-43.046 8.291 -43.046 8.962 QT
-42.514 8.259 -41.796 7.853 QT
-41.077 7.447 -40.264 7.447 QT
-39.624 7.447 -39.155 7.666 QT
-38.686 7.884 -38.429 8.33 QT
-38.171 8.775 -38.171 9.384 QT
-38.171 10.119 -38.499 11.166 QT
-38.827 12.212 -39.327 13.509 QT
-39.577 14.103 -39.577 14.587 QT
-39.577 15.134 -39.171 15.134 QT
-38.468 15.134 -37.999 14.376 QT
-37.53 13.619 -37.327 12.759 QT
-37.296 12.65 -37.186 12.65 QT
-36.968 12.65 L
-36.905 12.65 -36.85 12.697 QT
-36.796 12.744 -36.796 12.806 QT
-36.796 12.822 -36.827 12.853 QT
-37.061 13.884 -37.679 14.744 QT
-38.296 15.603 -39.202 15.603 QT
-39.843 15.603 -40.288 15.166 QT
-40.733 14.728 -40.733 14.103 QT
-40.733 13.775 -40.593 13.4 QT
-40.358 12.822 -40.069 12.001 QT
-39.78 11.181 -39.585 10.431 QT
-39.389 9.681 -39.389 9.119 QT
-39.389 8.619 -39.6 8.267 QT
-39.811 7.916 -40.296 7.916 QT
-40.968 7.916 -41.514 8.205 QT
-42.061 8.494 -42.475 8.97 QT
-42.889 9.447 -43.233 10.103 QT
-44.452 15.009 L
-44.514 15.244 -44.733 15.423 QT
-44.952 15.603 -45.218 15.603 QT
-45.436 15.603 -45.593 15.462 QT
-45.749 15.322 -45.749 15.087 QT
cp
f
GR
GS
[0.6 0 0 0.6 217.50015 297.80001] CT
0.149 GC
N
-33.01 15.603 M
-34.135 15.603 -34.791 14.744 QT
-35.448 13.884 -35.448 12.712 QT
-35.448 11.572 -34.854 10.33 QT
-34.26 9.087 -33.245 8.267 QT
-32.229 7.447 -31.057 7.447 QT
-30.526 7.447 -30.104 7.736 QT
-29.682 8.025 -29.432 8.525 QT
-29.229 7.806 -28.651 7.806 QT
-28.416 7.806 -28.26 7.939 QT
-28.104 8.072 -28.104 8.306 QT
-28.104 8.353 -28.112 8.384 QT
-28.12 8.416 -28.135 8.447 QT
-29.385 13.478 L
-29.51 14.009 -29.51 14.353 QT
-29.51 15.134 -28.995 15.134 QT
-28.432 15.134 -28.135 14.416 QT
-27.838 13.697 -27.635 12.759 QT
-27.604 12.65 -27.495 12.65 QT
-27.276 12.65 L
-27.198 12.65 -27.159 12.712 QT
-27.12 12.775 -27.12 12.822 QT
-27.432 14.087 -27.807 14.845 QT
-28.182 15.603 -29.026 15.603 QT
-29.635 15.603 -30.096 15.244 QT
-30.557 14.884 -30.682 14.306 QT
-31.838 15.603 -33.01 15.603 QT
cp
-32.995 15.134 M
-32.338 15.134 -31.729 14.642 QT
-31.12 14.15 -30.682 13.494 QT
-30.666 13.478 -30.666 13.447 QT
-29.698 9.525 L
-29.682 9.478 L
-29.776 8.837 -30.135 8.376 QT
-30.495 7.916 -31.104 7.916 QT
-31.698 7.916 -32.221 8.408 QT
-32.745 8.9 -33.104 9.587 QT
-33.463 10.306 -33.784 11.564 QT
-34.104 12.822 -34.104 13.509 QT
-34.104 14.134 -33.838 14.634 QT
-33.573 15.134 -32.995 15.134 QT
cp
f
GR
GS
[0.6 0 0 0.6 217.50015 297.80001] CT
0.149 GC
N
-25.054 15.087 M
-25.054 14.994 -25.038 14.931 QT
-23.694 9.556 L
-23.554 9.056 -23.554 8.681 QT
-23.554 7.916 -24.085 7.916 QT
-24.648 7.916 -24.921 8.587 QT
-25.194 9.259 -25.444 10.291 QT
-25.444 10.337 -25.499 10.369 QT
-25.554 10.4 -25.601 10.4 QT
-25.804 10.4 L
-25.866 10.4 -25.913 10.33 QT
-25.96 10.259 -25.96 10.212 QT
-25.773 9.431 -25.593 8.884 QT
-25.413 8.337 -25.03 7.892 QT
-24.648 7.447 -24.069 7.447 QT
-23.398 7.447 -22.874 7.869 QT
-22.351 8.291 -22.351 8.962 QT
-21.819 8.259 -21.101 7.853 QT
-20.382 7.447 -19.569 7.447 QT
-18.726 7.447 -18.101 7.884 QT
-17.476 8.322 -17.476 9.119 QT
-16.929 8.337 -16.187 7.892 QT
-15.444 7.447 -14.554 7.447 QT
-13.632 7.447 -13.062 7.955 QT
-12.491 8.462 -12.491 9.384 QT
-12.491 10.119 -12.819 11.166 QT
-13.148 12.212 -13.648 13.509 QT
-13.898 14.134 -13.898 14.587 QT
-13.898 15.134 -13.476 15.134 QT
-12.773 15.134 -12.312 14.376 QT
-11.851 13.619 -11.648 12.759 QT
-11.601 12.65 -11.507 12.65 QT
-11.288 12.65 L
-11.226 12.65 -11.179 12.697 QT
-11.132 12.744 -11.132 12.806 QT
-11.132 12.822 -11.148 12.853 QT
-11.382 13.884 -11.999 14.744 QT
-12.616 15.603 -13.523 15.603 QT
-14.163 15.603 -14.608 15.166 QT
-15.054 14.728 -15.054 14.103 QT
-15.054 13.791 -14.898 13.4 QT
-14.398 12.056 -14.054 10.994 QT
-13.71 9.931 -13.71 9.119 QT
-13.71 8.619 -13.913 8.267 QT
-14.116 7.916 -14.601 7.916 QT
-15.585 7.916 -16.304 8.517 QT
-17.023 9.119 -17.554 10.103 QT
-17.585 10.291 -17.601 10.384 QT
-18.757 15.009 L
-18.819 15.244 -19.038 15.423 QT
-19.257 15.603 -19.523 15.603 QT
-19.726 15.603 -19.89 15.462 QT
-20.054 15.322 -20.054 15.087 QT
-20.054 14.994 -20.038 14.931 QT
-18.882 10.353 L
-18.694 9.603 -18.694 9.119 QT
-18.694 8.619 -18.905 8.267 QT
-19.116 7.916 -19.601 7.916 QT
-20.273 7.916 -20.819 8.205 QT
-21.366 8.494 -21.78 8.97 QT
-22.194 9.447 -22.538 10.103 QT
-23.757 15.009 L
-23.819 15.244 -24.038 15.423 QT
-24.257 15.603 -24.523 15.603 QT
-24.741 15.603 -24.898 15.462 QT
-25.054 15.322 -25.054 15.087 QT
cp
f
GR
GS
[0.6 0 0 0.6 217.50015 297.80001] CT
0.149 GC
N
-8.941 14.103 M
-8.941 13.775 -8.801 13.4 QT
-7.347 9.525 L
-7.097 8.869 -7.097 8.447 QT
-7.097 7.916 -7.504 7.916 QT
-8.207 7.916 -8.668 8.65 QT
-9.129 9.384 -9.347 10.291 QT
-9.394 10.4 -9.504 10.4 QT
-9.707 10.4 L
-9.863 10.4 -9.863 10.228 QT
-9.863 10.181 L
-9.566 9.103 -8.972 8.275 QT
-8.379 7.447 -7.457 7.447 QT
-6.816 7.447 -6.379 7.869 QT
-5.941 8.291 -5.941 8.947 QT
-5.941 9.275 -6.082 9.65 QT
-7.551 13.509 L
-7.785 14.103 -7.785 14.587 QT
-7.785 15.134 -7.379 15.134 QT
-6.676 15.134 -6.207 14.376 QT
-5.738 13.619 -5.535 12.759 QT
-5.504 12.65 -5.394 12.65 QT
-5.176 12.65 L
-5.113 12.65 -5.066 12.697 QT
-5.019 12.744 -5.019 12.806 QT
-5.019 12.822 -5.035 12.853 QT
-5.285 13.884 -5.894 14.744 QT
-6.504 15.603 -7.41 15.603 QT
-8.051 15.603 -8.496 15.166 QT
-8.941 14.728 -8.941 14.103 QT
cp
-6.91 4.494 M
-6.91 4.119 -6.597 3.806 QT
-6.285 3.494 -5.894 3.494 QT
-5.597 3.494 -5.394 3.689 QT
-5.191 3.884 -5.191 4.166 QT
-5.191 4.572 -5.512 4.876 QT
-5.832 5.181 -6.222 5.181 QT
-6.519 5.181 -6.715 4.978 QT
-6.91 4.775 -6.91 4.494 QT
cp
f
GR
GS
[0.6 0 0 0.6 217.50015 297.80001] CT
0.149 GC
N
-1.922 13.259 M
-1.922 14.041 -1.524 14.587 QT
-1.125 15.134 -0.375 15.134 QT
0.703 15.134 1.687 14.642 QT
2.672 14.15 3.297 13.275 QT
3.359 13.212 3.437 13.212 QT
3.531 13.212 3.625 13.314 QT
3.719 13.416 3.719 13.509 QT
3.719 13.587 3.672 13.619 QT
3.015 14.541 1.898 15.072 QT
0.781 15.603 -0.406 15.603 QT
-1.266 15.603 -1.93 15.197 QT
-2.594 14.791 -2.953 14.103 QT
-3.313 13.416 -3.313 12.556 QT
-3.313 11.337 -2.633 10.142 QT
-1.953 8.947 -0.828 8.197 QT
0.297 7.447 1.531 7.447 QT
2.344 7.447 2.992 7.837 QT
3.64 8.228 3.64 8.994 QT
3.64 9.478 3.351 9.83 QT
3.062 10.181 2.578 10.181 QT
2.281 10.181 2.086 10.001 QT
1.89 9.822 1.89 9.525 QT
1.89 9.103 2.203 8.806 QT
2.515 8.509 2.922 8.509 QT
2.953 8.509 L
2.75 8.197 2.351 8.056 QT
1.953 7.916 1.515 7.916 QT
0.453 7.916 -0.336 8.814 QT
-1.125 9.712 -1.524 10.962 QT
-1.922 12.212 -1.922 13.259 QT
cp
f
GR
GS
[0.6 0 0 0.6 217.50015 297.80001] CT
0.149 GC
N
11.123 13.947 M
11.123 13.681 11.185 13.447 QT
12.482 8.275 L
10.592 8.275 L
10.404 8.275 10.404 8.041 QT
10.482 7.634 10.654 7.634 QT
12.639 7.634 L
13.357 4.697 L
13.435 4.462 13.646 4.298 QT
13.857 4.134 14.123 4.134 QT
14.342 4.134 14.498 4.267 QT
14.654 4.4 14.654 4.634 QT
14.654 4.681 14.646 4.712 QT
14.639 4.744 14.639 4.775 QT
13.92 7.634 L
15.764 7.634 L
15.951 7.634 15.951 7.869 QT
15.951 7.916 15.92 8.025 QT
15.889 8.134 15.85 8.205 QT
15.81 8.275 15.717 8.275 QT
13.764 8.275 L
12.467 13.478 L
12.342 13.978 12.342 14.353 QT
12.342 15.134 12.857 15.134 QT
13.654 15.134 14.264 14.384 QT
14.873 13.634 15.201 12.759 QT
15.264 12.65 15.342 12.65 QT
15.56 12.65 L
15.623 12.65 15.67 12.697 QT
15.717 12.744 15.717 12.806 QT
15.717 12.837 15.701 12.853 QT
15.31 13.947 14.553 14.775 QT
13.795 15.603 12.81 15.603 QT
12.107 15.603 11.615 15.134 QT
11.123 14.666 11.123 13.947 QT
cp
f
GR
GS
[0.6 0 0 0.6 217.50015 297.80001] CT
0.149 GC
N
18.04 14.103 M
18.04 13.775 18.181 13.4 QT
19.634 9.525 L
19.884 8.869 19.884 8.447 QT
19.884 7.916 19.478 7.916 QT
18.775 7.916 18.314 8.65 QT
17.853 9.384 17.634 10.291 QT
17.587 10.4 17.478 10.4 QT
17.275 10.4 L
17.118 10.4 17.118 10.228 QT
17.118 10.181 L
17.415 9.103 18.009 8.275 QT
18.603 7.447 19.525 7.447 QT
20.165 7.447 20.603 7.869 QT
21.04 8.291 21.04 8.947 QT
21.04 9.275 20.9 9.65 QT
19.431 13.509 L
19.196 14.103 19.196 14.587 QT
19.196 15.134 19.603 15.134 QT
20.306 15.134 20.775 14.376 QT
21.243 13.619 21.446 12.759 QT
21.478 12.65 21.587 12.65 QT
21.806 12.65 L
21.868 12.65 21.915 12.697 QT
21.962 12.744 21.962 12.806 QT
21.962 12.822 21.946 12.853 QT
21.696 13.884 21.087 14.744 QT
20.478 15.603 19.571 15.603 QT
18.931 15.603 18.486 15.166 QT
18.04 14.728 18.04 14.103 QT
cp
20.071 4.494 M
20.071 4.119 20.384 3.806 QT
20.696 3.494 21.087 3.494 QT
21.384 3.494 21.587 3.689 QT
21.79 3.884 21.79 4.166 QT
21.79 4.572 21.47 4.876 QT
21.15 5.181 20.759 5.181 QT
20.462 5.181 20.267 4.978 QT
20.071 4.775 20.071 4.494 QT
cp
f
GR
GS
[0.6 0 0 0.6 217.50015 297.80001] CT
0.149 GC
N
24.341 15.087 M
24.341 14.994 24.356 14.931 QT
25.7 9.556 L
25.841 9.056 25.841 8.681 QT
25.841 7.916 25.309 7.916 QT
24.747 7.916 24.473 8.587 QT
24.2 9.259 23.95 10.291 QT
23.95 10.337 23.895 10.369 QT
23.841 10.4 23.794 10.4 QT
23.591 10.4 L
23.528 10.4 23.481 10.33 QT
23.434 10.259 23.434 10.212 QT
23.622 9.431 23.802 8.884 QT
23.981 8.337 24.364 7.892 QT
24.747 7.447 25.325 7.447 QT
25.997 7.447 26.52 7.869 QT
27.044 8.291 27.044 8.962 QT
27.575 8.259 28.294 7.853 QT
29.013 7.447 29.825 7.447 QT
30.669 7.447 31.294 7.884 QT
31.919 8.322 31.919 9.119 QT
32.466 8.337 33.208 7.892 QT
33.95 7.447 34.841 7.447 QT
35.763 7.447 36.333 7.955 QT
36.903 8.462 36.903 9.384 QT
36.903 10.119 36.575 11.166 QT
36.247 12.212 35.747 13.509 QT
35.497 14.134 35.497 14.587 QT
35.497 15.134 35.919 15.134 QT
36.622 15.134 37.083 14.376 QT
37.544 13.619 37.747 12.759 QT
37.794 12.65 37.888 12.65 QT
38.106 12.65 L
38.169 12.65 38.216 12.697 QT
38.263 12.744 38.263 12.806 QT
38.263 12.822 38.247 12.853 QT
38.013 13.884 37.395 14.744 QT
36.778 15.603 35.872 15.603 QT
35.231 15.603 34.786 15.166 QT
34.341 14.728 34.341 14.103 QT
34.341 13.791 34.497 13.4 QT
34.997 12.056 35.341 10.994 QT
35.684 9.931 35.684 9.119 QT
35.684 8.619 35.481 8.267 QT
35.278 7.916 34.794 7.916 QT
33.809 7.916 33.091 8.517 QT
32.372 9.119 31.841 10.103 QT
31.809 10.291 31.794 10.384 QT
30.638 15.009 L
30.575 15.244 30.356 15.423 QT
30.138 15.603 29.872 15.603 QT
29.669 15.603 29.505 15.462 QT
29.341 15.322 29.341 15.087 QT
29.341 14.994 29.356 14.931 QT
30.513 10.353 L
30.7 9.603 30.7 9.119 QT
30.7 8.619 30.489 8.267 QT
30.278 7.916 29.794 7.916 QT
29.122 7.916 28.575 8.205 QT
28.028 8.494 27.614 8.97 QT
27.2 9.447 26.856 10.103 QT
25.638 15.009 L
25.575 15.244 25.356 15.423 QT
25.138 15.603 24.872 15.603 QT
24.653 15.603 24.497 15.462 QT
24.341 15.322 24.341 15.087 QT
cp
f
GR
GS
[0.6 0 0 0.6 217.50015 297.80001] CT
0.149 GC
N
42.672 15.603 M
41.813 15.603 41.164 15.158 QT
40.516 14.712 40.18 13.947 QT
39.844 13.181 39.844 12.337 QT
39.844 11.056 40.484 9.931 QT
41.125 8.806 42.234 8.126 QT
43.344 7.447 44.609 7.447 QT
45.391 7.447 45.961 7.845 QT
46.531 8.244 46.531 8.994 QT
46.531 10.025 45.711 10.533 QT
44.891 11.041 43.852 11.158 QT
42.813 11.275 41.547 11.275 QT
41.5 11.275 L
41.203 12.353 41.203 13.119 QT
41.203 13.916 41.578 14.525 QT
41.953 15.134 42.703 15.134 QT
43.781 15.134 44.766 14.642 QT
45.75 14.15 46.375 13.275 QT
46.438 13.212 46.516 13.212 QT
46.609 13.212 46.703 13.314 QT
46.797 13.416 46.797 13.509 QT
46.797 13.587 46.75 13.619 QT
46.094 14.541 44.977 15.072 QT
43.859 15.603 42.672 15.603 QT
cp
41.609 10.806 M
42.656 10.806 43.539 10.712 QT
44.422 10.619 45.148 10.228 QT
45.875 9.837 45.875 9.009 QT
45.875 8.681 45.688 8.431 QT
45.5 8.181 45.203 8.048 QT
44.906 7.916 44.594 7.916 QT
43.828 7.916 43.219 8.33 QT
42.609 8.744 42.211 9.408 QT
41.813 10.072 41.609 10.806 QT
cp
f
GR
GS
[0.6 0 0 0.6 217.50015 297.80001] CT
0.149 GC
N
55.82 19.9 M
55.82 1.9 L
58.288 1.9 L
58.288 2.619 L
56.538 2.619 L
56.538 19.181 L
58.288 19.181 L
58.288 19.9 L
55.82 19.9 L
cp
f
GR
GS
[0.6 0 0 0.6 217.50015 297.80001] CT
0.149 GC
N
60.35 14.306 M
60.834 15.134 62.287 15.134 QT
62.928 15.134 63.498 14.916 QT
64.068 14.697 64.443 14.267 QT
64.818 13.837 64.818 13.212 QT
64.818 12.759 64.482 12.455 QT
64.146 12.15 63.662 12.056 QT
62.693 11.853 L
62.021 11.697 61.592 11.236 QT
61.162 10.775 61.162 10.119 QT
61.162 9.322 61.6 8.712 QT
62.037 8.103 62.748 7.775 QT
63.459 7.447 64.225 7.447 QT
65.037 7.447 65.686 7.837 QT
66.334 8.228 66.334 8.994 QT
66.334 9.4 66.1 9.72 QT
65.865 10.041 65.443 10.041 QT
65.209 10.041 65.037 9.884 QT
64.865 9.728 64.865 9.494 QT
64.865 9.275 64.982 9.08 QT
65.1 8.884 65.303 8.767 QT
65.506 8.65 65.709 8.65 QT
65.553 8.259 65.115 8.087 QT
64.678 7.916 64.178 7.916 QT
63.725 7.916 63.271 8.095 QT
62.818 8.275 62.537 8.634 QT
62.256 8.994 62.256 9.478 QT
62.256 9.806 62.482 10.048 QT
62.709 10.291 63.053 10.4 QT
64.1 10.603 L
64.6 10.712 65.014 10.978 QT
65.428 11.244 65.67 11.658 QT
65.912 12.072 65.912 12.603 QT
65.912 13.259 65.537 13.916 QT
65.162 14.572 64.631 14.947 QT
63.662 15.603 62.271 15.603 QT
61.318 15.603 60.521 15.166 QT
59.725 14.728 59.725 13.853 QT
59.725 13.353 60.006 12.994 QT
60.287 12.634 60.787 12.634 QT
61.068 12.634 61.271 12.806 QT
61.475 12.978 61.475 13.275 QT
61.475 13.681 61.162 13.994 QT
60.85 14.306 60.443 14.306 QT
60.35 14.306 L
cp
f
GR
GS
[0.6 0 0 0.6 217.50015 297.80001] CT
0.149 GC
N
67.771 19.9 M
67.771 19.181 L
69.521 19.181 L
69.521 2.619 L
67.771 2.619 L
67.771 1.9 L
70.24 1.9 L
70.24 19.9 L
67.771 19.9 L
cp
f
GR
GS
[0.6 0 0 0.6 0 0] CT
0.149 GC
2 setlinecap
1 LJ
0.833 LW
N
91 467 M
91 39 L
S
GR
GS
[0.6 0 0 0.6 0 0] CT
0.149 GC
2 setlinecap
1 LJ
0.833 LW
N
91 467 M
96.43 467 L
S
GR
GS
[0.6 0 0 0.6 0 0] CT
0.149 GC
2 setlinecap
1 LJ
0.833 LW
N
91 424.2 M
96.43 424.2 L
S
GR
GS
[0.6 0 0 0.6 0 0] CT
0.149 GC
2 setlinecap
1 LJ
0.833 LW
N
91 381.4 M
96.43 381.4 L
S
GR
GS
[0.6 0 0 0.6 0 0] CT
0.149 GC
2 setlinecap
1 LJ
0.833 LW
N
91 338.6 M
96.43 338.6 L
S
GR
GS
[0.6 0 0 0.6 0 0] CT
0.149 GC
2 setlinecap
1 LJ
0.833 LW
N
91 295.8 M
96.43 295.8 L
S
GR
GS
[0.6 0 0 0.6 0 0] CT
0.149 GC
2 setlinecap
1 LJ
0.833 LW
N
91 253 M
96.43 253 L
S
GR
GS
[0.6 0 0 0.6 0 0] CT
0.149 GC
2 setlinecap
1 LJ
0.833 LW
N
91 210.2 M
96.43 210.2 L
S
GR
GS
[0.6 0 0 0.6 0 0] CT
0.149 GC
2 setlinecap
1 LJ
0.833 LW
N
91 167.4 M
96.43 167.4 L
S
GR
GS
[0.6 0 0 0.6 0 0] CT
0.149 GC
2 setlinecap
1 LJ
0.833 LW
N
91 124.6 M
96.43 124.6 L
S
GR
GS
[0.6 0 0 0.6 0 0] CT
0.149 GC
2 setlinecap
1 LJ
0.833 LW
N
91 81.8 M
96.43 81.8 L
S
GR
GS
[0.6 0 0 0.6 0 0] CT
0.149 GC
2 setlinecap
1 LJ
0.833 LW
N
91 39 M
96.43 39 L
S
GR
GS
[0.6 0 0 0.6 50.6 280.2] CT
0.149 GC
/Helvetica 16.667 F
GS
[1 0 0 1 0 0] CT
-29 6.5 moveto 
1 -1 scale
(-0.2) t 
GR
GR
GS
[0.6 0 0 0.6 50.6 254.52001] CT
0.149 GC
/Helvetica 16.667 F
GS
[1 0 0 1 0 0] CT
-38 6.5 moveto 
1 -1 scale
(-0.18) t 
GR
GR
GS
[0.6 0 0 0.6 50.6 228.84] CT
0.149 GC
/Helvetica 16.667 F
GS
[1 0 0 1 0 0] CT
-38 6.5 moveto 
1 -1 scale
(-0.16) t 
GR
GR
GS
[0.6 0 0 0.6 50.6 203.16] CT
0.149 GC
/Helvetica 16.667 F
GS
[1 0 0 1 0 0] CT
-38 6.5 moveto 
1 -1 scale
(-0.14) t 
GR
GR
GS
[0.6 0 0 0.6 50.6 177.47999] CT
0.149 GC
/Helvetica 16.667 F
GS
[1 0 0 1 0 0] CT
-38 6.5 moveto 
1 -1 scale
(-0.12) t 
GR
GR
GS
[0.6 0 0 0.6 50.6 151.8] CT
0.149 GC
/Helvetica 16.667 F
GS
[1 0 0 1 0 0] CT
-29 6.5 moveto 
1 -1 scale
(-0.1) t 
GR
GR
GS
[0.6 0 0 0.6 50.6 126.12] CT
0.149 GC
/Helvetica 16.667 F
GS
[1 0 0 1 0 0] CT
-38 6.5 moveto 
1 -1 scale
(-0.08) t 
GR
GR
GS
[0.6 0 0 0.6 50.6 100.44] CT
0.149 GC
/Helvetica 16.667 F
GS
[1 0 0 1 0 0] CT
-38 6.5 moveto 
1 -1 scale
(-0.06) t 
GR
GR
GS
[0.6 0 0 0.6 50.6 74.76] CT
0.149 GC
/Helvetica 16.667 F
GS
[1 0 0 1 0 0] CT
-38 6.5 moveto 
1 -1 scale
(-0.04) t 
GR
GR
GS
[0.6 0 0 0.6 50.6 49.08] CT
0.149 GC
/Helvetica 16.667 F
GS
[1 0 0 1 0 0] CT
-38 6.5 moveto 
1 -1 scale
(-0.02) t 
GR
GR
GS
[0.6 0 0 0.6 50.6 23.4] CT
0.149 GC
/Helvetica 16.667 F
GS
[1 0 0 1 0 0] CT
-10 6.5 moveto 
1 -1 scale
(0) t 
GR
GR
GS
[0 -0.6 0.6 0 24.8 151.79988] CT
0.149 GC
N
-23.263 -8.553 M
-23.263 -9.147 -23.106 -9.764 QT
-22.95 -10.381 -22.661 -11.147 QT
-22.372 -11.913 -22.169 -12.475 QT
-21.919 -13.131 -21.919 -13.553 QT
-21.919 -14.084 -22.325 -14.084 QT
-23.028 -14.084 -23.489 -13.35 QT
-23.95 -12.616 -24.169 -11.709 QT
-24.216 -11.6 -24.325 -11.6 QT
-24.528 -11.6 L
-24.684 -11.6 -24.684 -11.772 QT
-24.684 -11.819 L
-24.388 -12.897 -23.794 -13.725 QT
-23.2 -14.553 -22.278 -14.553 QT
-21.638 -14.553 -21.2 -14.131 QT
-20.763 -13.709 -20.763 -13.053 QT
-20.763 -12.725 -20.903 -12.35 QT
-20.981 -12.131 -21.263 -11.397 QT
-21.544 -10.663 -21.692 -10.178 QT
-21.841 -9.694 -21.942 -9.225 QT
-22.044 -8.756 -22.044 -8.303 QT
-22.044 -7.694 -21.786 -7.28 QT
-21.528 -6.866 -20.966 -6.866 QT
-19.809 -6.866 -18.934 -8.303 QT
-18.919 -8.366 -18.903 -8.436 QT
-18.888 -8.506 -18.888 -8.553 QT
-17.591 -13.788 L
-17.528 -14.022 -17.309 -14.194 QT
-17.091 -14.366 -16.841 -14.366 QT
-16.622 -14.366 -16.458 -14.225 QT
-16.294 -14.084 -16.294 -13.85 QT
-16.294 -13.741 -16.309 -13.709 QT
-17.606 -8.522 L
-17.731 -7.991 -17.731 -7.647 QT
-17.731 -6.866 -17.216 -6.866 QT
-16.638 -6.866 -16.348 -7.584 QT
-16.059 -8.303 -15.856 -9.241 QT
-15.825 -9.35 -15.716 -9.35 QT
-15.497 -9.35 L
-15.434 -9.35 -15.388 -9.288 QT
-15.341 -9.225 -15.341 -9.178 QT
-15.528 -8.397 -15.716 -7.842 QT
-15.903 -7.288 -16.286 -6.842 QT
-16.669 -6.397 -17.247 -6.397 QT
-17.825 -6.397 -18.278 -6.709 QT
-18.731 -7.022 -18.888 -7.553 QT
-19.294 -7.038 -19.841 -6.717 QT
-20.388 -6.397 -20.997 -6.397 QT
-22.028 -6.397 -22.645 -6.967 QT
-23.263 -7.538 -23.263 -8.553 QT
cp
f
GR
GS
[0 -0.6 0.6 0 24.8 151.79988] CT
0.149 GC
N
-14.033 -3.709 M
-14.142 -3.709 -14.142 -3.819 QT
-14.142 -3.881 -14.111 -3.913 QT
-13.767 -4.522 -13.275 -5.069 QT
-12.783 -5.616 -12.158 -6.178 QT
-11.533 -6.741 -10.9 -7.303 QT
-10.267 -7.866 -9.877 -8.303 QT
-9.924 -8.303 L
-10.205 -8.303 -10.76 -8.491 QT
-11.314 -8.678 -11.627 -8.678 QT
-11.971 -8.678 -12.299 -8.53 QT
-12.627 -8.381 -12.705 -8.069 QT
-12.736 -7.975 -12.814 -7.975 QT
-12.971 -7.975 L
-13.08 -7.975 -13.08 -8.1 QT
-13.08 -8.147 L
-12.971 -8.522 -12.736 -8.85 QT
-12.502 -9.178 -12.166 -9.389 QT
-11.83 -9.6 -11.455 -9.6 QT
-11.205 -9.6 -11.033 -9.483 QT
-10.861 -9.366 -10.635 -9.116 QT
-10.408 -8.866 -10.26 -8.756 QT
-10.111 -8.647 -9.892 -8.647 QT
-9.611 -8.647 -9.385 -8.905 QT
-9.158 -9.163 -8.939 -9.553 QT
-8.908 -9.6 -8.846 -9.6 QT
-8.689 -9.6 L
-8.642 -9.6 -8.619 -9.569 QT
-8.596 -9.538 -8.596 -9.475 QT
-8.596 -9.444 -8.611 -9.397 QT
-8.971 -8.788 -9.432 -8.264 QT
-9.892 -7.741 -10.65 -7.069 QT
-11.408 -6.397 -11.924 -5.928 QT
-12.439 -5.459 -12.892 -4.975 QT
-12.783 -4.991 -12.611 -4.991 QT
-12.299 -4.991 -11.752 -4.811 QT
-11.205 -4.631 -10.908 -4.631 QT
-10.58 -4.631 -10.252 -4.772 QT
-9.924 -4.913 -9.682 -5.163 QT
-9.439 -5.413 -9.361 -5.741 QT
-9.33 -5.834 -9.252 -5.834 QT
-9.096 -5.834 L
-9.049 -5.834 -9.017 -5.795 QT
-8.986 -5.756 -8.986 -5.709 QT
-8.986 -5.694 -8.986 -5.678 QT
-9.111 -5.178 -9.408 -4.733 QT
-9.705 -4.288 -10.142 -3.999 QT
-10.58 -3.709 -11.08 -3.709 QT
-11.314 -3.709 -11.486 -3.819 QT
-11.658 -3.928 -11.892 -4.178 QT
-12.127 -4.428 -12.275 -4.545 QT
-12.424 -4.663 -12.627 -4.663 QT
-13.283 -4.663 -13.799 -3.741 QT
-13.83 -3.709 -13.877 -3.709 QT
-14.033 -3.709 L
cp
f
GR
GS
[0 -0.6 0.6 0 24.8 151.79988] CT
0.149 GC
N
1.012 -2.1 M
1.012 -20.1 L
3.48 -20.1 L
3.48 -19.381 L
1.73 -19.381 L
1.73 -2.819 L
3.48 -2.819 L
3.48 -2.1 L
1.012 -2.1 L
cp
f
GR
GS
[0 -0.6 0.6 0 24.8 151.79988] CT
0.149 GC
N
5.37 -6.913 M
5.37 -7.006 5.385 -7.069 QT
6.729 -12.444 L
6.87 -12.944 6.87 -13.319 QT
6.87 -14.084 6.339 -14.084 QT
5.776 -14.084 5.503 -13.413 QT
5.229 -12.741 4.979 -11.709 QT
4.979 -11.663 4.925 -11.631 QT
4.87 -11.6 4.823 -11.6 QT
4.62 -11.6 L
4.557 -11.6 4.51 -11.67 QT
4.464 -11.741 4.464 -11.788 QT
4.651 -12.569 4.831 -13.116 QT
5.01 -13.663 5.393 -14.108 QT
5.776 -14.553 6.354 -14.553 QT
7.026 -14.553 7.55 -14.131 QT
8.073 -13.709 8.073 -13.038 QT
8.604 -13.741 9.323 -14.147 QT
10.042 -14.553 10.854 -14.553 QT
11.698 -14.553 12.323 -14.116 QT
12.948 -13.678 12.948 -12.881 QT
13.495 -13.663 14.237 -14.108 QT
14.979 -14.553 15.87 -14.553 QT
16.792 -14.553 17.362 -14.045 QT
17.932 -13.538 17.932 -12.616 QT
17.932 -11.881 17.604 -10.834 QT
17.276 -9.788 16.776 -8.491 QT
16.526 -7.866 16.526 -7.413 QT
16.526 -6.866 16.948 -6.866 QT
17.651 -6.866 18.112 -7.624 QT
18.573 -8.381 18.776 -9.241 QT
18.823 -9.35 18.917 -9.35 QT
19.135 -9.35 L
19.198 -9.35 19.245 -9.303 QT
19.292 -9.256 19.292 -9.194 QT
19.292 -9.178 19.276 -9.147 QT
19.042 -8.116 18.425 -7.256 QT
17.807 -6.397 16.901 -6.397 QT
16.26 -6.397 15.815 -6.834 QT
15.37 -7.272 15.37 -7.897 QT
15.37 -8.209 15.526 -8.6 QT
16.026 -9.944 16.37 -11.006 QT
16.714 -12.069 16.714 -12.881 QT
16.714 -13.381 16.51 -13.733 QT
16.307 -14.084 15.823 -14.084 QT
14.839 -14.084 14.12 -13.483 QT
13.401 -12.881 12.87 -11.897 QT
12.839 -11.709 12.823 -11.616 QT
11.667 -6.991 L
11.604 -6.756 11.385 -6.577 QT
11.167 -6.397 10.901 -6.397 QT
10.698 -6.397 10.534 -6.538 QT
10.37 -6.678 10.37 -6.913 QT
10.37 -7.006 10.385 -7.069 QT
11.542 -11.647 L
11.729 -12.397 11.729 -12.881 QT
11.729 -13.381 11.518 -13.733 QT
11.307 -14.084 10.823 -14.084 QT
10.151 -14.084 9.604 -13.795 QT
9.057 -13.506 8.643 -13.03 QT
8.229 -12.553 7.885 -11.897 QT
6.667 -6.991 L
6.604 -6.756 6.385 -6.577 QT
6.167 -6.397 5.901 -6.397 QT
5.682 -6.397 5.526 -6.538 QT
5.37 -6.678 5.37 -6.913 QT
cp
f
GR
GS
[0 -0.6 0.6 0 24.8 151.79988] CT
0.149 GC
N
20.467 -2.1 M
20.467 -2.819 L
22.217 -2.819 L
22.217 -19.381 L
20.467 -19.381 L
20.467 -20.1 L
22.936 -20.1 L
22.936 -2.1 L
20.467 -2.1 L
cp
f
GR
GS
[0.6 0 0 0.6 217.5002 21.75] CT
N
-120.218 -6.6 M
-120.405 -6.6 -120.405 -6.834 QT
-120.389 -6.881 -120.366 -6.991 QT
-120.343 -7.1 -120.296 -7.17 QT
-120.249 -7.241 -120.171 -7.241 QT
-118.452 -7.241 -118.171 -8.334 QT
-115.827 -17.725 L
-115.796 -17.897 -115.796 -17.975 QT
-115.796 -18.163 -115.999 -18.194 QT
-116.343 -18.256 -117.311 -18.256 QT
-117.483 -18.256 -117.483 -18.506 QT
-117.468 -18.538 -117.444 -18.655 QT
-117.421 -18.772 -117.374 -18.834 QT
-117.327 -18.897 -117.249 -18.897 QT
-114.077 -18.897 L
-113.874 -18.897 -113.858 -18.694 QT
-112.452 -8.381 L
-105.889 -18.694 L
-105.764 -18.897 -105.546 -18.897 QT
-102.483 -18.897 L
-102.311 -18.897 -102.311 -18.663 QT
-102.327 -18.616 -102.35 -18.506 QT
-102.374 -18.397 -102.421 -18.327 QT
-102.468 -18.256 -102.546 -18.256 QT
-103.639 -18.256 -104.077 -18.147 QT
-104.311 -18.069 -104.421 -17.647 QT
-106.889 -7.772 L
-106.921 -7.6 -106.921 -7.522 QT
-106.921 -7.444 -106.897 -7.397 QT
-106.874 -7.35 -106.835 -7.334 QT
-106.796 -7.319 -106.702 -7.303 QT
-106.358 -7.241 -105.405 -7.241 QT
-105.233 -7.241 -105.233 -6.991 QT
-105.296 -6.741 -105.327 -6.67 QT
-105.358 -6.6 -105.53 -6.6 QT
-110.233 -6.6 L
-110.405 -6.6 -110.405 -6.834 QT
-110.405 -6.881 -110.374 -6.991 QT
-110.343 -7.1 -110.296 -7.17 QT
-110.249 -7.241 -110.186 -7.241 QT
-109.077 -7.241 -108.655 -7.35 QT
-108.405 -7.428 -108.311 -7.834 QT
-105.718 -18.256 L
-112.983 -6.803 L
-113.093 -6.6 -113.343 -6.6 QT
-113.577 -6.6 -113.593 -6.803 QT
-115.124 -18.116 L
-117.593 -8.256 L
-117.608 -8.209 -117.624 -8.147 QT
-117.639 -8.084 -117.655 -7.991 QT
-117.655 -7.522 -117.241 -7.381 QT
-116.827 -7.241 -116.249 -7.241 QT
-116.061 -7.241 -116.061 -6.991 QT
-116.124 -6.756 -116.163 -6.678 QT
-116.202 -6.6 -116.374 -6.6 QT
-120.218 -6.6 L
cp
f
GR
GS
[0.6 0 0 0.6 217.5002 21.75] CT
N
-98.23 -6.397 M
-99.355 -6.397 -100.011 -7.256 QT
-100.667 -8.116 -100.667 -9.288 QT
-100.667 -10.428 -100.074 -11.67 QT
-99.48 -12.913 -98.464 -13.733 QT
-97.449 -14.553 -96.277 -14.553 QT
-95.745 -14.553 -95.324 -14.264 QT
-94.902 -13.975 -94.652 -13.475 QT
-94.449 -14.194 -93.87 -14.194 QT
-93.636 -14.194 -93.48 -14.061 QT
-93.324 -13.928 -93.324 -13.694 QT
-93.324 -13.647 -93.331 -13.616 QT
-93.339 -13.584 -93.355 -13.553 QT
-94.605 -8.522 L
-94.73 -7.991 -94.73 -7.647 QT
-94.73 -6.866 -94.214 -6.866 QT
-93.652 -6.866 -93.355 -7.584 QT
-93.058 -8.303 -92.855 -9.241 QT
-92.824 -9.35 -92.714 -9.35 QT
-92.495 -9.35 L
-92.417 -9.35 -92.378 -9.288 QT
-92.339 -9.225 -92.339 -9.178 QT
-92.652 -7.913 -93.027 -7.155 QT
-93.402 -6.397 -94.245 -6.397 QT
-94.855 -6.397 -95.316 -6.756 QT
-95.777 -7.116 -95.902 -7.694 QT
-97.058 -6.397 -98.23 -6.397 QT
cp
-98.214 -6.866 M
-97.558 -6.866 -96.949 -7.358 QT
-96.339 -7.85 -95.902 -8.506 QT
-95.886 -8.522 -95.886 -8.553 QT
-94.917 -12.475 L
-94.902 -12.522 L
-94.995 -13.163 -95.355 -13.624 QT
-95.714 -14.084 -96.324 -14.084 QT
-96.917 -14.084 -97.441 -13.592 QT
-97.964 -13.1 -98.324 -12.413 QT
-98.683 -11.694 -99.003 -10.436 QT
-99.324 -9.178 -99.324 -8.491 QT
-99.324 -7.866 -99.058 -7.366 QT
-98.792 -6.866 -98.214 -6.866 QT
cp
f
GR
GS
[0.6 0 0 0.6 217.5002 21.75] CT
N
-90.101 -7.694 M
-89.617 -6.866 -88.164 -6.866 QT
-87.523 -6.866 -86.953 -7.084 QT
-86.383 -7.303 -86.008 -7.733 QT
-85.633 -8.163 -85.633 -8.788 QT
-85.633 -9.241 -85.969 -9.545 QT
-86.305 -9.85 -86.789 -9.944 QT
-87.758 -10.147 L
-88.43 -10.303 -88.859 -10.764 QT
-89.289 -11.225 -89.289 -11.881 QT
-89.289 -12.678 -88.851 -13.288 QT
-88.414 -13.897 -87.703 -14.225 QT
-86.992 -14.553 -86.226 -14.553 QT
-85.414 -14.553 -84.766 -14.163 QT
-84.117 -13.772 -84.117 -13.006 QT
-84.117 -12.6 -84.351 -12.28 QT
-84.586 -11.959 -85.008 -11.959 QT
-85.242 -11.959 -85.414 -12.116 QT
-85.586 -12.272 -85.586 -12.506 QT
-85.586 -12.725 -85.469 -12.92 QT
-85.351 -13.116 -85.148 -13.233 QT
-84.945 -13.35 -84.742 -13.35 QT
-84.898 -13.741 -85.336 -13.913 QT
-85.773 -14.084 -86.273 -14.084 QT
-86.726 -14.084 -87.18 -13.905 QT
-87.633 -13.725 -87.914 -13.366 QT
-88.195 -13.006 -88.195 -12.522 QT
-88.195 -12.194 -87.969 -11.952 QT
-87.742 -11.709 -87.398 -11.6 QT
-86.351 -11.397 L
-85.851 -11.288 -85.437 -11.022 QT
-85.023 -10.756 -84.781 -10.342 QT
-84.539 -9.928 -84.539 -9.397 QT
-84.539 -8.741 -84.914 -8.084 QT
-85.289 -7.428 -85.82 -7.053 QT
-86.789 -6.397 -88.18 -6.397 QT
-89.133 -6.397 -89.93 -6.834 QT
-90.726 -7.272 -90.726 -8.147 QT
-90.726 -8.647 -90.445 -9.006 QT
-90.164 -9.366 -89.664 -9.366 QT
-89.383 -9.366 -89.18 -9.194 QT
-88.976 -9.022 -88.976 -8.725 QT
-88.976 -8.319 -89.289 -8.006 QT
-89.601 -7.694 -90.008 -7.694 QT
-90.101 -7.694 L
cp
f
GR
GS
[0.6 0 0 0.6 217.5002 21.75] CT
N
-81.508 -7.694 M
-81.023 -6.866 -79.57 -6.866 QT
-78.93 -6.866 -78.359 -7.084 QT
-77.789 -7.303 -77.414 -7.733 QT
-77.039 -8.163 -77.039 -8.788 QT
-77.039 -9.241 -77.375 -9.545 QT
-77.711 -9.85 -78.195 -9.944 QT
-79.164 -10.147 L
-79.836 -10.303 -80.266 -10.764 QT
-80.695 -11.225 -80.695 -11.881 QT
-80.695 -12.678 -80.258 -13.288 QT
-79.82 -13.897 -79.109 -14.225 QT
-78.398 -14.553 -77.633 -14.553 QT
-76.82 -14.553 -76.172 -14.163 QT
-75.523 -13.772 -75.523 -13.006 QT
-75.523 -12.6 -75.758 -12.28 QT
-75.992 -11.959 -76.414 -11.959 QT
-76.648 -11.959 -76.82 -12.116 QT
-76.992 -12.272 -76.992 -12.506 QT
-76.992 -12.725 -76.875 -12.92 QT
-76.758 -13.116 -76.555 -13.233 QT
-76.351 -13.35 -76.148 -13.35 QT
-76.305 -13.741 -76.742 -13.913 QT
-77.18 -14.084 -77.68 -14.084 QT
-78.133 -14.084 -78.586 -13.905 QT
-79.039 -13.725 -79.32 -13.366 QT
-79.601 -13.006 -79.601 -12.522 QT
-79.601 -12.194 -79.375 -11.952 QT
-79.148 -11.709 -78.805 -11.6 QT
-77.758 -11.397 L
-77.258 -11.288 -76.844 -11.022 QT
-76.43 -10.756 -76.187 -10.342 QT
-75.945 -9.928 -75.945 -9.397 QT
-75.945 -8.741 -76.32 -8.084 QT
-76.695 -7.428 -77.226 -7.053 QT
-78.195 -6.397 -79.586 -6.397 QT
-80.539 -6.397 -81.336 -6.834 QT
-82.133 -7.272 -82.133 -8.147 QT
-82.133 -8.647 -81.851 -9.006 QT
-81.57 -9.366 -81.07 -9.366 QT
-80.789 -9.366 -80.586 -9.194 QT
-80.383 -9.022 -80.383 -8.725 QT
-80.383 -8.319 -80.695 -8.006 QT
-81.008 -7.694 -81.414 -7.694 QT
-81.508 -7.694 L
cp
f
GR
GS
[0.6 0 0 0.6 217.5002 21.75] CT
N
-66.256 -8.741 M
-66.256 -7.959 -65.858 -7.413 QT
-65.459 -6.866 -64.709 -6.866 QT
-63.631 -6.866 -62.647 -7.358 QT
-61.662 -7.85 -61.037 -8.725 QT
-60.975 -8.788 -60.897 -8.788 QT
-60.803 -8.788 -60.709 -8.686 QT
-60.615 -8.584 -60.615 -8.491 QT
-60.615 -8.413 -60.662 -8.381 QT
-61.318 -7.459 -62.436 -6.928 QT
-63.553 -6.397 -64.74 -6.397 QT
-65.6 -6.397 -66.264 -6.803 QT
-66.928 -7.209 -67.287 -7.897 QT
-67.647 -8.584 -67.647 -9.444 QT
-67.647 -10.663 -66.967 -11.858 QT
-66.287 -13.053 -65.162 -13.803 QT
-64.037 -14.553 -62.803 -14.553 QT
-61.99 -14.553 -61.342 -14.163 QT
-60.693 -13.772 -60.693 -13.006 QT
-60.693 -12.522 -60.983 -12.17 QT
-61.272 -11.819 -61.756 -11.819 QT
-62.053 -11.819 -62.248 -11.999 QT
-62.443 -12.178 -62.443 -12.475 QT
-62.443 -12.897 -62.131 -13.194 QT
-61.818 -13.491 -61.412 -13.491 QT
-61.381 -13.491 L
-61.584 -13.803 -61.983 -13.944 QT
-62.381 -14.084 -62.818 -14.084 QT
-63.881 -14.084 -64.67 -13.186 QT
-65.459 -12.288 -65.858 -11.038 QT
-66.256 -9.788 -66.256 -8.741 QT
cp
f
GR
GS
[0.6 0 0 0.6 217.5002 21.75] CT
N
-56.806 -6.397 M
-57.666 -6.397 -58.314 -6.842 QT
-58.963 -7.288 -59.299 -8.053 QT
-59.635 -8.819 -59.635 -9.663 QT
-59.635 -10.944 -58.994 -12.069 QT
-58.353 -13.194 -57.244 -13.874 QT
-56.135 -14.553 -54.869 -14.553 QT
-54.088 -14.553 -53.517 -14.155 QT
-52.947 -13.756 -52.947 -13.006 QT
-52.947 -11.975 -53.767 -11.467 QT
-54.588 -10.959 -55.627 -10.842 QT
-56.666 -10.725 -57.931 -10.725 QT
-57.978 -10.725 L
-58.275 -9.647 -58.275 -8.881 QT
-58.275 -8.084 -57.9 -7.475 QT
-57.525 -6.866 -56.775 -6.866 QT
-55.697 -6.866 -54.713 -7.358 QT
-53.728 -7.85 -53.103 -8.725 QT
-53.041 -8.788 -52.963 -8.788 QT
-52.869 -8.788 -52.775 -8.686 QT
-52.681 -8.584 -52.681 -8.491 QT
-52.681 -8.413 -52.728 -8.381 QT
-53.385 -7.459 -54.502 -6.928 QT
-55.619 -6.397 -56.806 -6.397 QT
cp
-57.869 -11.194 M
-56.822 -11.194 -55.939 -11.288 QT
-55.056 -11.381 -54.33 -11.772 QT
-53.603 -12.163 -53.603 -12.991 QT
-53.603 -13.319 -53.791 -13.569 QT
-53.978 -13.819 -54.275 -13.952 QT
-54.572 -14.084 -54.885 -14.084 QT
-55.65 -14.084 -56.26 -13.67 QT
-56.869 -13.256 -57.267 -12.592 QT
-57.666 -11.928 -57.869 -11.194 QT
cp
f
GR
GS
[0.6 0 0 0.6 217.5002 21.75] CT
N
-50.504 -6.913 M
-50.504 -7.006 -50.489 -7.069 QT
-49.145 -12.444 L
-49.004 -12.944 -49.004 -13.319 QT
-49.004 -14.084 -49.536 -14.084 QT
-50.098 -14.084 -50.372 -13.413 QT
-50.645 -12.741 -50.895 -11.709 QT
-50.895 -11.663 -50.95 -11.631 QT
-51.004 -11.6 -51.051 -11.6 QT
-51.254 -11.6 L
-51.317 -11.6 -51.364 -11.67 QT
-51.411 -11.741 -51.411 -11.788 QT
-51.223 -12.569 -51.043 -13.116 QT
-50.864 -13.663 -50.481 -14.108 QT
-50.098 -14.553 -49.52 -14.553 QT
-48.848 -14.553 -48.325 -14.131 QT
-47.801 -13.709 -47.801 -13.038 QT
-47.27 -13.741 -46.551 -14.147 QT
-45.833 -14.553 -45.02 -14.553 QT
-44.379 -14.553 -43.911 -14.334 QT
-43.442 -14.116 -43.184 -13.67 QT
-42.926 -13.225 -42.926 -12.616 QT
-42.926 -11.881 -43.254 -10.834 QT
-43.583 -9.788 -44.083 -8.491 QT
-44.333 -7.897 -44.333 -7.413 QT
-44.333 -6.866 -43.926 -6.866 QT
-43.223 -6.866 -42.754 -7.624 QT
-42.286 -8.381 -42.083 -9.241 QT
-42.051 -9.35 -41.942 -9.35 QT
-41.723 -9.35 L
-41.661 -9.35 -41.606 -9.303 QT
-41.551 -9.256 -41.551 -9.194 QT
-41.551 -9.178 -41.583 -9.147 QT
-41.817 -8.116 -42.434 -7.256 QT
-43.051 -6.397 -43.958 -6.397 QT
-44.598 -6.397 -45.043 -6.834 QT
-45.489 -7.272 -45.489 -7.897 QT
-45.489 -8.225 -45.348 -8.6 QT
-45.114 -9.178 -44.825 -9.999 QT
-44.536 -10.819 -44.34 -11.569 QT
-44.145 -12.319 -44.145 -12.881 QT
-44.145 -13.381 -44.356 -13.733 QT
-44.567 -14.084 -45.051 -14.084 QT
-45.723 -14.084 -46.27 -13.795 QT
-46.817 -13.506 -47.231 -13.03 QT
-47.645 -12.553 -47.989 -11.897 QT
-49.208 -6.991 L
-49.27 -6.756 -49.489 -6.577 QT
-49.708 -6.397 -49.973 -6.397 QT
-50.192 -6.397 -50.348 -6.538 QT
-50.504 -6.678 -50.504 -6.913 QT
cp
f
GR
GS
[0.6 0 0 0.6 217.5002 21.75] CT
N
-39.781 -8.053 M
-39.781 -8.319 -39.719 -8.553 QT
-38.422 -13.725 L
-40.313 -13.725 L
-40.5 -13.725 -40.5 -13.959 QT
-40.422 -14.366 -40.25 -14.366 QT
-38.266 -14.366 L
-37.547 -17.303 L
-37.469 -17.538 -37.258 -17.702 QT
-37.047 -17.866 -36.781 -17.866 QT
-36.563 -17.866 -36.406 -17.733 QT
-36.25 -17.6 -36.25 -17.366 QT
-36.25 -17.319 -36.258 -17.288 QT
-36.266 -17.256 -36.266 -17.225 QT
-36.984 -14.366 L
-35.141 -14.366 L
-34.953 -14.366 -34.953 -14.131 QT
-34.953 -14.084 -34.984 -13.975 QT
-35.016 -13.866 -35.055 -13.795 QT
-35.094 -13.725 -35.188 -13.725 QT
-37.141 -13.725 L
-38.438 -8.522 L
-38.563 -8.022 -38.563 -7.647 QT
-38.563 -6.866 -38.047 -6.866 QT
-37.25 -6.866 -36.641 -7.616 QT
-36.031 -8.366 -35.703 -9.241 QT
-35.641 -9.35 -35.563 -9.35 QT
-35.344 -9.35 L
-35.281 -9.35 -35.234 -9.303 QT
-35.188 -9.256 -35.188 -9.194 QT
-35.188 -9.163 -35.203 -9.147 QT
-35.594 -8.053 -36.352 -7.225 QT
-37.109 -6.397 -38.094 -6.397 QT
-38.797 -6.397 -39.289 -6.866 QT
-39.781 -7.334 -39.781 -8.053 QT
cp
f
GR
GS
[0.6 0 0 0.6 217.5002 21.75] CT
N
-30.645 -6.397 M
-31.505 -6.397 -32.153 -6.842 QT
-32.802 -7.288 -33.138 -8.053 QT
-33.473 -8.819 -33.473 -9.663 QT
-33.473 -10.944 -32.833 -12.069 QT
-32.192 -13.194 -31.083 -13.874 QT
-29.973 -14.553 -28.708 -14.553 QT
-27.927 -14.553 -27.356 -14.155 QT
-26.786 -13.756 -26.786 -13.006 QT
-26.786 -11.975 -27.606 -11.467 QT
-28.427 -10.959 -29.466 -10.842 QT
-30.505 -10.725 -31.77 -10.725 QT
-31.817 -10.725 L
-32.114 -9.647 -32.114 -8.881 QT
-32.114 -8.084 -31.739 -7.475 QT
-31.364 -6.866 -30.614 -6.866 QT
-29.536 -6.866 -28.552 -7.358 QT
-27.567 -7.85 -26.942 -8.725 QT
-26.88 -8.788 -26.802 -8.788 QT
-26.708 -8.788 -26.614 -8.686 QT
-26.52 -8.584 -26.52 -8.491 QT
-26.52 -8.413 -26.567 -8.381 QT
-27.223 -7.459 -28.341 -6.928 QT
-29.458 -6.397 -30.645 -6.397 QT
cp
-31.708 -11.194 M
-30.661 -11.194 -29.778 -11.288 QT
-28.895 -11.381 -28.169 -11.772 QT
-27.442 -12.163 -27.442 -12.991 QT
-27.442 -13.319 -27.63 -13.569 QT
-27.817 -13.819 -28.114 -13.952 QT
-28.411 -14.084 -28.723 -14.084 QT
-29.489 -14.084 -30.098 -13.67 QT
-30.708 -13.256 -31.106 -12.592 QT
-31.505 -11.928 -31.708 -11.194 QT
cp
f
GR
GS
[0.6 0 0 0.6 217.5002 21.75] CT
N
-24.343 -6.913 M
-24.343 -7.006 -24.328 -7.069 QT
-22.984 -12.444 L
-22.843 -12.944 -22.843 -13.319 QT
-22.843 -14.084 -23.374 -14.084 QT
-23.937 -14.084 -24.21 -13.413 QT
-24.484 -12.741 -24.734 -11.709 QT
-24.734 -11.663 -24.789 -11.631 QT
-24.843 -11.6 -24.89 -11.6 QT
-25.093 -11.6 L
-25.156 -11.6 -25.203 -11.67 QT
-25.249 -11.741 -25.249 -11.788 QT
-25.062 -12.569 -24.882 -13.116 QT
-24.703 -13.663 -24.32 -14.108 QT
-23.937 -14.553 -23.359 -14.553 QT
-22.734 -14.553 -22.265 -14.194 QT
-21.796 -13.834 -21.687 -13.241 QT
-21.218 -13.85 -20.64 -14.202 QT
-20.062 -14.553 -19.359 -14.553 QT
-18.796 -14.553 -18.359 -14.217 QT
-17.921 -13.881 -17.921 -13.319 QT
-17.921 -12.866 -18.203 -12.522 QT
-18.484 -12.178 -18.968 -12.178 QT
-19.249 -12.178 -19.453 -12.358 QT
-19.656 -12.538 -19.656 -12.834 QT
-19.656 -13.225 -19.367 -13.538 QT
-19.078 -13.85 -18.687 -13.85 QT
-18.984 -14.084 -19.39 -14.084 QT
-20.171 -14.084 -20.742 -13.538 QT
-21.312 -12.991 -21.765 -12.147 QT
-23.046 -6.991 L
-23.109 -6.756 -23.328 -6.577 QT
-23.546 -6.397 -23.812 -6.397 QT
-24.031 -6.397 -24.187 -6.538 QT
-24.343 -6.678 -24.343 -6.913 QT
cp
f
GR
GS
[0.6 0 0 0.6 217.5002 21.75] CT
N
-8.936 -8.553 M
-8.936 -9.147 -8.78 -9.764 QT
-8.623 -10.381 -8.334 -11.147 QT
-8.045 -11.913 -7.842 -12.475 QT
-7.592 -13.131 -7.592 -13.553 QT
-7.592 -14.084 -7.998 -14.084 QT
-8.702 -14.084 -9.163 -13.35 QT
-9.623 -12.616 -9.842 -11.709 QT
-9.889 -11.6 -9.998 -11.6 QT
-10.202 -11.6 L
-10.358 -11.6 -10.358 -11.772 QT
-10.358 -11.819 L
-10.061 -12.897 -9.467 -13.725 QT
-8.873 -14.553 -7.952 -14.553 QT
-7.311 -14.553 -6.873 -14.131 QT
-6.436 -13.709 -6.436 -13.053 QT
-6.436 -12.725 -6.577 -12.35 QT
-6.655 -12.131 -6.936 -11.397 QT
-7.217 -10.663 -7.366 -10.178 QT
-7.514 -9.694 -7.616 -9.225 QT
-7.717 -8.756 -7.717 -8.303 QT
-7.717 -7.694 -7.459 -7.28 QT
-7.202 -6.866 -6.639 -6.866 QT
-5.483 -6.866 -4.608 -8.303 QT
-4.592 -8.366 -4.577 -8.436 QT
-4.561 -8.506 -4.561 -8.553 QT
-3.264 -13.788 L
-3.202 -14.022 -2.983 -14.194 QT
-2.764 -14.366 -2.514 -14.366 QT
-2.295 -14.366 -2.131 -14.225 QT
-1.967 -14.084 -1.967 -13.85 QT
-1.967 -13.741 -1.983 -13.709 QT
-3.28 -8.522 L
-3.405 -7.991 -3.405 -7.647 QT
-3.405 -6.866 -2.889 -6.866 QT
-2.311 -6.866 -2.022 -7.584 QT
-1.733 -8.303 -1.53 -9.241 QT
-1.498 -9.35 -1.389 -9.35 QT
-1.17 -9.35 L
-1.108 -9.35 -1.061 -9.288 QT
-1.014 -9.225 -1.014 -9.178 QT
-1.202 -8.397 -1.389 -7.842 QT
-1.577 -7.288 -1.959 -6.842 QT
-2.342 -6.397 -2.92 -6.397 QT
-3.498 -6.397 -3.952 -6.709 QT
-4.405 -7.022 -4.561 -7.553 QT
-4.967 -7.038 -5.514 -6.717 QT
-6.061 -6.397 -6.67 -6.397 QT
-7.702 -6.397 -8.319 -6.967 QT
-8.936 -7.538 -8.936 -8.553 QT
cp
f
GR
GS
[0.6 0 0 0.6 217.5002 21.75] CT
N
0.293 -3.709 M
0.184 -3.709 0.184 -3.819 QT
0.184 -3.881 0.215 -3.913 QT
0.559 -4.522 1.051 -5.069 QT
1.543 -5.616 2.168 -6.178 QT
2.793 -6.741 3.426 -7.303 QT
4.059 -7.866 4.45 -8.303 QT
4.403 -8.303 L
4.122 -8.303 3.567 -8.491 QT
3.012 -8.678 2.7 -8.678 QT
2.356 -8.678 2.028 -8.53 QT
1.7 -8.381 1.622 -8.069 QT
1.59 -7.975 1.512 -7.975 QT
1.356 -7.975 L
1.247 -7.975 1.247 -8.1 QT
1.247 -8.147 L
1.356 -8.522 1.59 -8.85 QT
1.825 -9.178 2.161 -9.389 QT
2.497 -9.6 2.872 -9.6 QT
3.122 -9.6 3.293 -9.483 QT
3.465 -9.366 3.692 -9.116 QT
3.918 -8.866 4.067 -8.756 QT
4.215 -8.647 4.434 -8.647 QT
4.715 -8.647 4.942 -8.905 QT
5.168 -9.163 5.387 -9.553 QT
5.418 -9.6 5.481 -9.6 QT
5.637 -9.6 L
5.684 -9.6 5.708 -9.569 QT
5.731 -9.538 5.731 -9.475 QT
5.731 -9.444 5.715 -9.397 QT
5.356 -8.788 4.895 -8.264 QT
4.434 -7.741 3.676 -7.069 QT
2.918 -6.397 2.403 -5.928 QT
1.887 -5.459 1.434 -4.975 QT
1.543 -4.991 1.715 -4.991 QT
2.028 -4.991 2.575 -4.811 QT
3.122 -4.631 3.418 -4.631 QT
3.747 -4.631 4.075 -4.772 QT
4.403 -4.913 4.645 -5.163 QT
4.887 -5.413 4.965 -5.741 QT
4.997 -5.834 5.075 -5.834 QT
5.231 -5.834 L
5.278 -5.834 5.309 -5.795 QT
5.34 -5.756 5.34 -5.709 QT
5.34 -5.694 5.34 -5.678 QT
5.215 -5.178 4.918 -4.733 QT
4.622 -4.288 4.184 -3.999 QT
3.747 -3.709 3.247 -3.709 QT
3.012 -3.709 2.84 -3.819 QT
2.668 -3.928 2.434 -4.178 QT
2.2 -4.428 2.051 -4.545 QT
1.903 -4.663 1.7 -4.663 QT
1.043 -4.663 0.528 -3.741 QT
0.497 -3.709 0.45 -3.709 QT
0.293 -3.709 L
cp
f
GR
GS
[0.6 0 0 0.6 217.5002 21.75] CT
N
16.338 -6.397 M
15.213 -6.397 14.557 -7.256 QT
13.901 -8.116 13.901 -9.288 QT
13.901 -10.428 14.494 -11.67 QT
15.088 -12.913 16.104 -13.733 QT
17.119 -14.553 18.291 -14.553 QT
18.823 -14.553 19.244 -14.256 QT
19.666 -13.959 19.916 -13.475 QT
20.916 -17.491 L
20.994 -17.803 21.01 -17.975 QT
21.01 -18.256 19.838 -18.256 QT
19.651 -18.256 19.651 -18.506 QT
19.666 -18.538 19.698 -18.655 QT
19.729 -18.772 19.776 -18.834 QT
19.823 -18.897 19.916 -18.897 QT
22.338 -19.084 L
22.557 -19.084 22.557 -18.866 QT
19.963 -8.506 L
19.838 -8.209 19.838 -7.647 QT
19.838 -6.866 20.354 -6.866 QT
20.916 -6.866 21.213 -7.584 QT
21.51 -8.303 21.713 -9.241 QT
21.744 -9.35 21.854 -9.35 QT
22.073 -9.35 L
22.151 -9.35 22.19 -9.288 QT
22.229 -9.225 22.229 -9.178 QT
21.916 -7.913 21.541 -7.155 QT
21.166 -6.397 20.323 -6.397 QT
19.713 -6.397 19.252 -6.756 QT
18.791 -7.116 18.666 -7.694 QT
17.51 -6.397 16.338 -6.397 QT
cp
16.354 -6.866 M
17.01 -6.866 17.619 -7.358 QT
18.229 -7.85 18.666 -8.506 QT
18.682 -8.522 18.682 -8.584 QT
19.666 -12.538 L
19.573 -13.178 19.213 -13.631 QT
18.854 -14.084 18.244 -14.084 QT
17.651 -14.084 17.127 -13.592 QT
16.604 -13.1 16.244 -12.413 QT
15.885 -11.694 15.565 -10.436 QT
15.244 -9.178 15.244 -8.491 QT
15.244 -7.866 15.51 -7.366 QT
15.776 -6.866 16.354 -6.866 QT
cp
f
GR
GS
[0.6 0 0 0.6 217.5002 21.75] CT
N
24.162 -7.897 M
24.162 -8.225 24.302 -8.6 QT
25.755 -12.475 L
26.005 -13.131 26.005 -13.553 QT
26.005 -14.084 25.599 -14.084 QT
24.896 -14.084 24.435 -13.35 QT
23.974 -12.616 23.755 -11.709 QT
23.709 -11.6 23.599 -11.6 QT
23.396 -11.6 L
23.24 -11.6 23.24 -11.772 QT
23.24 -11.819 L
23.537 -12.897 24.13 -13.725 QT
24.724 -14.553 25.646 -14.553 QT
26.287 -14.553 26.724 -14.131 QT
27.162 -13.709 27.162 -13.053 QT
27.162 -12.725 27.021 -12.35 QT
25.552 -8.491 L
25.318 -7.897 25.318 -7.413 QT
25.318 -6.866 25.724 -6.866 QT
26.427 -6.866 26.896 -7.624 QT
27.365 -8.381 27.568 -9.241 QT
27.599 -9.35 27.709 -9.35 QT
27.927 -9.35 L
27.99 -9.35 28.037 -9.303 QT
28.084 -9.256 28.084 -9.194 QT
28.084 -9.178 28.068 -9.147 QT
27.818 -8.116 27.209 -7.256 QT
26.599 -6.397 25.693 -6.397 QT
25.052 -6.397 24.607 -6.834 QT
24.162 -7.272 24.162 -7.897 QT
cp
26.193 -17.506 M
26.193 -17.881 26.505 -18.194 QT
26.818 -18.506 27.209 -18.506 QT
27.505 -18.506 27.709 -18.311 QT
27.912 -18.116 27.912 -17.834 QT
27.912 -17.428 27.591 -17.124 QT
27.271 -16.819 26.88 -16.819 QT
26.584 -16.819 26.388 -17.022 QT
26.193 -17.225 26.193 -17.506 QT
cp
f
GR
GS
[0.6 0 0 0.6 217.5002 21.75] CT
N
30.634 -7.694 M
31.118 -6.866 32.571 -6.866 QT
33.212 -6.866 33.782 -7.084 QT
34.353 -7.303 34.728 -7.733 QT
35.103 -8.163 35.103 -8.788 QT
35.103 -9.241 34.767 -9.545 QT
34.431 -9.85 33.946 -9.944 QT
32.978 -10.147 L
32.306 -10.303 31.876 -10.764 QT
31.446 -11.225 31.446 -11.881 QT
31.446 -12.678 31.884 -13.288 QT
32.321 -13.897 33.032 -14.225 QT
33.743 -14.553 34.509 -14.553 QT
35.321 -14.553 35.97 -14.163 QT
36.618 -13.772 36.618 -13.006 QT
36.618 -12.6 36.384 -12.28 QT
36.15 -11.959 35.728 -11.959 QT
35.493 -11.959 35.321 -12.116 QT
35.15 -12.272 35.15 -12.506 QT
35.15 -12.725 35.267 -12.92 QT
35.384 -13.116 35.587 -13.233 QT
35.79 -13.35 35.993 -13.35 QT
35.837 -13.741 35.4 -13.913 QT
34.962 -14.084 34.462 -14.084 QT
34.009 -14.084 33.556 -13.905 QT
33.103 -13.725 32.821 -13.366 QT
32.54 -13.006 32.54 -12.522 QT
32.54 -12.194 32.767 -11.952 QT
32.993 -11.709 33.337 -11.6 QT
34.384 -11.397 L
34.884 -11.288 35.298 -11.022 QT
35.712 -10.756 35.954 -10.342 QT
36.196 -9.928 36.196 -9.397 QT
36.196 -8.741 35.821 -8.084 QT
35.446 -7.428 34.915 -7.053 QT
33.946 -6.397 32.556 -6.397 QT
31.603 -6.397 30.806 -6.834 QT
30.009 -7.272 30.009 -8.147 QT
30.009 -8.647 30.29 -9.006 QT
30.571 -9.366 31.071 -9.366 QT
31.353 -9.366 31.556 -9.194 QT
31.759 -9.022 31.759 -8.725 QT
31.759 -8.319 31.446 -8.006 QT
31.134 -7.694 30.728 -7.694 QT
30.634 -7.694 L
cp
f
GR
GS
[0.6 0 0 0.6 217.5002 21.75] CT
N
37.212 -3.116 M
37.056 -3.116 37.056 -3.334 QT
37.118 -3.741 37.29 -3.741 QT
37.853 -3.741 38.079 -3.842 QT
38.306 -3.944 38.415 -4.35 QT
40.446 -12.459 L
40.587 -12.788 40.587 -13.319 QT
40.587 -14.084 40.056 -14.084 QT
39.493 -14.084 39.22 -13.413 QT
38.946 -12.741 38.696 -11.709 QT
38.696 -11.6 38.54 -11.6 QT
38.337 -11.6 L
38.29 -11.6 38.236 -11.67 QT
38.181 -11.741 38.181 -11.788 QT
38.384 -12.569 38.564 -13.116 QT
38.743 -13.663 39.126 -14.108 QT
39.509 -14.553 40.071 -14.553 QT
40.696 -14.553 41.157 -14.209 QT
41.618 -13.866 41.759 -13.256 QT
42.243 -13.834 42.845 -14.194 QT
43.446 -14.553 44.071 -14.553 QT
44.821 -14.553 45.384 -14.147 QT
45.946 -13.741 46.228 -13.092 QT
46.509 -12.444 46.509 -11.678 QT
46.509 -10.522 45.915 -9.28 QT
45.321 -8.038 44.306 -7.217 QT
43.29 -6.397 42.134 -6.397 QT
41.603 -6.397 41.173 -6.694 QT
40.743 -6.991 40.509 -7.475 QT
39.696 -4.272 L
39.65 -4.022 39.65 -3.975 QT
39.65 -3.741 40.837 -3.741 QT
41.009 -3.741 41.009 -3.506 QT
40.946 -3.272 40.907 -3.194 QT
40.868 -3.116 40.712 -3.116 QT
37.212 -3.116 L
cp
42.15 -6.866 M
42.775 -6.866 43.306 -7.381 QT
43.837 -7.897 44.181 -8.538 QT
44.431 -9.022 44.642 -9.725 QT
44.853 -10.428 45.009 -11.217 QT
45.165 -12.006 45.165 -12.475 QT
45.165 -12.881 45.056 -13.241 QT
44.946 -13.6 44.696 -13.842 QT
44.446 -14.084 44.04 -14.084 QT
43.384 -14.084 42.798 -13.616 QT
42.212 -13.147 41.728 -12.459 QT
41.728 -12.397 L
40.743 -8.413 L
40.868 -7.772 41.22 -7.319 QT
41.571 -6.866 42.15 -6.866 QT
cp
f
GR
GS
[0.6 0 0 0.6 217.5002 21.75] CT
N
47.686 -8.053 M
47.686 -8.116 47.694 -8.217 QT
47.702 -8.319 47.717 -8.42 QT
47.733 -8.522 47.733 -8.584 QT
49.967 -17.491 L
50.03 -17.803 50.061 -17.975 QT
50.061 -18.256 48.889 -18.256 QT
48.702 -18.256 48.702 -18.506 QT
48.717 -18.538 48.749 -18.655 QT
48.78 -18.772 48.827 -18.834 QT
48.874 -18.897 48.967 -18.897 QT
51.389 -19.084 L
51.608 -19.084 51.608 -18.866 QT
49.014 -8.506 L
48.889 -8.225 48.889 -7.647 QT
48.889 -6.866 49.405 -6.866 QT
49.967 -6.866 50.241 -7.561 QT
50.514 -8.256 50.733 -9.241 QT
50.78 -9.35 50.889 -9.35 QT
51.092 -9.35 L
51.17 -9.35 51.217 -9.295 QT
51.264 -9.241 51.264 -9.178 QT
51.061 -8.303 50.889 -7.795 QT
50.717 -7.288 50.334 -6.842 QT
49.952 -6.397 49.374 -6.397 QT
48.655 -6.397 48.17 -6.866 QT
47.686 -7.334 47.686 -8.053 QT
cp
f
GR
GS
[0.6 0 0 0.6 217.5002 21.75] CT
N
55.845 -6.397 M
54.72 -6.397 54.064 -7.256 QT
53.408 -8.116 53.408 -9.288 QT
53.408 -10.428 54.001 -11.67 QT
54.595 -12.913 55.611 -13.733 QT
56.626 -14.553 57.798 -14.553 QT
58.33 -14.553 58.751 -14.264 QT
59.173 -13.975 59.423 -13.475 QT
59.626 -14.194 60.205 -14.194 QT
60.439 -14.194 60.595 -14.061 QT
60.751 -13.928 60.751 -13.694 QT
60.751 -13.647 60.744 -13.616 QT
60.736 -13.584 60.72 -13.553 QT
59.47 -8.522 L
59.345 -7.991 59.345 -7.647 QT
59.345 -6.866 59.861 -6.866 QT
60.423 -6.866 60.72 -7.584 QT
61.017 -8.303 61.22 -9.241 QT
61.251 -9.35 61.361 -9.35 QT
61.58 -9.35 L
61.658 -9.35 61.697 -9.288 QT
61.736 -9.225 61.736 -9.178 QT
61.423 -7.913 61.048 -7.155 QT
60.673 -6.397 59.83 -6.397 QT
59.22 -6.397 58.759 -6.756 QT
58.298 -7.116 58.173 -7.694 QT
57.017 -6.397 55.845 -6.397 QT
cp
55.861 -6.866 M
56.517 -6.866 57.126 -7.358 QT
57.736 -7.85 58.173 -8.506 QT
58.189 -8.522 58.189 -8.553 QT
59.158 -12.475 L
59.173 -12.522 L
59.08 -13.163 58.72 -13.624 QT
58.361 -14.084 57.751 -14.084 QT
57.158 -14.084 56.634 -13.592 QT
56.111 -13.1 55.751 -12.413 QT
55.392 -11.694 55.072 -10.436 QT
54.751 -9.178 54.751 -8.491 QT
54.751 -7.866 55.017 -7.366 QT
55.283 -6.866 55.861 -6.866 QT
cp
f
GR
GS
[0.6 0 0 0.6 217.5002 21.75] CT
N
64.52 -8.741 M
64.52 -7.959 64.919 -7.413 QT
65.317 -6.866 66.067 -6.866 QT
67.145 -6.866 68.13 -7.358 QT
69.114 -7.85 69.739 -8.725 QT
69.802 -8.788 69.88 -8.788 QT
69.974 -8.788 70.067 -8.686 QT
70.161 -8.584 70.161 -8.491 QT
70.161 -8.413 70.114 -8.381 QT
69.458 -7.459 68.341 -6.928 QT
67.224 -6.397 66.036 -6.397 QT
65.177 -6.397 64.513 -6.803 QT
63.849 -7.209 63.489 -7.897 QT
63.13 -8.584 63.13 -9.444 QT
63.13 -10.663 63.809 -11.858 QT
64.489 -13.053 65.614 -13.803 QT
66.739 -14.553 67.974 -14.553 QT
68.786 -14.553 69.434 -14.163 QT
70.083 -13.772 70.083 -13.006 QT
70.083 -12.522 69.794 -12.17 QT
69.505 -11.819 69.02 -11.819 QT
68.724 -11.819 68.528 -11.999 QT
68.333 -12.178 68.333 -12.475 QT
68.333 -12.897 68.645 -13.194 QT
68.958 -13.491 69.364 -13.491 QT
69.395 -13.491 L
69.192 -13.803 68.794 -13.944 QT
68.395 -14.084 67.958 -14.084 QT
66.895 -14.084 66.106 -13.186 QT
65.317 -12.288 64.919 -11.038 QT
64.52 -9.788 64.52 -8.741 QT
cp
f
GR
GS
[0.6 0 0 0.6 217.5002 21.75] CT
N
73.97 -6.397 M
73.111 -6.397 72.462 -6.842 QT
71.814 -7.288 71.478 -8.053 QT
71.142 -8.819 71.142 -9.663 QT
71.142 -10.944 71.782 -12.069 QT
72.423 -13.194 73.532 -13.874 QT
74.642 -14.553 75.907 -14.553 QT
76.689 -14.553 77.259 -14.155 QT
77.829 -13.756 77.829 -13.006 QT
77.829 -11.975 77.009 -11.467 QT
76.189 -10.959 75.15 -10.842 QT
74.111 -10.725 72.845 -10.725 QT
72.798 -10.725 L
72.501 -9.647 72.501 -8.881 QT
72.501 -8.084 72.876 -7.475 QT
73.251 -6.866 74.001 -6.866 QT
75.079 -6.866 76.064 -7.358 QT
77.048 -7.85 77.673 -8.725 QT
77.736 -8.788 77.814 -8.788 QT
77.907 -8.788 78.001 -8.686 QT
78.095 -8.584 78.095 -8.491 QT
78.095 -8.413 78.048 -8.381 QT
77.392 -7.459 76.275 -6.928 QT
75.157 -6.397 73.97 -6.397 QT
cp
72.907 -11.194 M
73.954 -11.194 74.837 -11.288 QT
75.72 -11.381 76.446 -11.772 QT
77.173 -12.163 77.173 -12.991 QT
77.173 -13.319 76.986 -13.569 QT
76.798 -13.819 76.501 -13.952 QT
76.204 -14.084 75.892 -14.084 QT
75.126 -14.084 74.517 -13.67 QT
73.907 -13.256 73.509 -12.592 QT
73.111 -11.928 72.907 -11.194 QT
cp
f
GR
GS
[0.6 0 0 0.6 217.5002 21.75] CT
N
80.272 -6.913 M
80.272 -7.006 80.288 -7.069 QT
81.631 -12.444 L
81.772 -12.944 81.772 -13.319 QT
81.772 -14.084 81.241 -14.084 QT
80.678 -14.084 80.405 -13.413 QT
80.131 -12.741 79.881 -11.709 QT
79.881 -11.663 79.827 -11.631 QT
79.772 -11.6 79.725 -11.6 QT
79.522 -11.6 L
79.459 -11.6 79.413 -11.67 QT
79.366 -11.741 79.366 -11.788 QT
79.553 -12.569 79.733 -13.116 QT
79.913 -13.663 80.295 -14.108 QT
80.678 -14.553 81.256 -14.553 QT
81.928 -14.553 82.452 -14.131 QT
82.975 -13.709 82.975 -13.038 QT
83.506 -13.741 84.225 -14.147 QT
84.944 -14.553 85.756 -14.553 QT
86.6 -14.553 87.225 -14.116 QT
87.85 -13.678 87.85 -12.881 QT
88.397 -13.663 89.139 -14.108 QT
89.881 -14.553 90.772 -14.553 QT
91.694 -14.553 92.264 -14.045 QT
92.834 -13.538 92.834 -12.616 QT
92.834 -11.881 92.506 -10.834 QT
92.178 -9.788 91.678 -8.491 QT
91.428 -7.866 91.428 -7.413 QT
91.428 -6.866 91.85 -6.866 QT
92.553 -6.866 93.014 -7.624 QT
93.475 -8.381 93.678 -9.241 QT
93.725 -9.35 93.819 -9.35 QT
94.038 -9.35 L
94.1 -9.35 94.147 -9.303 QT
94.194 -9.256 94.194 -9.194 QT
94.194 -9.178 94.178 -9.147 QT
93.944 -8.116 93.327 -7.256 QT
92.709 -6.397 91.803 -6.397 QT
91.163 -6.397 90.717 -6.834 QT
90.272 -7.272 90.272 -7.897 QT
90.272 -8.209 90.428 -8.6 QT
90.928 -9.944 91.272 -11.006 QT
91.616 -12.069 91.616 -12.881 QT
91.616 -13.381 91.413 -13.733 QT
91.209 -14.084 90.725 -14.084 QT
89.741 -14.084 89.022 -13.483 QT
88.303 -12.881 87.772 -11.897 QT
87.741 -11.709 87.725 -11.616 QT
86.569 -6.991 L
86.506 -6.756 86.288 -6.577 QT
86.069 -6.397 85.803 -6.397 QT
85.6 -6.397 85.436 -6.538 QT
85.272 -6.678 85.272 -6.913 QT
85.272 -7.006 85.288 -7.069 QT
86.444 -11.647 L
86.631 -12.397 86.631 -12.881 QT
86.631 -13.381 86.42 -13.733 QT
86.209 -14.084 85.725 -14.084 QT
85.053 -14.084 84.506 -13.795 QT
83.959 -13.506 83.545 -13.03 QT
83.131 -12.553 82.788 -11.897 QT
81.569 -6.991 L
81.506 -6.756 81.288 -6.577 QT
81.069 -6.397 80.803 -6.397 QT
80.584 -6.397 80.428 -6.538 QT
80.272 -6.678 80.272 -6.913 QT
cp
f
GR
GS
[0.6 0 0 0.6 217.5002 21.75] CT
N
98.603 -6.397 M
97.744 -6.397 97.095 -6.842 QT
96.447 -7.288 96.111 -8.053 QT
95.775 -8.819 95.775 -9.663 QT
95.775 -10.944 96.416 -12.069 QT
97.056 -13.194 98.166 -13.874 QT
99.275 -14.553 100.541 -14.553 QT
101.322 -14.553 101.892 -14.155 QT
102.463 -13.756 102.463 -13.006 QT
102.463 -11.975 101.642 -11.467 QT
100.822 -10.959 99.783 -10.842 QT
98.744 -10.725 97.478 -10.725 QT
97.431 -10.725 L
97.135 -9.647 97.135 -8.881 QT
97.135 -8.084 97.51 -7.475 QT
97.885 -6.866 98.635 -6.866 QT
99.713 -6.866 100.697 -7.358 QT
101.681 -7.85 102.306 -8.725 QT
102.369 -8.788 102.447 -8.788 QT
102.541 -8.788 102.635 -8.686 QT
102.728 -8.584 102.728 -8.491 QT
102.728 -8.413 102.681 -8.381 QT
102.025 -7.459 100.908 -6.928 QT
99.791 -6.397 98.603 -6.397 QT
cp
97.541 -11.194 M
98.588 -11.194 99.47 -11.288 QT
100.353 -11.381 101.08 -11.772 QT
101.806 -12.163 101.806 -12.991 QT
101.806 -13.319 101.619 -13.569 QT
101.431 -13.819 101.135 -13.952 QT
100.838 -14.084 100.525 -14.084 QT
99.76 -14.084 99.15 -13.67 QT
98.541 -13.256 98.142 -12.592 QT
97.744 -11.928 97.541 -11.194 QT
cp
f
GR
GS
[0.6 0 0 0.6 217.5002 21.75] CT
N
104.905 -6.913 M
104.905 -7.006 104.921 -7.069 QT
106.265 -12.444 L
106.405 -12.944 106.405 -13.319 QT
106.405 -14.084 105.874 -14.084 QT
105.312 -14.084 105.038 -13.413 QT
104.765 -12.741 104.515 -11.709 QT
104.515 -11.663 104.46 -11.631 QT
104.405 -11.6 104.359 -11.6 QT
104.155 -11.6 L
104.093 -11.6 104.046 -11.67 QT
103.999 -11.741 103.999 -11.788 QT
104.187 -12.569 104.366 -13.116 QT
104.546 -13.663 104.929 -14.108 QT
105.312 -14.553 105.89 -14.553 QT
106.562 -14.553 107.085 -14.131 QT
107.609 -13.709 107.609 -13.038 QT
108.14 -13.741 108.859 -14.147 QT
109.577 -14.553 110.39 -14.553 QT
111.03 -14.553 111.499 -14.334 QT
111.968 -14.116 112.226 -13.67 QT
112.484 -13.225 112.484 -12.616 QT
112.484 -11.881 112.155 -10.834 QT
111.827 -9.788 111.327 -8.491 QT
111.077 -7.897 111.077 -7.413 QT
111.077 -6.866 111.484 -6.866 QT
112.187 -6.866 112.655 -7.624 QT
113.124 -8.381 113.327 -9.241 QT
113.359 -9.35 113.468 -9.35 QT
113.687 -9.35 L
113.749 -9.35 113.804 -9.303 QT
113.859 -9.256 113.859 -9.194 QT
113.859 -9.178 113.827 -9.147 QT
113.593 -8.116 112.976 -7.256 QT
112.359 -6.397 111.452 -6.397 QT
110.812 -6.397 110.366 -6.834 QT
109.921 -7.272 109.921 -7.897 QT
109.921 -8.225 110.062 -8.6 QT
110.296 -9.178 110.585 -9.999 QT
110.874 -10.819 111.069 -11.569 QT
111.265 -12.319 111.265 -12.881 QT
111.265 -13.381 111.054 -13.733 QT
110.843 -14.084 110.359 -14.084 QT
109.687 -14.084 109.14 -13.795 QT
108.593 -13.506 108.179 -13.03 QT
107.765 -12.553 107.421 -11.897 QT
106.202 -6.991 L
106.14 -6.756 105.921 -6.577 QT
105.702 -6.397 105.437 -6.397 QT
105.218 -6.397 105.062 -6.538 QT
104.905 -6.678 104.905 -6.913 QT
cp
f
GR
GS
[0.6 0 0 0.6 217.5002 21.75] CT
N
115.628 -8.053 M
115.628 -8.319 115.691 -8.553 QT
116.988 -13.725 L
115.097 -13.725 L
114.91 -13.725 114.91 -13.959 QT
114.988 -14.366 115.16 -14.366 QT
117.144 -14.366 L
117.863 -17.303 L
117.941 -17.538 118.152 -17.702 QT
118.363 -17.866 118.628 -17.866 QT
118.847 -17.866 119.003 -17.733 QT
119.16 -17.6 119.16 -17.366 QT
119.16 -17.319 119.152 -17.288 QT
119.144 -17.256 119.144 -17.225 QT
118.425 -14.366 L
120.269 -14.366 L
120.457 -14.366 120.457 -14.131 QT
120.457 -14.084 120.425 -13.975 QT
120.394 -13.866 120.355 -13.795 QT
120.316 -13.725 120.222 -13.725 QT
118.269 -13.725 L
116.972 -8.522 L
116.847 -8.022 116.847 -7.647 QT
116.847 -6.866 117.363 -6.866 QT
118.16 -6.866 118.769 -7.616 QT
119.378 -8.366 119.707 -9.241 QT
119.769 -9.35 119.847 -9.35 QT
120.066 -9.35 L
120.128 -9.35 120.175 -9.303 QT
120.222 -9.256 120.222 -9.194 QT
120.222 -9.163 120.207 -9.147 QT
119.816 -8.053 119.058 -7.225 QT
118.3 -6.397 117.316 -6.397 QT
116.613 -6.397 116.121 -6.866 QT
115.628 -7.334 115.628 -8.053 QT
cp
f
GR
GS
[0.6 0 0 0.6 0 0] CT
0 0.447 0.741 RC
1 LJ
0.833 LW
N
91 39 M
96.43 103.814 L
107.29 139.954 L
112.72 232.695 L
123.58 285.474 L
129.01 286.877 L
139.87 298.561 L
145.3 319.654 L
150.73 360.034 L
161.59 346.241 L
167.02 350.4 L
177.88 345.617 L
183.31 349.176 L
194.17 345.926 L
199.6 346.785 L
205.03 345.199 L
215.89 346.479 L
221.32 345.809 L
232.18 346.349 L
237.61 345.823 L
248.47 346.129 L
253.9 346.07 L
259.33 346.665 L
270.19 346.25 L
275.62 346.625 L
286.48 346.661 L
291.91 346.648 L
302.77 346.71 L
308.2 346.687 L
313.63 346.689 L
324.49 346.72 L
329.92 346.723 L
340.78 346.728 L
346.21 346.729 L
357.07 346.732 L
362.5 346.742 L
367.93 346.747 L
378.79 346.76 L
384.22 348.34 L
395.08 351.907 L
400.51 335.722 L
411.37 338.867 L
416.8 346.765 L
422.23 348.983 L
433.09 372.984 L
438.52 406.471 L
449.38 381.543 L
454.81 391.153 L
465.67 382.277 L
471.1 387.493 L
476.53 384.87 L
487.39 383.234 L
492.82 384.59 L
503.68 384.192 L
509.11 385.383 L
519.97 385.038 L
525.4 384.464 L
530.83 384.635 L
541.69 384.559 L
547.12 385.132 L
557.98 385.146 L
563.41 385.081 L
574.27 385.098 L
579.7 385.046 L
585.13 385.1 L
595.99 385.11 L
601.42 385.096 L
612.28 385.115 L
617.71 385.112 L
628.57 385.119 L
634 385.114 L
S
GR
GS
[0.6 0 0 0.6 0 0] CT
0.851 0.325 0.098 RC
1 LJ
0.833 LW
N
91 39 M
96.43 104.036 L
107.29 140.153 L
112.72 233.572 L
123.58 286.345 L
129.01 287.903 L
139.87 299.646 L
145.3 321.084 L
150.73 364.392 L
161.59 350.505 L
167.02 354.64 L
177.88 349.882 L
183.31 353.5 L
194.17 350.238 L
199.6 351.131 L
205.03 349.533 L
215.89 350.877 L
221.32 350.183 L
232.18 350.758 L
237.61 350.241 L
248.47 350.572 L
253.9 350.506 L
259.33 351.13 L
270.19 350.761 L
275.62 351.123 L
286.48 351.189 L
291.91 351.157 L
302.77 351.242 L
308.2 351.199 L
313.63 351.217 L
324.49 351.267 L
329.92 351.281 L
340.78 351.316 L
346.21 351.324 L
357.07 351.36 L
362.5 351.369 L
367.93 351.374 L
378.79 351.411 L
384.22 353.012 L
395.08 357.667 L
400.51 341.096 L
411.37 344.311 L
416.8 352.296 L
422.23 354.527 L
433.09 379.25 L
438.52 416.087 L
449.38 390.509 L
454.81 400.252 L
465.67 391.347 L
471.1 396.551 L
476.53 393.923 L
487.39 392.312 L
492.82 393.681 L
503.68 393.27 L
509.11 394.463 L
519.97 394.162 L
525.4 393.573 L
530.83 393.749 L
541.69 393.699 L
547.12 394.279 L
557.98 394.297 L
563.41 394.248 L
574.27 394.276 L
579.7 394.218 L
585.13 394.286 L
595.99 394.283 L
601.42 394.272 L
612.28 394.296 L
617.71 394.296 L
628.57 394.317 L
634 394.319 L
S
GR
GS
[0.6 0 0 0.6 0 0] CT
0.929 0.694 0.125 RC
1 LJ
0.833 LW
N
91 39 M
96.43 104.087 L
107.29 140.24 L
112.72 234.063 L
123.58 286.124 L
129.01 287.635 L
139.87 299.353 L
145.3 320.837 L
150.73 363.839 L
161.59 349.987 L
167.02 354.123 L
177.88 349.394 L
183.31 353.011 L
194.17 349.785 L
199.6 350.665 L
205.03 349.071 L
215.89 350.437 L
221.32 349.773 L
232.18 350.381 L
237.61 349.885 L
248.47 350.23 L
253.9 350.192 L
259.33 350.847 L
270.19 350.509 L
275.62 350.91 L
286.48 351.022 L
291.91 351.01 L
302.77 351.12 L
308.2 351.1 L
313.63 351.128 L
324.49 351.237 L
329.92 351.259 L
340.78 351.318 L
346.21 351.312 L
357.07 351.405 L
362.5 351.418 L
367.93 351.448 L
378.79 351.512 L
384.22 353.129 L
395.08 359.893 L
400.51 343.592 L
411.37 346.777 L
416.8 354.744 L
422.23 356.998 L
433.09 381.893 L
438.52 419.159 L
449.38 393.75 L
454.81 403.476 L
465.67 394.601 L
471.1 399.825 L
476.53 397.22 L
487.39 395.633 L
492.82 397.024 L
503.68 396.61 L
509.11 397.828 L
519.97 397.562 L
525.4 396.972 L
530.83 397.166 L
541.69 397.131 L
547.12 397.735 L
557.98 397.776 L
563.41 397.72 L
574.27 397.783 L
579.7 397.73 L
585.13 397.811 L
595.99 397.841 L
601.42 397.849 L
612.28 397.885 L
617.71 397.887 L
628.57 397.935 L
634 397.944 L
S
GR
GS
[0.6 0 0 0.6 0 0] CT
0.494 0.184 0.557 RC
1 LJ
0.833 LW
N
91 39 M
96.43 103.753 L
107.29 139.965 L
112.72 236.709 L
123.58 292.869 L
129.01 294.462 L
139.87 305.925 L
145.3 327.319 L
150.73 370.779 L
161.59 357.094 L
167.02 361.106 L
177.88 356.296 L
183.31 359.871 L
194.17 356.634 L
199.6 357.512 L
205.03 355.929 L
215.89 357.246 L
221.32 356.547 L
232.18 357.114 L
237.61 356.585 L
248.47 356.868 L
253.9 356.816 L
259.33 357.394 L
270.19 356.983 L
275.62 357.36 L
286.48 357.392 L
291.91 357.38 L
302.77 357.427 L
308.2 357.377 L
313.63 357.395 L
324.49 357.452 L
329.92 357.433 L
340.78 357.464 L
346.21 357.463 L
357.07 357.462 L
362.5 357.474 L
367.93 357.479 L
378.79 357.468 L
384.22 359.032 L
395.08 363.463 L
400.51 347.071 L
411.37 350.212 L
416.8 358.092 L
422.23 360.327 L
433.09 384.521 L
438.52 420.445 L
449.38 395.299 L
454.81 404.914 L
465.67 396.077 L
471.1 401.257 L
476.53 398.652 L
487.39 397.033 L
492.82 398.383 L
503.68 397.98 L
509.11 399.173 L
519.97 398.861 L
525.4 398.276 L
530.83 398.441 L
541.69 398.373 L
547.12 398.947 L
557.98 398.938 L
563.41 398.881 L
574.27 398.914 L
579.7 398.864 L
585.13 398.916 L
595.99 398.939 L
601.42 398.911 L
612.28 398.924 L
617.71 398.918 L
628.57 398.927 L
634 398.926 L
S
GR
GS
[0.6 0 0 0.6 0 0] CT
0.467 0.675 0.188 RC
1 LJ
0.833 LW
N
91 39 M
96.43 103.935 L
107.29 140.263 L
112.72 237.253 L
123.58 292.68 L
129.01 294.257 L
139.87 305.743 L
145.3 327.283 L
150.73 371.16 L
161.59 357.433 L
167.02 361.493 L
177.88 356.691 L
183.31 360.293 L
194.17 357.044 L
199.6 357.948 L
205.03 356.36 L
215.89 357.709 L
221.32 356.995 L
232.18 357.583 L
237.61 357.063 L
248.47 357.365 L
253.9 357.323 L
259.33 357.916 L
270.19 357.508 L
275.62 357.904 L
286.48 357.959 L
291.91 357.939 L
302.77 357.997 L
308.2 357.941 L
313.63 357.962 L
324.49 358.025 L
329.92 358.013 L
340.78 358.06 L
346.21 358.073 L
357.07 358.08 L
362.5 358.098 L
367.93 358.111 L
378.79 358.125 L
384.22 359.709 L
395.08 366.962 L
400.51 350.095 L
411.37 353.246 L
416.8 361.119 L
422.23 363.351 L
433.09 388.295 L
438.52 427.286 L
449.38 401.973 L
454.81 411.584 L
465.67 402.795 L
471.1 407.954 L
476.53 405.367 L
487.39 403.765 L
492.82 405.11 L
503.68 404.714 L
509.11 405.904 L
519.97 405.606 L
525.4 405.017 L
530.83 405.189 L
541.69 405.125 L
547.12 405.7 L
557.98 405.701 L
563.41 405.646 L
574.27 405.677 L
579.7 405.616 L
585.13 405.668 L
595.99 405.693 L
601.42 405.673 L
612.28 405.688 L
617.71 405.687 L
628.57 405.717 L
634 405.717 L
S
GR
GS
[0.6 0 0 0.6 0 0] CT
1 GC
N
621 160 M
621 52 L
486 52 L
486 160 L
cp
f
GR
GS
[0.6 0 0 0.6 326.91541 38.73488] CT
/Helvetica 15 F
GS
[1 0 0 1 0 0] CT
0 6 moveto 
1 -1 scale
(0,00\272) t 
GR
GR
GS
[0.6 0 0 0.6 0 0] CT
0 0.447 0.741 RC
1 LJ
0.833 LW
N
491.009 64.558 M
541.102 64.558 L
S
GR
GS
[0.6 0 0 0.6 326.91541 51.16745] CT
/Helvetica 15 F
GS
[1 0 0 1 0 0] CT
0 6 moveto 
1 -1 scale
(0,25\272 conc) t 
GR
GR
GS
[0.6 0 0 0.6 0 0] CT
0.851 0.325 0.098 RC
1 LJ
0.833 LW
N
491.009 85.279 M
541.102 85.279 L
S
GR
GS
[0.6 0 0 0.6 326.91541 63.6] CT
/Helvetica 15 F
GS
[1 0 0 1 0 0] CT
0 6 moveto 
1 -1 scale
(0,25\272 ecc) t 
GR
GR
GS
[0.6 0 0 0.6 0 0] CT
0.929 0.694 0.125 RC
1 LJ
0.833 LW
N
491.009 106 M
541.102 106 L
S
GR
GS
[0.6 0 0 0.6 326.91541 76.03256] CT
/Helvetica 15 F
GS
[1 0 0 1 0 0] CT
0 6 moveto 
1 -1 scale
(0,50\272 conc) t 
GR
GR
GS
[0.6 0 0 0.6 0 0] CT
0.494 0.184 0.557 RC
1 LJ
0.833 LW
N
491.009 126.721 M
541.102 126.721 L
S
GR
GS
[0.6 0 0 0.6 326.91541 88.46512] CT
/Helvetica 15 F
GS
[1 0 0 1 0 0] CT
0 6 moveto 
1 -1 scale
(0,50\272 ecc) t 
GR
GR
GS
[0.6 0 0 0.6 0 0] CT
0.467 0.675 0.188 RC
1 LJ
0.833 LW
N
491.009 147.442 M
541.102 147.442 L
S
GR
GS
[0.6 0 0 0.6 0 0] CT
0.149 GC
10.0 ML
0.833 LW
N
486 160 M
486 52 L
621 52 L
621 160 L
cp
S
GR
%%Trailer
%%Pages: 1
%%EOF
