%!PS-Adobe-3.0 EPSF-3.0
%%Creator: (MATLAB, The Mathworks, Inc. Version 9.5.0.1067069 \(R2018b\) Update 4. Operating System: Windows 10)
%%Title: ./Toe_Uz_displacements.eps
%%CreationDate: 2019-05-16T09:50:27
%%Pages: (atend)
%%BoundingBox:    12     5   386   305
%%LanguageLevel: 3
%%EndComments
%%BeginProlog
%%BeginResource: procset (Apache XML Graphics Std ProcSet) 1.2 0
%%Version: 1.2 0
%%Copyright: (Copyright 2001-2003,2010 The Apache Software Foundation. License terms: http://www.apache.org/licenses/LICENSE-2.0)
/bd{bind def}bind def
/ld{load def}bd
/GR/grestore ld
/GS/gsave ld
/RM/rmoveto ld
/C/curveto ld
/t/show ld
/L/lineto ld
/ML/setmiterlimit ld
/CT/concat ld
/f/fill ld
/N/newpath ld
/S/stroke ld
/CC/setcmykcolor ld
/A/ashow ld
/cp/closepath ld
/RC/setrgbcolor ld
/LJ/setlinejoin ld
/GC/setgray ld
/LW/setlinewidth ld
/M/moveto ld
/re {4 2 roll M
1 index 0 rlineto
0 exch rlineto
neg 0 rlineto
cp } bd
/_ctm matrix def
/_tm matrix def
/BT { _ctm currentmatrix pop matrix _tm copy pop 0 0 moveto } bd
/ET { _ctm setmatrix } bd
/iTm { _ctm setmatrix _tm concat } bd
/Tm { _tm astore pop iTm 0 0 moveto } bd
/ux 0.0 def
/uy 0.0 def
/F {
  /Tp exch def
  /Tf exch def
  Tf findfont Tp scalefont setfont
  /cf Tf def  /cs Tp def
} bd
/ULS {currentpoint /uy exch def /ux exch def} bd
/ULE {
  /Tcx currentpoint pop def
  gsave
  newpath
  cf findfont cs scalefont dup
  /FontMatrix get 0 get /Ts exch def /FontInfo get dup
  /UnderlinePosition get Ts mul /To exch def
  /UnderlineThickness get Ts mul /Tt exch def
  ux uy To add moveto  Tcx uy To add lineto
  Tt setlinewidth stroke
  grestore
} bd
/OLE {
  /Tcx currentpoint pop def
  gsave
  newpath
  cf findfont cs scalefont dup
  /FontMatrix get 0 get /Ts exch def /FontInfo get dup
  /UnderlinePosition get Ts mul /To exch def
  /UnderlineThickness get Ts mul /Tt exch def
  ux uy To add cs add moveto Tcx uy To add cs add lineto
  Tt setlinewidth stroke
  grestore
} bd
/SOE {
  /Tcx currentpoint pop def
  gsave
  newpath
  cf findfont cs scalefont dup
  /FontMatrix get 0 get /Ts exch def /FontInfo get dup
  /UnderlinePosition get Ts mul /To exch def
  /UnderlineThickness get Ts mul /Tt exch def
  ux uy To add cs 10 mul 26 idiv add moveto Tcx uy To add cs 10 mul 26 idiv add lineto
  Tt setlinewidth stroke
  grestore
} bd
/QT {
/Y22 exch store
/X22 exch store
/Y21 exch store
/X21 exch store
currentpoint
/Y21 load 2 mul add 3 div exch
/X21 load 2 mul add 3 div exch
/X21 load 2 mul /X22 load add 3 div
/Y21 load 2 mul /Y22 load add 3 div
/X22 load /Y22 load curveto
} bd
/SSPD {
dup length /d exch dict def
{
/v exch def
/k exch def
currentpagedevice k known {
/cpdv currentpagedevice k get def
v cpdv ne {
/upd false def
/nullv v type /nulltype eq def
/nullcpdv cpdv type /nulltype eq def
nullv nullcpdv or
{
/upd true def
} {
/sametype v type cpdv type eq def
sametype {
v type /arraytype eq {
/vlen v length def
/cpdvlen cpdv length def
vlen cpdvlen eq {
0 1 vlen 1 sub {
/i exch def
/obj v i get def
/cpdobj cpdv i get def
obj cpdobj ne {
/upd true def
exit
} if
} for
} {
/upd true def
} ifelse
} {
v type /dicttype eq {
v {
/dv exch def
/dk exch def
/cpddv cpdv dk get def
dv cpddv ne {
/upd true def
exit
} if
} forall
} {
/upd true def
} ifelse
} ifelse
} if
} ifelse
upd true eq {
d k v put
} if
} if
} if
} forall
d length 0 gt {
d setpagedevice
} if
} bd
/RE { % /NewFontName [NewEncodingArray] /FontName RE -
  findfont dup length dict begin
  {
    1 index /FID ne
    {def} {pop pop} ifelse
  } forall
  /Encoding exch def
  /FontName 1 index def
  currentdict definefont pop
  end
} bind def
%%EndResource
%%BeginResource: procset (Apache XML Graphics EPS ProcSet) 1.0 0
%%Version: 1.0 0
%%Copyright: (Copyright 2002-2003 The Apache Software Foundation. License terms: http://www.apache.org/licenses/LICENSE-2.0)
/BeginEPSF { %def
/b4_Inc_state save def         % Save state for cleanup
/dict_count countdictstack def % Count objects on dict stack
/op_count count 1 sub def      % Count objects on operand stack
userdict begin                 % Push userdict on dict stack
/showpage { } def              % Redefine showpage, { } = null proc
0 setgray 0 setlinecap         % Prepare graphics state
1 setlinewidth 0 setlinejoin
10 setmiterlimit [ ] 0 setdash newpath
/languagelevel where           % If level not equal to 1 then
{pop languagelevel             % set strokeadjust and
1 ne                           % overprint to their defaults.
{false setstrokeadjust false setoverprint
} if
} if
} bd
/EndEPSF { %def
count op_count sub {pop} repeat            % Clean up stacks
countdictstack dict_count sub {end} repeat
b4_Inc_state restore
} bd
%%EndResource
%FOPBeginFontDict
%%IncludeResource: font Courier-Oblique
%%IncludeResource: font Courier-BoldOblique
%%IncludeResource: font Courier-Bold
%%IncludeResource: font ZapfDingbats
%%IncludeResource: font Symbol
%%IncludeResource: font Helvetica
%%IncludeResource: font Helvetica-Oblique
%%IncludeResource: font Helvetica-Bold
%%IncludeResource: font Helvetica-BoldOblique
%%IncludeResource: font Times-Roman
%%IncludeResource: font Times-Italic
%%IncludeResource: font Times-Bold
%%IncludeResource: font Times-BoldItalic
%%IncludeResource: font Courier
%FOPEndFontDict
%%BeginResource: encoding WinAnsiEncoding
/WinAnsiEncoding [
/.notdef /.notdef /.notdef /.notdef /.notdef
/.notdef /.notdef /.notdef /.notdef /.notdef
/.notdef /.notdef /.notdef /.notdef /.notdef
/.notdef /.notdef /.notdef /.notdef /.notdef
/.notdef /.notdef /.notdef /.notdef /.notdef
/.notdef /.notdef /.notdef /.notdef /.notdef
/.notdef /.notdef /space /exclam /quotedbl
/numbersign /dollar /percent /ampersand /quotesingle
/parenleft /parenright /asterisk /plus /comma
/hyphen /period /slash /zero /one
/two /three /four /five /six
/seven /eight /nine /colon /semicolon
/less /equal /greater /question /at
/A /B /C /D /E
/F /G /H /I /J
/K /L /M /N /O
/P /Q /R /S /T
/U /V /W /X /Y
/Z /bracketleft /backslash /bracketright /asciicircum
/underscore /quoteleft /a /b /c
/d /e /f /g /h
/i /j /k /l /m
/n /o /p /q /r
/s /t /u /v /w
/x /y /z /braceleft /bar
/braceright /asciitilde /bullet /Euro /bullet
/quotesinglbase /florin /quotedblbase /ellipsis /dagger
/daggerdbl /circumflex /perthousand /Scaron /guilsinglleft
/OE /bullet /Zcaron /bullet /bullet
/quoteleft /quoteright /quotedblleft /quotedblright /bullet
/endash /emdash /asciitilde /trademark /scaron
/guilsinglright /oe /bullet /zcaron /Ydieresis
/space /exclamdown /cent /sterling /currency
/yen /brokenbar /section /dieresis /copyright
/ordfeminine /guillemotleft /logicalnot /sfthyphen /registered
/macron /degree /plusminus /twosuperior /threesuperior
/acute /mu /paragraph /middot /cedilla
/onesuperior /ordmasculine /guillemotright /onequarter /onehalf
/threequarters /questiondown /Agrave /Aacute /Acircumflex
/Atilde /Adieresis /Aring /AE /Ccedilla
/Egrave /Eacute /Ecircumflex /Edieresis /Igrave
/Iacute /Icircumflex /Idieresis /Eth /Ntilde
/Ograve /Oacute /Ocircumflex /Otilde /Odieresis
/multiply /Oslash /Ugrave /Uacute /Ucircumflex
/Udieresis /Yacute /Thorn /germandbls /agrave
/aacute /acircumflex /atilde /adieresis /aring
/ae /ccedilla /egrave /eacute /ecircumflex
/edieresis /igrave /iacute /icircumflex /idieresis
/eth /ntilde /ograve /oacute /ocircumflex
/otilde /odieresis /divide /oslash /ugrave
/uacute /ucircumflex /udieresis /yacute /thorn
/ydieresis
] def
%%EndResource
%FOPBeginFontReencode
/Courier-Oblique findfont
dup length dict begin
  {1 index /FID ne {def} {pop pop} ifelse} forall
  /Encoding WinAnsiEncoding def
  currentdict
end
/Courier-Oblique exch definefont pop
/Courier-BoldOblique findfont
dup length dict begin
  {1 index /FID ne {def} {pop pop} ifelse} forall
  /Encoding WinAnsiEncoding def
  currentdict
end
/Courier-BoldOblique exch definefont pop
/Courier-Bold findfont
dup length dict begin
  {1 index /FID ne {def} {pop pop} ifelse} forall
  /Encoding WinAnsiEncoding def
  currentdict
end
/Courier-Bold exch definefont pop
/Helvetica findfont
dup length dict begin
  {1 index /FID ne {def} {pop pop} ifelse} forall
  /Encoding WinAnsiEncoding def
  currentdict
end
/Helvetica exch definefont pop
/Helvetica-Oblique findfont
dup length dict begin
  {1 index /FID ne {def} {pop pop} ifelse} forall
  /Encoding WinAnsiEncoding def
  currentdict
end
/Helvetica-Oblique exch definefont pop
/Helvetica-Bold findfont
dup length dict begin
  {1 index /FID ne {def} {pop pop} ifelse} forall
  /Encoding WinAnsiEncoding def
  currentdict
end
/Helvetica-Bold exch definefont pop
/Helvetica-BoldOblique findfont
dup length dict begin
  {1 index /FID ne {def} {pop pop} ifelse} forall
  /Encoding WinAnsiEncoding def
  currentdict
end
/Helvetica-BoldOblique exch definefont pop
/Times-Roman findfont
dup length dict begin
  {1 index /FID ne {def} {pop pop} ifelse} forall
  /Encoding WinAnsiEncoding def
  currentdict
end
/Times-Roman exch definefont pop
/Times-Italic findfont
dup length dict begin
  {1 index /FID ne {def} {pop pop} ifelse} forall
  /Encoding WinAnsiEncoding def
  currentdict
end
/Times-Italic exch definefont pop
/Times-Bold findfont
dup length dict begin
  {1 index /FID ne {def} {pop pop} ifelse} forall
  /Encoding WinAnsiEncoding def
  currentdict
end
/Times-Bold exch definefont pop
/Times-BoldItalic findfont
dup length dict begin
  {1 index /FID ne {def} {pop pop} ifelse} forall
  /Encoding WinAnsiEncoding def
  currentdict
end
/Times-BoldItalic exch definefont pop
/Courier findfont
dup length dict begin
  {1 index /FID ne {def} {pop pop} ifelse} forall
  /Encoding WinAnsiEncoding def
  currentdict
end
/Courier exch definefont pop
%FOPEndFontReencode
%%EndProlog
%%Page: 1 1
%%PageBoundingBox: 0 0 420 315
%%BeginPageSetup
[1 0 0 -1 0 315] CT
%%EndPageSetup
GS
[0.6 0 0 0.6 0 0] CT
1 GC
N
0 0 700 525 re
f
GR
GS
[0.6 0 0 0.6 0 0] CT
1 GC
N
0 0 700 525 re
f
GR
GS
[0.6 0 0 0.6 0 0] CT
1 GC
N
91 467 M
634 467 L
634 39 L
91 39 L
cp
f
GR
GS
[0.6 0 0 0.6 0 0] CT
0.873 GC
1 LJ
0.833 LW
N
91 467 M
91 39 L
S
GR
GS
[0.6 0 0 0.6 0 0] CT
0.873 GC
1 LJ
0.833 LW
N
181.5 467 M
181.5 39 L
S
GR
GS
[0.6 0 0 0.6 0 0] CT
0.873 GC
1 LJ
0.833 LW
N
272 467 M
272 39 L
S
GR
GS
[0.6 0 0 0.6 0 0] CT
0.873 GC
1 LJ
0.833 LW
N
362.5 467 M
362.5 39 L
S
GR
GS
[0.6 0 0 0.6 0 0] CT
0.873 GC
1 LJ
0.833 LW
N
453 467 M
453 39 L
S
GR
GS
[0.6 0 0 0.6 0 0] CT
0.873 GC
1 LJ
0.833 LW
N
543.5 467 M
543.5 39 L
S
GR
GS
[0.6 0 0 0.6 0 0] CT
0.873 GC
1 LJ
0.833 LW
N
634 467 M
634 39 L
S
GR
GS
[0.6 0 0 0.6 0 0] CT
0.873 GC
1 LJ
0.833 LW
N
634 467 M
91 467 L
S
GR
GS
[0.6 0 0 0.6 0 0] CT
0.873 GC
1 LJ
0.833 LW
N
634 424.2 M
91 424.2 L
S
GR
GS
[0.6 0 0 0.6 0 0] CT
0.873 GC
1 LJ
0.833 LW
N
634 381.4 M
91 381.4 L
S
GR
GS
[0.6 0 0 0.6 0 0] CT
0.873 GC
1 LJ
0.833 LW
N
634 338.6 M
91 338.6 L
S
GR
GS
[0.6 0 0 0.6 0 0] CT
0.873 GC
1 LJ
0.833 LW
N
634 295.8 M
91 295.8 L
S
GR
GS
[0.6 0 0 0.6 0 0] CT
0.873 GC
1 LJ
0.833 LW
N
634 253 M
91 253 L
S
GR
GS
[0.6 0 0 0.6 0 0] CT
0.873 GC
1 LJ
0.833 LW
N
634 210.2 M
91 210.2 L
S
GR
GS
[0.6 0 0 0.6 0 0] CT
0.873 GC
1 LJ
0.833 LW
N
634 167.4 M
91 167.4 L
S
GR
GS
[0.6 0 0 0.6 0 0] CT
0.873 GC
1 LJ
0.833 LW
N
634 124.6 M
91 124.6 L
S
GR
GS
[0.6 0 0 0.6 0 0] CT
0.873 GC
1 LJ
0.833 LW
N
634 81.8 M
91 81.8 L
S
GR
GS
[0.6 0 0 0.6 0 0] CT
0.873 GC
1 LJ
0.833 LW
N
634 39 M
91 39 L
S
GR
GS
[0.6 0 0 0.6 0 0] CT
0.149 GC
2 setlinecap
1 LJ
0.833 LW
N
91 467 M
634 467 L
S
GR
GS
[0.6 0 0 0.6 0 0] CT
0.149 GC
2 setlinecap
1 LJ
0.833 LW
N
91 467 M
91 461.57 L
S
GR
GS
[0.6 0 0 0.6 0 0] CT
0.149 GC
2 setlinecap
1 LJ
0.833 LW
N
181.5 467 M
181.5 461.57 L
S
GR
GS
[0.6 0 0 0.6 0 0] CT
0.149 GC
2 setlinecap
1 LJ
0.833 LW
N
272 467 M
272 461.57 L
S
GR
GS
[0.6 0 0 0.6 0 0] CT
0.149 GC
2 setlinecap
1 LJ
0.833 LW
N
362.5 467 M
362.5 461.57 L
S
GR
GS
[0.6 0 0 0.6 0 0] CT
0.149 GC
2 setlinecap
1 LJ
0.833 LW
N
453 467 M
453 461.57 L
S
GR
GS
[0.6 0 0 0.6 0 0] CT
0.149 GC
2 setlinecap
1 LJ
0.833 LW
N
543.5 467 M
543.5 461.57 L
S
GR
GS
[0.6 0 0 0.6 0 0] CT
0.149 GC
2 setlinecap
1 LJ
0.833 LW
N
634 467 M
634 461.57 L
S
GR
GS
[0.6 0 0 0.6 54.6 284.20001] CT
0.149 GC
/Helvetica 16.667 F
GS
[1 0 0 1 0 0] CT
-5 17 moveto 
1 -1 scale
(0) t 
GR
GR
GS
[0.6 0 0 0.6 108.9 284.20001] CT
0.149 GC
/Helvetica 16.667 F
GS
[1 0 0 1 0 0] CT
-5 17 moveto 
1 -1 scale
(2) t 
GR
GR
GS
[0.6 0 0 0.6 163.2 284.20001] CT
0.149 GC
/Helvetica 16.667 F
GS
[1 0 0 1 0 0] CT
-5 17 moveto 
1 -1 scale
(4) t 
GR
GR
GS
[0.6 0 0 0.6 217.5 284.20001] CT
0.149 GC
/Helvetica 16.667 F
GS
[1 0 0 1 0 0] CT
-5 17 moveto 
1 -1 scale
(6) t 
GR
GR
GS
[0.6 0 0 0.6 271.8 284.20001] CT
0.149 GC
/Helvetica 16.667 F
GS
[1 0 0 1 0 0] CT
-5 17 moveto 
1 -1 scale
(8) t 
GR
GR
GS
[0.6 0 0 0.6 326.1 284.20001] CT
0.149 GC
/Helvetica 16.667 F
GS
[1 0 0 1 0 0] CT
-9.5 17 moveto 
1 -1 scale
(10) t 
GR
GR
GS
[0.6 0 0 0.6 380.4 284.20001] CT
0.149 GC
/Helvetica 16.667 F
GS
[1 0 0 1 0 0] CT
-9.5 17 moveto 
1 -1 scale
(12) t 
GR
GR
GS
[0.6 0 0 0.6 217.50015 297.80001] CT
0.149 GC
N
-71.598 15.4 M
-71.77 15.4 -71.77 15.166 QT
-71.755 15.119 -71.731 15.009 QT
-71.708 14.9 -71.661 14.83 QT
-71.614 14.759 -71.536 14.759 QT
-70.442 14.759 -70.005 14.65 QT
-69.77 14.572 -69.677 14.166 QT
-67.192 4.275 L
-67.161 4.103 -67.161 4.025 QT
-67.161 3.837 -67.38 3.806 QT
-67.723 3.744 -68.677 3.744 QT
-68.848 3.744 -68.848 3.494 QT
-68.848 3.462 -68.817 3.345 QT
-68.786 3.228 -68.739 3.166 QT
-68.692 3.103 -68.63 3.103 QT
-62.161 3.103 L
-60.895 3.103 -59.958 3.712 QT
-59.02 4.322 -58.52 5.353 QT
-58.02 6.384 -58.02 7.634 QT
-58.02 9.025 -58.591 10.4 QT
-59.161 11.775 -60.184 12.916 QT
-61.208 14.056 -62.528 14.728 QT
-63.848 15.4 -65.239 15.4 QT
-71.598 15.4 L
cp
-68.223 14.619 M
-68.223 14.759 -67.614 14.759 QT
-65.52 14.759 L
-64.52 14.759 -63.591 14.353 QT
-62.661 13.947 -61.927 13.212 QT
-61.255 12.541 -60.731 11.447 QT
-60.208 10.353 -59.927 9.158 QT
-59.645 7.962 -59.645 6.947 QT
-59.645 6.228 -59.856 5.634 QT
-60.067 5.041 -60.458 4.619 QT
-60.848 4.197 -61.442 3.97 QT
-62.036 3.744 -62.77 3.744 QT
-64.755 3.744 L
-65.239 3.744 -65.395 3.822 QT
-65.552 3.9 -65.692 4.353 QT
-68.145 14.228 L
-68.223 14.447 -68.223 14.619 QT
cp
f
GR
GS
[0.6 0 0 0.6 217.50015 297.80001] CT
0.149 GC
N
-55.27 17.978 M
-54.895 18.619 -53.958 18.619 QT
-53.098 18.619 -52.473 18.025 QT
-51.848 17.431 -51.465 16.58 QT
-51.083 15.728 -50.88 14.853 QT
-51.676 15.603 -52.614 15.603 QT
-53.317 15.603 -53.817 15.353 QT
-54.317 15.103 -54.598 14.619 QT
-54.88 14.134 -54.88 13.447 QT
-54.88 12.853 -54.723 12.236 QT
-54.567 11.619 -54.278 10.853 QT
-53.989 10.087 -53.786 9.525 QT
-53.536 8.869 -53.536 8.447 QT
-53.536 7.916 -53.942 7.916 QT
-54.645 7.916 -55.106 8.65 QT
-55.567 9.384 -55.786 10.291 QT
-55.833 10.4 -55.942 10.4 QT
-56.145 10.4 L
-56.301 10.4 -56.301 10.228 QT
-56.301 10.181 L
-56.005 9.103 -55.411 8.275 QT
-54.817 7.447 -53.895 7.447 QT
-53.255 7.447 -52.817 7.869 QT
-52.38 8.291 -52.38 8.947 QT
-52.38 9.275 -52.52 9.65 QT
-52.598 9.869 -52.88 10.603 QT
-53.161 11.337 -53.309 11.822 QT
-53.458 12.306 -53.559 12.775 QT
-53.661 13.244 -53.661 13.697 QT
-53.661 14.306 -53.403 14.72 QT
-53.145 15.134 -52.598 15.134 QT
-51.473 15.134 -50.583 13.759 QT
-49.223 8.212 L
-49.161 7.978 -48.942 7.806 QT
-48.723 7.634 -48.473 7.634 QT
-48.255 7.634 -48.09 7.775 QT
-47.926 7.916 -47.926 8.15 QT
-47.926 8.259 -47.942 8.291 QT
-49.723 15.447 L
-49.958 16.369 -50.59 17.212 QT
-51.223 18.056 -52.122 18.572 QT
-53.02 19.087 -53.989 19.087 QT
-54.442 19.087 -54.903 18.908 QT
-55.364 18.728 -55.645 18.369 QT
-55.926 18.009 -55.926 17.525 QT
-55.926 17.041 -55.637 16.681 QT
-55.348 16.322 -54.864 16.322 QT
-54.567 16.322 -54.372 16.501 QT
-54.176 16.681 -54.176 16.962 QT
-54.176 17.384 -54.481 17.689 QT
-54.786 17.994 -55.208 17.994 QT
-55.223 17.978 -55.239 17.978 QT
-55.255 17.978 -55.27 17.978 QT
cp
f
GR
GS
[0.6 0 0 0.6 217.50015 297.80001] CT
0.149 GC
N
-45.749 15.087 M
-45.749 14.994 -45.733 14.931 QT
-44.389 9.556 L
-44.249 9.056 -44.249 8.681 QT
-44.249 7.916 -44.78 7.916 QT
-45.343 7.916 -45.616 8.587 QT
-45.889 9.259 -46.139 10.291 QT
-46.139 10.337 -46.194 10.369 QT
-46.249 10.4 -46.296 10.4 QT
-46.499 10.4 L
-46.561 10.4 -46.608 10.33 QT
-46.655 10.259 -46.655 10.212 QT
-46.468 9.431 -46.288 8.884 QT
-46.108 8.337 -45.725 7.892 QT
-45.343 7.447 -44.764 7.447 QT
-44.093 7.447 -43.569 7.869 QT
-43.046 8.291 -43.046 8.962 QT
-42.514 8.259 -41.796 7.853 QT
-41.077 7.447 -40.264 7.447 QT
-39.624 7.447 -39.155 7.666 QT
-38.686 7.884 -38.429 8.33 QT
-38.171 8.775 -38.171 9.384 QT
-38.171 10.119 -38.499 11.166 QT
-38.827 12.212 -39.327 13.509 QT
-39.577 14.103 -39.577 14.587 QT
-39.577 15.134 -39.171 15.134 QT
-38.468 15.134 -37.999 14.376 QT
-37.53 13.619 -37.327 12.759 QT
-37.296 12.65 -37.186 12.65 QT
-36.968 12.65 L
-36.905 12.65 -36.85 12.697 QT
-36.796 12.744 -36.796 12.806 QT
-36.796 12.822 -36.827 12.853 QT
-37.061 13.884 -37.679 14.744 QT
-38.296 15.603 -39.202 15.603 QT
-39.843 15.603 -40.288 15.166 QT
-40.733 14.728 -40.733 14.103 QT
-40.733 13.775 -40.593 13.4 QT
-40.358 12.822 -40.069 12.001 QT
-39.78 11.181 -39.585 10.431 QT
-39.389 9.681 -39.389 9.119 QT
-39.389 8.619 -39.6 8.267 QT
-39.811 7.916 -40.296 7.916 QT
-40.968 7.916 -41.514 8.205 QT
-42.061 8.494 -42.475 8.97 QT
-42.889 9.447 -43.233 10.103 QT
-44.452 15.009 L
-44.514 15.244 -44.733 15.423 QT
-44.952 15.603 -45.218 15.603 QT
-45.436 15.603 -45.593 15.462 QT
-45.749 15.322 -45.749 15.087 QT
cp
f
GR
GS
[0.6 0 0 0.6 217.50015 297.80001] CT
0.149 GC
N
-33.01 15.603 M
-34.135 15.603 -34.791 14.744 QT
-35.448 13.884 -35.448 12.712 QT
-35.448 11.572 -34.854 10.33 QT
-34.26 9.087 -33.245 8.267 QT
-32.229 7.447 -31.057 7.447 QT
-30.526 7.447 -30.104 7.736 QT
-29.682 8.025 -29.432 8.525 QT
-29.229 7.806 -28.651 7.806 QT
-28.416 7.806 -28.26 7.939 QT
-28.104 8.072 -28.104 8.306 QT
-28.104 8.353 -28.112 8.384 QT
-28.12 8.416 -28.135 8.447 QT
-29.385 13.478 L
-29.51 14.009 -29.51 14.353 QT
-29.51 15.134 -28.995 15.134 QT
-28.432 15.134 -28.135 14.416 QT
-27.838 13.697 -27.635 12.759 QT
-27.604 12.65 -27.495 12.65 QT
-27.276 12.65 L
-27.198 12.65 -27.159 12.712 QT
-27.12 12.775 -27.12 12.822 QT
-27.432 14.087 -27.807 14.845 QT
-28.182 15.603 -29.026 15.603 QT
-29.635 15.603 -30.096 15.244 QT
-30.557 14.884 -30.682 14.306 QT
-31.838 15.603 -33.01 15.603 QT
cp
-32.995 15.134 M
-32.338 15.134 -31.729 14.642 QT
-31.12 14.15 -30.682 13.494 QT
-30.666 13.478 -30.666 13.447 QT
-29.698 9.525 L
-29.682 9.478 L
-29.776 8.837 -30.135 8.376 QT
-30.495 7.916 -31.104 7.916 QT
-31.698 7.916 -32.221 8.408 QT
-32.745 8.9 -33.104 9.587 QT
-33.463 10.306 -33.784 11.564 QT
-34.104 12.822 -34.104 13.509 QT
-34.104 14.134 -33.838 14.634 QT
-33.573 15.134 -32.995 15.134 QT
cp
f
GR
GS
[0.6 0 0 0.6 217.50015 297.80001] CT
0.149 GC
N
-25.054 15.087 M
-25.054 14.994 -25.038 14.931 QT
-23.694 9.556 L
-23.554 9.056 -23.554 8.681 QT
-23.554 7.916 -24.085 7.916 QT
-24.648 7.916 -24.921 8.587 QT
-25.194 9.259 -25.444 10.291 QT
-25.444 10.337 -25.499 10.369 QT
-25.554 10.4 -25.601 10.4 QT
-25.804 10.4 L
-25.866 10.4 -25.913 10.33 QT
-25.96 10.259 -25.96 10.212 QT
-25.773 9.431 -25.593 8.884 QT
-25.413 8.337 -25.03 7.892 QT
-24.648 7.447 -24.069 7.447 QT
-23.398 7.447 -22.874 7.869 QT
-22.351 8.291 -22.351 8.962 QT
-21.819 8.259 -21.101 7.853 QT
-20.382 7.447 -19.569 7.447 QT
-18.726 7.447 -18.101 7.884 QT
-17.476 8.322 -17.476 9.119 QT
-16.929 8.337 -16.187 7.892 QT
-15.444 7.447 -14.554 7.447 QT
-13.632 7.447 -13.062 7.955 QT
-12.491 8.462 -12.491 9.384 QT
-12.491 10.119 -12.819 11.166 QT
-13.148 12.212 -13.648 13.509 QT
-13.898 14.134 -13.898 14.587 QT
-13.898 15.134 -13.476 15.134 QT
-12.773 15.134 -12.312 14.376 QT
-11.851 13.619 -11.648 12.759 QT
-11.601 12.65 -11.507 12.65 QT
-11.288 12.65 L
-11.226 12.65 -11.179 12.697 QT
-11.132 12.744 -11.132 12.806 QT
-11.132 12.822 -11.148 12.853 QT
-11.382 13.884 -11.999 14.744 QT
-12.616 15.603 -13.523 15.603 QT
-14.163 15.603 -14.608 15.166 QT
-15.054 14.728 -15.054 14.103 QT
-15.054 13.791 -14.898 13.4 QT
-14.398 12.056 -14.054 10.994 QT
-13.71 9.931 -13.71 9.119 QT
-13.71 8.619 -13.913 8.267 QT
-14.116 7.916 -14.601 7.916 QT
-15.585 7.916 -16.304 8.517 QT
-17.023 9.119 -17.554 10.103 QT
-17.585 10.291 -17.601 10.384 QT
-18.757 15.009 L
-18.819 15.244 -19.038 15.423 QT
-19.257 15.603 -19.523 15.603 QT
-19.726 15.603 -19.89 15.462 QT
-20.054 15.322 -20.054 15.087 QT
-20.054 14.994 -20.038 14.931 QT
-18.882 10.353 L
-18.694 9.603 -18.694 9.119 QT
-18.694 8.619 -18.905 8.267 QT
-19.116 7.916 -19.601 7.916 QT
-20.273 7.916 -20.819 8.205 QT
-21.366 8.494 -21.78 8.97 QT
-22.194 9.447 -22.538 10.103 QT
-23.757 15.009 L
-23.819 15.244 -24.038 15.423 QT
-24.257 15.603 -24.523 15.603 QT
-24.741 15.603 -24.898 15.462 QT
-25.054 15.322 -25.054 15.087 QT
cp
f
GR
GS
[0.6 0 0 0.6 217.50015 297.80001] CT
0.149 GC
N
-8.941 14.103 M
-8.941 13.775 -8.801 13.4 QT
-7.347 9.525 L
-7.097 8.869 -7.097 8.447 QT
-7.097 7.916 -7.504 7.916 QT
-8.207 7.916 -8.668 8.65 QT
-9.129 9.384 -9.347 10.291 QT
-9.394 10.4 -9.504 10.4 QT
-9.707 10.4 L
-9.863 10.4 -9.863 10.228 QT
-9.863 10.181 L
-9.566 9.103 -8.972 8.275 QT
-8.379 7.447 -7.457 7.447 QT
-6.816 7.447 -6.379 7.869 QT
-5.941 8.291 -5.941 8.947 QT
-5.941 9.275 -6.082 9.65 QT
-7.551 13.509 L
-7.785 14.103 -7.785 14.587 QT
-7.785 15.134 -7.379 15.134 QT
-6.676 15.134 -6.207 14.376 QT
-5.738 13.619 -5.535 12.759 QT
-5.504 12.65 -5.394 12.65 QT
-5.176 12.65 L
-5.113 12.65 -5.066 12.697 QT
-5.019 12.744 -5.019 12.806 QT
-5.019 12.822 -5.035 12.853 QT
-5.285 13.884 -5.894 14.744 QT
-6.504 15.603 -7.41 15.603 QT
-8.051 15.603 -8.496 15.166 QT
-8.941 14.728 -8.941 14.103 QT
cp
-6.91 4.494 M
-6.91 4.119 -6.597 3.806 QT
-6.285 3.494 -5.894 3.494 QT
-5.597 3.494 -5.394 3.689 QT
-5.191 3.884 -5.191 4.166 QT
-5.191 4.572 -5.512 4.876 QT
-5.832 5.181 -6.222 5.181 QT
-6.519 5.181 -6.715 4.978 QT
-6.91 4.775 -6.91 4.494 QT
cp
f
GR
GS
[0.6 0 0 0.6 217.50015 297.80001] CT
0.149 GC
N
-1.922 13.259 M
-1.922 14.041 -1.524 14.587 QT
-1.125 15.134 -0.375 15.134 QT
0.703 15.134 1.687 14.642 QT
2.672 14.15 3.297 13.275 QT
3.359 13.212 3.437 13.212 QT
3.531 13.212 3.625 13.314 QT
3.719 13.416 3.719 13.509 QT
3.719 13.587 3.672 13.619 QT
3.015 14.541 1.898 15.072 QT
0.781 15.603 -0.406 15.603 QT
-1.266 15.603 -1.93 15.197 QT
-2.594 14.791 -2.953 14.103 QT
-3.313 13.416 -3.313 12.556 QT
-3.313 11.337 -2.633 10.142 QT
-1.953 8.947 -0.828 8.197 QT
0.297 7.447 1.531 7.447 QT
2.344 7.447 2.992 7.837 QT
3.64 8.228 3.64 8.994 QT
3.64 9.478 3.351 9.83 QT
3.062 10.181 2.578 10.181 QT
2.281 10.181 2.086 10.001 QT
1.89 9.822 1.89 9.525 QT
1.89 9.103 2.203 8.806 QT
2.515 8.509 2.922 8.509 QT
2.953 8.509 L
2.75 8.197 2.351 8.056 QT
1.953 7.916 1.515 7.916 QT
0.453 7.916 -0.336 8.814 QT
-1.125 9.712 -1.524 10.962 QT
-1.922 12.212 -1.922 13.259 QT
cp
f
GR
GS
[0.6 0 0 0.6 217.50015 297.80001] CT
0.149 GC
N
11.123 13.947 M
11.123 13.681 11.185 13.447 QT
12.482 8.275 L
10.592 8.275 L
10.404 8.275 10.404 8.041 QT
10.482 7.634 10.654 7.634 QT
12.639 7.634 L
13.357 4.697 L
13.435 4.462 13.646 4.298 QT
13.857 4.134 14.123 4.134 QT
14.342 4.134 14.498 4.267 QT
14.654 4.4 14.654 4.634 QT
14.654 4.681 14.646 4.712 QT
14.639 4.744 14.639 4.775 QT
13.92 7.634 L
15.764 7.634 L
15.951 7.634 15.951 7.869 QT
15.951 7.916 15.92 8.025 QT
15.889 8.134 15.85 8.205 QT
15.81 8.275 15.717 8.275 QT
13.764 8.275 L
12.467 13.478 L
12.342 13.978 12.342 14.353 QT
12.342 15.134 12.857 15.134 QT
13.654 15.134 14.264 14.384 QT
14.873 13.634 15.201 12.759 QT
15.264 12.65 15.342 12.65 QT
15.56 12.65 L
15.623 12.65 15.67 12.697 QT
15.717 12.744 15.717 12.806 QT
15.717 12.837 15.701 12.853 QT
15.31 13.947 14.553 14.775 QT
13.795 15.603 12.81 15.603 QT
12.107 15.603 11.615 15.134 QT
11.123 14.666 11.123 13.947 QT
cp
f
GR
GS
[0.6 0 0 0.6 217.50015 297.80001] CT
0.149 GC
N
18.04 14.103 M
18.04 13.775 18.181 13.4 QT
19.634 9.525 L
19.884 8.869 19.884 8.447 QT
19.884 7.916 19.478 7.916 QT
18.775 7.916 18.314 8.65 QT
17.853 9.384 17.634 10.291 QT
17.587 10.4 17.478 10.4 QT
17.275 10.4 L
17.118 10.4 17.118 10.228 QT
17.118 10.181 L
17.415 9.103 18.009 8.275 QT
18.603 7.447 19.525 7.447 QT
20.165 7.447 20.603 7.869 QT
21.04 8.291 21.04 8.947 QT
21.04 9.275 20.9 9.65 QT
19.431 13.509 L
19.196 14.103 19.196 14.587 QT
19.196 15.134 19.603 15.134 QT
20.306 15.134 20.775 14.376 QT
21.243 13.619 21.446 12.759 QT
21.478 12.65 21.587 12.65 QT
21.806 12.65 L
21.868 12.65 21.915 12.697 QT
21.962 12.744 21.962 12.806 QT
21.962 12.822 21.946 12.853 QT
21.696 13.884 21.087 14.744 QT
20.478 15.603 19.571 15.603 QT
18.931 15.603 18.486 15.166 QT
18.04 14.728 18.04 14.103 QT
cp
20.071 4.494 M
20.071 4.119 20.384 3.806 QT
20.696 3.494 21.087 3.494 QT
21.384 3.494 21.587 3.689 QT
21.79 3.884 21.79 4.166 QT
21.79 4.572 21.47 4.876 QT
21.15 5.181 20.759 5.181 QT
20.462 5.181 20.267 4.978 QT
20.071 4.775 20.071 4.494 QT
cp
f
GR
GS
[0.6 0 0 0.6 217.50015 297.80001] CT
0.149 GC
N
24.341 15.087 M
24.341 14.994 24.356 14.931 QT
25.7 9.556 L
25.841 9.056 25.841 8.681 QT
25.841 7.916 25.309 7.916 QT
24.747 7.916 24.473 8.587 QT
24.2 9.259 23.95 10.291 QT
23.95 10.337 23.895 10.369 QT
23.841 10.4 23.794 10.4 QT
23.591 10.4 L
23.528 10.4 23.481 10.33 QT
23.434 10.259 23.434 10.212 QT
23.622 9.431 23.802 8.884 QT
23.981 8.337 24.364 7.892 QT
24.747 7.447 25.325 7.447 QT
25.997 7.447 26.52 7.869 QT
27.044 8.291 27.044 8.962 QT
27.575 8.259 28.294 7.853 QT
29.013 7.447 29.825 7.447 QT
30.669 7.447 31.294 7.884 QT
31.919 8.322 31.919 9.119 QT
32.466 8.337 33.208 7.892 QT
33.95 7.447 34.841 7.447 QT
35.763 7.447 36.333 7.955 QT
36.903 8.462 36.903 9.384 QT
36.903 10.119 36.575 11.166 QT
36.247 12.212 35.747 13.509 QT
35.497 14.134 35.497 14.587 QT
35.497 15.134 35.919 15.134 QT
36.622 15.134 37.083 14.376 QT
37.544 13.619 37.747 12.759 QT
37.794 12.65 37.888 12.65 QT
38.106 12.65 L
38.169 12.65 38.216 12.697 QT
38.263 12.744 38.263 12.806 QT
38.263 12.822 38.247 12.853 QT
38.013 13.884 37.395 14.744 QT
36.778 15.603 35.872 15.603 QT
35.231 15.603 34.786 15.166 QT
34.341 14.728 34.341 14.103 QT
34.341 13.791 34.497 13.4 QT
34.997 12.056 35.341 10.994 QT
35.684 9.931 35.684 9.119 QT
35.684 8.619 35.481 8.267 QT
35.278 7.916 34.794 7.916 QT
33.809 7.916 33.091 8.517 QT
32.372 9.119 31.841 10.103 QT
31.809 10.291 31.794 10.384 QT
30.638 15.009 L
30.575 15.244 30.356 15.423 QT
30.138 15.603 29.872 15.603 QT
29.669 15.603 29.505 15.462 QT
29.341 15.322 29.341 15.087 QT
29.341 14.994 29.356 14.931 QT
30.513 10.353 L
30.7 9.603 30.7 9.119 QT
30.7 8.619 30.489 8.267 QT
30.278 7.916 29.794 7.916 QT
29.122 7.916 28.575 8.205 QT
28.028 8.494 27.614 8.97 QT
27.2 9.447 26.856 10.103 QT
25.638 15.009 L
25.575 15.244 25.356 15.423 QT
25.138 15.603 24.872 15.603 QT
24.653 15.603 24.497 15.462 QT
24.341 15.322 24.341 15.087 QT
cp
f
GR
GS
[0.6 0 0 0.6 217.50015 297.80001] CT
0.149 GC
N
42.672 15.603 M
41.813 15.603 41.164 15.158 QT
40.516 14.712 40.18 13.947 QT
39.844 13.181 39.844 12.337 QT
39.844 11.056 40.484 9.931 QT
41.125 8.806 42.234 8.126 QT
43.344 7.447 44.609 7.447 QT
45.391 7.447 45.961 7.845 QT
46.531 8.244 46.531 8.994 QT
46.531 10.025 45.711 10.533 QT
44.891 11.041 43.852 11.158 QT
42.813 11.275 41.547 11.275 QT
41.5 11.275 L
41.203 12.353 41.203 13.119 QT
41.203 13.916 41.578 14.525 QT
41.953 15.134 42.703 15.134 QT
43.781 15.134 44.766 14.642 QT
45.75 14.15 46.375 13.275 QT
46.438 13.212 46.516 13.212 QT
46.609 13.212 46.703 13.314 QT
46.797 13.416 46.797 13.509 QT
46.797 13.587 46.75 13.619 QT
46.094 14.541 44.977 15.072 QT
43.859 15.603 42.672 15.603 QT
cp
41.609 10.806 M
42.656 10.806 43.539 10.712 QT
44.422 10.619 45.148 10.228 QT
45.875 9.837 45.875 9.009 QT
45.875 8.681 45.688 8.431 QT
45.5 8.181 45.203 8.048 QT
44.906 7.916 44.594 7.916 QT
43.828 7.916 43.219 8.33 QT
42.609 8.744 42.211 9.408 QT
41.813 10.072 41.609 10.806 QT
cp
f
GR
GS
[0.6 0 0 0.6 217.50015 297.80001] CT
0.149 GC
N
55.82 19.9 M
55.82 1.9 L
58.288 1.9 L
58.288 2.619 L
56.538 2.619 L
56.538 19.181 L
58.288 19.181 L
58.288 19.9 L
55.82 19.9 L
cp
f
GR
GS
[0.6 0 0 0.6 217.50015 297.80001] CT
0.149 GC
N
60.35 14.306 M
60.834 15.134 62.287 15.134 QT
62.928 15.134 63.498 14.916 QT
64.068 14.697 64.443 14.267 QT
64.818 13.837 64.818 13.212 QT
64.818 12.759 64.482 12.455 QT
64.146 12.15 63.662 12.056 QT
62.693 11.853 L
62.021 11.697 61.592 11.236 QT
61.162 10.775 61.162 10.119 QT
61.162 9.322 61.6 8.712 QT
62.037 8.103 62.748 7.775 QT
63.459 7.447 64.225 7.447 QT
65.037 7.447 65.686 7.837 QT
66.334 8.228 66.334 8.994 QT
66.334 9.4 66.1 9.72 QT
65.865 10.041 65.443 10.041 QT
65.209 10.041 65.037 9.884 QT
64.865 9.728 64.865 9.494 QT
64.865 9.275 64.982 9.08 QT
65.1 8.884 65.303 8.767 QT
65.506 8.65 65.709 8.65 QT
65.553 8.259 65.115 8.087 QT
64.678 7.916 64.178 7.916 QT
63.725 7.916 63.271 8.095 QT
62.818 8.275 62.537 8.634 QT
62.256 8.994 62.256 9.478 QT
62.256 9.806 62.482 10.048 QT
62.709 10.291 63.053 10.4 QT
64.1 10.603 L
64.6 10.712 65.014 10.978 QT
65.428 11.244 65.67 11.658 QT
65.912 12.072 65.912 12.603 QT
65.912 13.259 65.537 13.916 QT
65.162 14.572 64.631 14.947 QT
63.662 15.603 62.271 15.603 QT
61.318 15.603 60.521 15.166 QT
59.725 14.728 59.725 13.853 QT
59.725 13.353 60.006 12.994 QT
60.287 12.634 60.787 12.634 QT
61.068 12.634 61.271 12.806 QT
61.475 12.978 61.475 13.275 QT
61.475 13.681 61.162 13.994 QT
60.85 14.306 60.443 14.306 QT
60.35 14.306 L
cp
f
GR
GS
[0.6 0 0 0.6 217.50015 297.80001] CT
0.149 GC
N
67.771 19.9 M
67.771 19.181 L
69.521 19.181 L
69.521 2.619 L
67.771 2.619 L
67.771 1.9 L
70.24 1.9 L
70.24 19.9 L
67.771 19.9 L
cp
f
GR
GS
[0.6 0 0 0.6 0 0] CT
0.149 GC
2 setlinecap
1 LJ
0.833 LW
N
91 467 M
91 39 L
S
GR
GS
[0.6 0 0 0.6 0 0] CT
0.149 GC
2 setlinecap
1 LJ
0.833 LW
N
91 467 M
96.43 467 L
S
GR
GS
[0.6 0 0 0.6 0 0] CT
0.149 GC
2 setlinecap
1 LJ
0.833 LW
N
91 424.2 M
96.43 424.2 L
S
GR
GS
[0.6 0 0 0.6 0 0] CT
0.149 GC
2 setlinecap
1 LJ
0.833 LW
N
91 381.4 M
96.43 381.4 L
S
GR
GS
[0.6 0 0 0.6 0 0] CT
0.149 GC
2 setlinecap
1 LJ
0.833 LW
N
91 338.6 M
96.43 338.6 L
S
GR
GS
[0.6 0 0 0.6 0 0] CT
0.149 GC
2 setlinecap
1 LJ
0.833 LW
N
91 295.8 M
96.43 295.8 L
S
GR
GS
[0.6 0 0 0.6 0 0] CT
0.149 GC
2 setlinecap
1 LJ
0.833 LW
N
91 253 M
96.43 253 L
S
GR
GS
[0.6 0 0 0.6 0 0] CT
0.149 GC
2 setlinecap
1 LJ
0.833 LW
N
91 210.2 M
96.43 210.2 L
S
GR
GS
[0.6 0 0 0.6 0 0] CT
0.149 GC
2 setlinecap
1 LJ
0.833 LW
N
91 167.4 M
96.43 167.4 L
S
GR
GS
[0.6 0 0 0.6 0 0] CT
0.149 GC
2 setlinecap
1 LJ
0.833 LW
N
91 124.6 M
96.43 124.6 L
S
GR
GS
[0.6 0 0 0.6 0 0] CT
0.149 GC
2 setlinecap
1 LJ
0.833 LW
N
91 81.8 M
96.43 81.8 L
S
GR
GS
[0.6 0 0 0.6 0 0] CT
0.149 GC
2 setlinecap
1 LJ
0.833 LW
N
91 39 M
96.43 39 L
S
GR
GS
[0.6 0 0 0.6 50.6 280.2] CT
0.149 GC
/Helvetica 16.667 F
GS
[1 0 0 1 0 0] CT
-29 6.5 moveto 
1 -1 scale
(-0.2) t 
GR
GR
GS
[0.6 0 0 0.6 50.6 254.52001] CT
0.149 GC
/Helvetica 16.667 F
GS
[1 0 0 1 0 0] CT
-38 6.5 moveto 
1 -1 scale
(-0.18) t 
GR
GR
GS
[0.6 0 0 0.6 50.6 228.84] CT
0.149 GC
/Helvetica 16.667 F
GS
[1 0 0 1 0 0] CT
-38 6.5 moveto 
1 -1 scale
(-0.16) t 
GR
GR
GS
[0.6 0 0 0.6 50.6 203.16] CT
0.149 GC
/Helvetica 16.667 F
GS
[1 0 0 1 0 0] CT
-38 6.5 moveto 
1 -1 scale
(-0.14) t 
GR
GR
GS
[0.6 0 0 0.6 50.6 177.47999] CT
0.149 GC
/Helvetica 16.667 F
GS
[1 0 0 1 0 0] CT
-38 6.5 moveto 
1 -1 scale
(-0.12) t 
GR
GR
GS
[0.6 0 0 0.6 50.6 151.8] CT
0.149 GC
/Helvetica 16.667 F
GS
[1 0 0 1 0 0] CT
-29 6.5 moveto 
1 -1 scale
(-0.1) t 
GR
GR
GS
[0.6 0 0 0.6 50.6 126.12] CT
0.149 GC
/Helvetica 16.667 F
GS
[1 0 0 1 0 0] CT
-38 6.5 moveto 
1 -1 scale
(-0.08) t 
GR
GR
GS
[0.6 0 0 0.6 50.6 100.44] CT
0.149 GC
/Helvetica 16.667 F
GS
[1 0 0 1 0 0] CT
-38 6.5 moveto 
1 -1 scale
(-0.06) t 
GR
GR
GS
[0.6 0 0 0.6 50.6 74.76] CT
0.149 GC
/Helvetica 16.667 F
GS
[1 0 0 1 0 0] CT
-38 6.5 moveto 
1 -1 scale
(-0.04) t 
GR
GR
GS
[0.6 0 0 0.6 50.6 49.08] CT
0.149 GC
/Helvetica 16.667 F
GS
[1 0 0 1 0 0] CT
-38 6.5 moveto 
1 -1 scale
(-0.02) t 
GR
GR
GS
[0.6 0 0 0.6 50.6 23.4] CT
0.149 GC
/Helvetica 16.667 F
GS
[1 0 0 1 0 0] CT
-10 6.5 moveto 
1 -1 scale
(0) t 
GR
GR
GS
[0 -0.6 0.6 0 24.8 151.79988] CT
0.149 GC
N
-23.263 -8.553 M
-23.263 -9.147 -23.106 -9.764 QT
-22.95 -10.381 -22.661 -11.147 QT
-22.372 -11.913 -22.169 -12.475 QT
-21.919 -13.131 -21.919 -13.553 QT
-21.919 -14.084 -22.325 -14.084 QT
-23.028 -14.084 -23.489 -13.35 QT
-23.95 -12.616 -24.169 -11.709 QT
-24.216 -11.6 -24.325 -11.6 QT
-24.528 -11.6 L
-24.684 -11.6 -24.684 -11.772 QT
-24.684 -11.819 L
-24.388 -12.897 -23.794 -13.725 QT
-23.2 -14.553 -22.278 -14.553 QT
-21.638 -14.553 -21.2 -14.131 QT
-20.763 -13.709 -20.763 -13.053 QT
-20.763 -12.725 -20.903 -12.35 QT
-20.981 -12.131 -21.263 -11.397 QT
-21.544 -10.663 -21.692 -10.178 QT
-21.841 -9.694 -21.942 -9.225 QT
-22.044 -8.756 -22.044 -8.303 QT
-22.044 -7.694 -21.786 -7.28 QT
-21.528 -6.866 -20.966 -6.866 QT
-19.809 -6.866 -18.934 -8.303 QT
-18.919 -8.366 -18.903 -8.436 QT
-18.888 -8.506 -18.888 -8.553 QT
-17.591 -13.788 L
-17.528 -14.022 -17.309 -14.194 QT
-17.091 -14.366 -16.841 -14.366 QT
-16.622 -14.366 -16.458 -14.225 QT
-16.294 -14.084 -16.294 -13.85 QT
-16.294 -13.741 -16.309 -13.709 QT
-17.606 -8.522 L
-17.731 -7.991 -17.731 -7.647 QT
-17.731 -6.866 -17.216 -6.866 QT
-16.638 -6.866 -16.348 -7.584 QT
-16.059 -8.303 -15.856 -9.241 QT
-15.825 -9.35 -15.716 -9.35 QT
-15.497 -9.35 L
-15.434 -9.35 -15.388 -9.288 QT
-15.341 -9.225 -15.341 -9.178 QT
-15.528 -8.397 -15.716 -7.842 QT
-15.903 -7.288 -16.286 -6.842 QT
-16.669 -6.397 -17.247 -6.397 QT
-17.825 -6.397 -18.278 -6.709 QT
-18.731 -7.022 -18.888 -7.553 QT
-19.294 -7.038 -19.841 -6.717 QT
-20.388 -6.397 -20.997 -6.397 QT
-22.028 -6.397 -22.645 -6.967 QT
-23.263 -7.538 -23.263 -8.553 QT
cp
f
GR
GS
[0 -0.6 0.6 0 24.8 151.79988] CT
0.149 GC
N
-14.033 -3.709 M
-14.142 -3.709 -14.142 -3.819 QT
-14.142 -3.881 -14.111 -3.913 QT
-13.767 -4.522 -13.275 -5.069 QT
-12.783 -5.616 -12.158 -6.178 QT
-11.533 -6.741 -10.9 -7.303 QT
-10.267 -7.866 -9.877 -8.303 QT
-9.924 -8.303 L
-10.205 -8.303 -10.76 -8.491 QT
-11.314 -8.678 -11.627 -8.678 QT
-11.971 -8.678 -12.299 -8.53 QT
-12.627 -8.381 -12.705 -8.069 QT
-12.736 -7.975 -12.814 -7.975 QT
-12.971 -7.975 L
-13.08 -7.975 -13.08 -8.1 QT
-13.08 -8.147 L
-12.971 -8.522 -12.736 -8.85 QT
-12.502 -9.178 -12.166 -9.389 QT
-11.83 -9.6 -11.455 -9.6 QT
-11.205 -9.6 -11.033 -9.483 QT
-10.861 -9.366 -10.635 -9.116 QT
-10.408 -8.866 -10.26 -8.756 QT
-10.111 -8.647 -9.892 -8.647 QT
-9.611 -8.647 -9.385 -8.905 QT
-9.158 -9.163 -8.939 -9.553 QT
-8.908 -9.6 -8.846 -9.6 QT
-8.689 -9.6 L
-8.642 -9.6 -8.619 -9.569 QT
-8.596 -9.538 -8.596 -9.475 QT
-8.596 -9.444 -8.611 -9.397 QT
-8.971 -8.788 -9.432 -8.264 QT
-9.892 -7.741 -10.65 -7.069 QT
-11.408 -6.397 -11.924 -5.928 QT
-12.439 -5.459 -12.892 -4.975 QT
-12.783 -4.991 -12.611 -4.991 QT
-12.299 -4.991 -11.752 -4.811 QT
-11.205 -4.631 -10.908 -4.631 QT
-10.58 -4.631 -10.252 -4.772 QT
-9.924 -4.913 -9.682 -5.163 QT
-9.439 -5.413 -9.361 -5.741 QT
-9.33 -5.834 -9.252 -5.834 QT
-9.096 -5.834 L
-9.049 -5.834 -9.017 -5.795 QT
-8.986 -5.756 -8.986 -5.709 QT
-8.986 -5.694 -8.986 -5.678 QT
-9.111 -5.178 -9.408 -4.733 QT
-9.705 -4.288 -10.142 -3.999 QT
-10.58 -3.709 -11.08 -3.709 QT
-11.314 -3.709 -11.486 -3.819 QT
-11.658 -3.928 -11.892 -4.178 QT
-12.127 -4.428 -12.275 -4.545 QT
-12.424 -4.663 -12.627 -4.663 QT
-13.283 -4.663 -13.799 -3.741 QT
-13.83 -3.709 -13.877 -3.709 QT
-14.033 -3.709 L
cp
f
GR
GS
[0 -0.6 0.6 0 24.8 151.79988] CT
0.149 GC
N
1.012 -2.1 M
1.012 -20.1 L
3.48 -20.1 L
3.48 -19.381 L
1.73 -19.381 L
1.73 -2.819 L
3.48 -2.819 L
3.48 -2.1 L
1.012 -2.1 L
cp
f
GR
GS
[0 -0.6 0.6 0 24.8 151.79988] CT
0.149 GC
N
5.37 -6.913 M
5.37 -7.006 5.385 -7.069 QT
6.729 -12.444 L
6.87 -12.944 6.87 -13.319 QT
6.87 -14.084 6.339 -14.084 QT
5.776 -14.084 5.503 -13.413 QT
5.229 -12.741 4.979 -11.709 QT
4.979 -11.663 4.925 -11.631 QT
4.87 -11.6 4.823 -11.6 QT
4.62 -11.6 L
4.557 -11.6 4.51 -11.67 QT
4.464 -11.741 4.464 -11.788 QT
4.651 -12.569 4.831 -13.116 QT
5.01 -13.663 5.393 -14.108 QT
5.776 -14.553 6.354 -14.553 QT
7.026 -14.553 7.55 -14.131 QT
8.073 -13.709 8.073 -13.038 QT
8.604 -13.741 9.323 -14.147 QT
10.042 -14.553 10.854 -14.553 QT
11.698 -14.553 12.323 -14.116 QT
12.948 -13.678 12.948 -12.881 QT
13.495 -13.663 14.237 -14.108 QT
14.979 -14.553 15.87 -14.553 QT
16.792 -14.553 17.362 -14.045 QT
17.932 -13.538 17.932 -12.616 QT
17.932 -11.881 17.604 -10.834 QT
17.276 -9.788 16.776 -8.491 QT
16.526 -7.866 16.526 -7.413 QT
16.526 -6.866 16.948 -6.866 QT
17.651 -6.866 18.112 -7.624 QT
18.573 -8.381 18.776 -9.241 QT
18.823 -9.35 18.917 -9.35 QT
19.135 -9.35 L
19.198 -9.35 19.245 -9.303 QT
19.292 -9.256 19.292 -9.194 QT
19.292 -9.178 19.276 -9.147 QT
19.042 -8.116 18.425 -7.256 QT
17.807 -6.397 16.901 -6.397 QT
16.26 -6.397 15.815 -6.834 QT
15.37 -7.272 15.37 -7.897 QT
15.37 -8.209 15.526 -8.6 QT
16.026 -9.944 16.37 -11.006 QT
16.714 -12.069 16.714 -12.881 QT
16.714 -13.381 16.51 -13.733 QT
16.307 -14.084 15.823 -14.084 QT
14.839 -14.084 14.12 -13.483 QT
13.401 -12.881 12.87 -11.897 QT
12.839 -11.709 12.823 -11.616 QT
11.667 -6.991 L
11.604 -6.756 11.385 -6.577 QT
11.167 -6.397 10.901 -6.397 QT
10.698 -6.397 10.534 -6.538 QT
10.37 -6.678 10.37 -6.913 QT
10.37 -7.006 10.385 -7.069 QT
11.542 -11.647 L
11.729 -12.397 11.729 -12.881 QT
11.729 -13.381 11.518 -13.733 QT
11.307 -14.084 10.823 -14.084 QT
10.151 -14.084 9.604 -13.795 QT
9.057 -13.506 8.643 -13.03 QT
8.229 -12.553 7.885 -11.897 QT
6.667 -6.991 L
6.604 -6.756 6.385 -6.577 QT
6.167 -6.397 5.901 -6.397 QT
5.682 -6.397 5.526 -6.538 QT
5.37 -6.678 5.37 -6.913 QT
cp
f
GR
GS
[0 -0.6 0.6 0 24.8 151.79988] CT
0.149 GC
N
20.467 -2.1 M
20.467 -2.819 L
22.217 -2.819 L
22.217 -19.381 L
20.467 -19.381 L
20.467 -20.1 L
22.936 -20.1 L
22.936 -2.1 L
20.467 -2.1 L
cp
f
GR
GS
[0.6 0 0 0.6 217.5002 21.75] CT
N
-122.891 -8.553 M
-122.891 -9.147 -122.735 -9.764 QT
-122.579 -10.381 -122.289 -11.147 QT
-122 -11.913 -121.797 -12.475 QT
-121.547 -13.131 -121.547 -13.553 QT
-121.547 -14.084 -121.954 -14.084 QT
-122.657 -14.084 -123.118 -13.35 QT
-123.579 -12.616 -123.797 -11.709 QT
-123.844 -11.6 -123.954 -11.6 QT
-124.157 -11.6 L
-124.313 -11.6 -124.313 -11.772 QT
-124.313 -11.819 L
-124.016 -12.897 -123.422 -13.725 QT
-122.829 -14.553 -121.907 -14.553 QT
-121.266 -14.553 -120.829 -14.131 QT
-120.391 -13.709 -120.391 -13.053 QT
-120.391 -12.725 -120.532 -12.35 QT
-120.61 -12.131 -120.891 -11.397 QT
-121.172 -10.663 -121.321 -10.178 QT
-121.469 -9.694 -121.571 -9.225 QT
-121.672 -8.756 -121.672 -8.303 QT
-121.672 -7.694 -121.414 -7.28 QT
-121.157 -6.866 -120.594 -6.866 QT
-119.438 -6.866 -118.563 -8.303 QT
-118.547 -8.366 -118.532 -8.436 QT
-118.516 -8.506 -118.516 -8.553 QT
-117.219 -13.788 L
-117.157 -14.022 -116.938 -14.194 QT
-116.719 -14.366 -116.469 -14.366 QT
-116.25 -14.366 -116.086 -14.225 QT
-115.922 -14.084 -115.922 -13.85 QT
-115.922 -13.741 -115.938 -13.709 QT
-117.235 -8.522 L
-117.36 -7.991 -117.36 -7.647 QT
-117.36 -6.866 -116.844 -6.866 QT
-116.266 -6.866 -115.977 -7.584 QT
-115.688 -8.303 -115.485 -9.241 QT
-115.454 -9.35 -115.344 -9.35 QT
-115.125 -9.35 L
-115.063 -9.35 -115.016 -9.288 QT
-114.969 -9.225 -114.969 -9.178 QT
-115.157 -8.397 -115.344 -7.842 QT
-115.532 -7.288 -115.914 -6.842 QT
-116.297 -6.397 -116.875 -6.397 QT
-117.454 -6.397 -117.907 -6.709 QT
-118.36 -7.022 -118.516 -7.553 QT
-118.922 -7.038 -119.469 -6.717 QT
-120.016 -6.397 -120.625 -6.397 QT
-121.657 -6.397 -122.274 -6.967 QT
-122.891 -7.538 -122.891 -8.553 QT
cp
f
GR
GS
[0.6 0 0 0.6 217.5002 21.75] CT
N
-113.662 -3.709 M
-113.771 -3.709 -113.771 -3.819 QT
-113.771 -3.881 -113.74 -3.913 QT
-113.396 -4.522 -112.904 -5.069 QT
-112.412 -5.616 -111.787 -6.178 QT
-111.162 -6.741 -110.529 -7.303 QT
-109.896 -7.866 -109.505 -8.303 QT
-109.552 -8.303 L
-109.833 -8.303 -110.388 -8.491 QT
-110.943 -8.678 -111.255 -8.678 QT
-111.599 -8.678 -111.927 -8.53 QT
-112.255 -8.381 -112.333 -8.069 QT
-112.365 -7.975 -112.443 -7.975 QT
-112.599 -7.975 L
-112.708 -7.975 -112.708 -8.1 QT
-112.708 -8.147 L
-112.599 -8.522 -112.365 -8.85 QT
-112.13 -9.178 -111.794 -9.389 QT
-111.458 -9.6 -111.083 -9.6 QT
-110.833 -9.6 -110.662 -9.483 QT
-110.49 -9.366 -110.263 -9.116 QT
-110.037 -8.866 -109.888 -8.756 QT
-109.74 -8.647 -109.521 -8.647 QT
-109.24 -8.647 -109.013 -8.905 QT
-108.787 -9.163 -108.568 -9.553 QT
-108.537 -9.6 -108.474 -9.6 QT
-108.318 -9.6 L
-108.271 -9.6 -108.248 -9.569 QT
-108.224 -9.538 -108.224 -9.475 QT
-108.224 -9.444 -108.24 -9.397 QT
-108.599 -8.788 -109.06 -8.264 QT
-109.521 -7.741 -110.279 -7.069 QT
-111.037 -6.397 -111.552 -5.928 QT
-112.068 -5.459 -112.521 -4.975 QT
-112.412 -4.991 -112.24 -4.991 QT
-111.927 -4.991 -111.38 -4.811 QT
-110.833 -4.631 -110.537 -4.631 QT
-110.208 -4.631 -109.88 -4.772 QT
-109.552 -4.913 -109.31 -5.163 QT
-109.068 -5.413 -108.99 -5.741 QT
-108.958 -5.834 -108.88 -5.834 QT
-108.724 -5.834 L
-108.677 -5.834 -108.646 -5.795 QT
-108.615 -5.756 -108.615 -5.709 QT
-108.615 -5.694 -108.615 -5.678 QT
-108.74 -5.178 -109.037 -4.733 QT
-109.333 -4.288 -109.771 -3.999 QT
-110.208 -3.709 -110.708 -3.709 QT
-110.943 -3.709 -111.115 -3.819 QT
-111.287 -3.928 -111.521 -4.178 QT
-111.755 -4.428 -111.904 -4.545 QT
-112.052 -4.663 -112.255 -4.663 QT
-112.912 -4.663 -113.427 -3.741 QT
-113.458 -3.709 -113.505 -3.709 QT
-113.662 -3.709 L
cp
f
GR
GS
[0.6 0 0 0.6 217.5002 21.75] CT
N
-101.195 -3.116 M
-101.351 -3.116 -101.351 -3.334 QT
-101.289 -3.741 -101.117 -3.741 QT
-100.554 -3.741 -100.328 -3.842 QT
-100.101 -3.944 -99.992 -4.35 QT
-97.961 -12.459 L
-97.82 -12.788 -97.82 -13.319 QT
-97.82 -14.084 -98.351 -14.084 QT
-98.914 -14.084 -99.187 -13.413 QT
-99.461 -12.741 -99.711 -11.709 QT
-99.711 -11.6 -99.867 -11.6 QT
-100.07 -11.6 L
-100.117 -11.6 -100.172 -11.67 QT
-100.226 -11.741 -100.226 -11.788 QT
-100.023 -12.569 -99.843 -13.116 QT
-99.664 -13.663 -99.281 -14.108 QT
-98.898 -14.553 -98.336 -14.553 QT
-97.711 -14.553 -97.25 -14.209 QT
-96.789 -13.866 -96.648 -13.256 QT
-96.164 -13.834 -95.562 -14.194 QT
-94.961 -14.553 -94.336 -14.553 QT
-93.586 -14.553 -93.023 -14.147 QT
-92.461 -13.741 -92.179 -13.092 QT
-91.898 -12.444 -91.898 -11.678 QT
-91.898 -10.522 -92.492 -9.28 QT
-93.086 -8.038 -94.101 -7.217 QT
-95.117 -6.397 -96.273 -6.397 QT
-96.804 -6.397 -97.234 -6.694 QT
-97.664 -6.991 -97.898 -7.475 QT
-98.711 -4.272 L
-98.758 -4.022 -98.758 -3.975 QT
-98.758 -3.741 -97.57 -3.741 QT
-97.398 -3.741 -97.398 -3.506 QT
-97.461 -3.272 -97.5 -3.194 QT
-97.539 -3.116 -97.695 -3.116 QT
-101.195 -3.116 L
cp
-96.258 -6.866 M
-95.633 -6.866 -95.101 -7.381 QT
-94.57 -7.897 -94.226 -8.538 QT
-93.976 -9.022 -93.765 -9.725 QT
-93.554 -10.428 -93.398 -11.217 QT
-93.242 -12.006 -93.242 -12.475 QT
-93.242 -12.881 -93.351 -13.241 QT
-93.461 -13.6 -93.711 -13.842 QT
-93.961 -14.084 -94.367 -14.084 QT
-95.023 -14.084 -95.609 -13.616 QT
-96.195 -13.147 -96.679 -12.459 QT
-96.679 -12.397 L
-97.664 -8.413 L
-97.539 -7.772 -97.187 -7.319 QT
-96.836 -6.866 -96.258 -6.866 QT
cp
f
GR
GS
[0.6 0 0 0.6 217.5002 21.75] CT
N
-90.112 -7.897 M
-90.112 -8.225 -89.971 -8.6 QT
-88.518 -12.475 L
-88.268 -13.131 -88.268 -13.553 QT
-88.268 -14.084 -88.674 -14.084 QT
-89.377 -14.084 -89.838 -13.35 QT
-90.299 -12.616 -90.518 -11.709 QT
-90.565 -11.6 -90.674 -11.6 QT
-90.877 -11.6 L
-91.034 -11.6 -91.034 -11.772 QT
-91.034 -11.819 L
-90.737 -12.897 -90.143 -13.725 QT
-89.549 -14.553 -88.627 -14.553 QT
-87.987 -14.553 -87.549 -14.131 QT
-87.112 -13.709 -87.112 -13.053 QT
-87.112 -12.725 -87.252 -12.35 QT
-88.721 -8.491 L
-88.955 -7.897 -88.955 -7.413 QT
-88.955 -6.866 -88.549 -6.866 QT
-87.846 -6.866 -87.377 -7.624 QT
-86.909 -8.381 -86.705 -9.241 QT
-86.674 -9.35 -86.565 -9.35 QT
-86.346 -9.35 L
-86.284 -9.35 -86.237 -9.303 QT
-86.19 -9.256 -86.19 -9.194 QT
-86.19 -9.178 -86.205 -9.147 QT
-86.455 -8.116 -87.065 -7.256 QT
-87.674 -6.397 -88.58 -6.397 QT
-89.221 -6.397 -89.666 -6.834 QT
-90.112 -7.272 -90.112 -7.897 QT
cp
-88.08 -17.506 M
-88.08 -17.881 -87.768 -18.194 QT
-87.455 -18.506 -87.065 -18.506 QT
-86.768 -18.506 -86.565 -18.311 QT
-86.362 -18.116 -86.362 -17.834 QT
-86.362 -17.428 -86.682 -17.124 QT
-87.002 -16.819 -87.393 -16.819 QT
-87.69 -16.819 -87.885 -17.022 QT
-88.08 -17.225 -88.08 -17.506 QT
cp
f
GR
GS
[0.6 0 0 0.6 217.5002 21.75] CT
N
-84.405 -8.053 M
-84.405 -8.116 -84.397 -8.217 QT
-84.389 -8.319 -84.374 -8.42 QT
-84.358 -8.522 -84.358 -8.584 QT
-82.124 -17.491 L
-82.061 -17.803 -82.03 -17.975 QT
-82.03 -18.256 -83.202 -18.256 QT
-83.389 -18.256 -83.389 -18.506 QT
-83.374 -18.538 -83.342 -18.655 QT
-83.311 -18.772 -83.264 -18.834 QT
-83.217 -18.897 -83.124 -18.897 QT
-80.702 -19.084 L
-80.483 -19.084 -80.483 -18.866 QT
-83.077 -8.506 L
-83.202 -8.225 -83.202 -7.647 QT
-83.202 -6.866 -82.686 -6.866 QT
-82.124 -6.866 -81.85 -7.561 QT
-81.577 -8.256 -81.358 -9.241 QT
-81.311 -9.35 -81.202 -9.35 QT
-80.999 -9.35 L
-80.921 -9.35 -80.874 -9.295 QT
-80.827 -9.241 -80.827 -9.178 QT
-81.03 -8.303 -81.202 -7.795 QT
-81.374 -7.288 -81.757 -6.842 QT
-82.139 -6.397 -82.717 -6.397 QT
-83.436 -6.397 -83.921 -6.866 QT
-84.405 -7.334 -84.405 -8.053 QT
cp
f
GR
GS
[0.6 0 0 0.6 217.5002 21.75] CT
N
-75.746 -6.397 M
-76.605 -6.397 -77.254 -6.842 QT
-77.902 -7.288 -78.238 -8.053 QT
-78.574 -8.819 -78.574 -9.663 QT
-78.574 -10.944 -77.933 -12.069 QT
-77.293 -13.194 -76.183 -13.874 QT
-75.074 -14.553 -73.808 -14.553 QT
-73.027 -14.553 -72.457 -14.155 QT
-71.886 -13.756 -71.886 -13.006 QT
-71.886 -11.975 -72.707 -11.467 QT
-73.527 -10.959 -74.566 -10.842 QT
-75.605 -10.725 -76.871 -10.725 QT
-76.918 -10.725 L
-77.215 -9.647 -77.215 -8.881 QT
-77.215 -8.084 -76.84 -7.475 QT
-76.465 -6.866 -75.715 -6.866 QT
-74.636 -6.866 -73.652 -7.358 QT
-72.668 -7.85 -72.043 -8.725 QT
-71.98 -8.788 -71.902 -8.788 QT
-71.808 -8.788 -71.715 -8.686 QT
-71.621 -8.584 -71.621 -8.491 QT
-71.621 -8.413 -71.668 -8.381 QT
-72.324 -7.459 -73.441 -6.928 QT
-74.558 -6.397 -75.746 -6.397 QT
cp
-76.808 -11.194 M
-75.761 -11.194 -74.879 -11.288 QT
-73.996 -11.381 -73.269 -11.772 QT
-72.543 -12.163 -72.543 -12.991 QT
-72.543 -13.319 -72.73 -13.569 QT
-72.918 -13.819 -73.215 -13.952 QT
-73.511 -14.084 -73.824 -14.084 QT
-74.59 -14.084 -75.199 -13.67 QT
-75.808 -13.256 -76.207 -12.592 QT
-76.605 -11.928 -76.808 -11.194 QT
cp
f
GR
GS
[0.6 0 0 0.6 217.5002 21.75] CT
N
-63.614 -8.053 M
-63.614 -8.319 -63.551 -8.553 QT
-62.254 -13.725 L
-64.145 -13.725 L
-64.333 -13.725 -64.333 -13.959 QT
-64.254 -14.366 -64.083 -14.366 QT
-62.098 -14.366 L
-61.379 -17.303 L
-61.301 -17.538 -61.09 -17.702 QT
-60.879 -17.866 -60.614 -17.866 QT
-60.395 -17.866 -60.239 -17.733 QT
-60.083 -17.6 -60.083 -17.366 QT
-60.083 -17.319 -60.09 -17.288 QT
-60.098 -17.256 -60.098 -17.225 QT
-60.817 -14.366 L
-58.973 -14.366 L
-58.786 -14.366 -58.786 -14.131 QT
-58.786 -14.084 -58.817 -13.975 QT
-58.848 -13.866 -58.887 -13.795 QT
-58.926 -13.725 -59.02 -13.725 QT
-60.973 -13.725 L
-62.27 -8.522 L
-62.395 -8.022 -62.395 -7.647 QT
-62.395 -6.866 -61.879 -6.866 QT
-61.083 -6.866 -60.473 -7.616 QT
-59.864 -8.366 -59.536 -9.241 QT
-59.473 -9.35 -59.395 -9.35 QT
-59.176 -9.35 L
-59.114 -9.35 -59.067 -9.303 QT
-59.02 -9.256 -59.02 -9.194 QT
-59.02 -9.163 -59.036 -9.147 QT
-59.426 -8.053 -60.184 -7.225 QT
-60.942 -6.397 -61.926 -6.397 QT
-62.629 -6.397 -63.122 -6.866 QT
-63.614 -7.334 -63.614 -8.053 QT
cp
f
GR
GS
[0.6 0 0 0.6 217.5002 21.75] CT
N
-54.478 -6.397 M
-55.337 -6.397 -56.001 -6.803 QT
-56.665 -7.209 -57.025 -7.897 QT
-57.384 -8.584 -57.384 -9.444 QT
-57.384 -10.663 -56.704 -11.858 QT
-56.025 -13.053 -54.892 -13.803 QT
-53.759 -14.553 -52.525 -14.553 QT
-51.853 -14.553 -51.329 -14.327 QT
-50.806 -14.1 -50.423 -13.686 QT
-50.04 -13.272 -49.829 -12.717 QT
-49.618 -12.163 -49.618 -11.506 QT
-49.618 -10.569 -50.017 -9.663 QT
-50.415 -8.756 -51.103 -8.014 QT
-51.79 -7.272 -52.681 -6.834 QT
-53.572 -6.397 -54.478 -6.397 QT
cp
-54.447 -6.866 M
-53.65 -6.866 -52.986 -7.413 QT
-52.322 -7.959 -51.892 -8.795 QT
-51.462 -9.631 -51.236 -10.553 QT
-51.009 -11.475 -51.009 -12.209 QT
-51.009 -13.006 -51.4 -13.545 QT
-51.79 -14.084 -52.556 -14.084 QT
-53.618 -14.084 -54.408 -13.186 QT
-55.197 -12.288 -55.595 -11.038 QT
-55.993 -9.788 -55.993 -8.741 QT
-55.993 -7.959 -55.595 -7.413 QT
-55.197 -6.866 -54.447 -6.866 QT
cp
f
GR
GS
[0.6 0 0 0.6 217.5002 21.75] CT
N
-45.591 -6.397 M
-46.451 -6.397 -47.099 -6.842 QT
-47.748 -7.288 -48.083 -8.053 QT
-48.419 -8.819 -48.419 -9.663 QT
-48.419 -10.944 -47.779 -12.069 QT
-47.138 -13.194 -46.029 -13.874 QT
-44.919 -14.553 -43.654 -14.553 QT
-42.873 -14.553 -42.302 -14.155 QT
-41.732 -13.756 -41.732 -13.006 QT
-41.732 -11.975 -42.552 -11.467 QT
-43.373 -10.959 -44.412 -10.842 QT
-45.451 -10.725 -46.716 -10.725 QT
-46.763 -10.725 L
-47.06 -9.647 -47.06 -8.881 QT
-47.06 -8.084 -46.685 -7.475 QT
-46.31 -6.866 -45.56 -6.866 QT
-44.482 -6.866 -43.498 -7.358 QT
-42.513 -7.85 -41.888 -8.725 QT
-41.826 -8.788 -41.748 -8.788 QT
-41.654 -8.788 -41.56 -8.686 QT
-41.466 -8.584 -41.466 -8.491 QT
-41.466 -8.413 -41.513 -8.381 QT
-42.169 -7.459 -43.287 -6.928 QT
-44.404 -6.397 -45.591 -6.397 QT
cp
-46.654 -11.194 M
-45.607 -11.194 -44.724 -11.288 QT
-43.841 -11.381 -43.115 -11.772 QT
-42.388 -12.163 -42.388 -12.991 QT
-42.388 -13.319 -42.576 -13.569 QT
-42.763 -13.819 -43.06 -13.952 QT
-43.357 -14.084 -43.669 -14.084 QT
-44.435 -14.084 -45.044 -13.67 QT
-45.654 -13.256 -46.052 -12.592 QT
-46.451 -11.928 -46.654 -11.194 QT
cp
f
GR
GS
[0.6 0 0 0.6 217.5002 21.75] CT
N
-33.178 -6.913 M
-33.178 -7.006 -33.162 -7.069 QT
-31.819 -12.444 L
-31.678 -12.944 -31.678 -13.319 QT
-31.678 -14.084 -32.209 -14.084 QT
-32.772 -14.084 -33.045 -13.413 QT
-33.319 -12.741 -33.569 -11.709 QT
-33.569 -11.663 -33.623 -11.631 QT
-33.678 -11.6 -33.725 -11.6 QT
-33.928 -11.6 L
-33.991 -11.6 -34.037 -11.67 QT
-34.084 -11.741 -34.084 -11.788 QT
-33.897 -12.569 -33.717 -13.116 QT
-33.537 -13.663 -33.155 -14.108 QT
-32.772 -14.553 -32.194 -14.553 QT
-31.522 -14.553 -30.998 -14.131 QT
-30.475 -13.709 -30.475 -13.038 QT
-29.944 -13.741 -29.225 -14.147 QT
-28.506 -14.553 -27.694 -14.553 QT
-26.85 -14.553 -26.225 -14.116 QT
-25.6 -13.678 -25.6 -12.881 QT
-25.053 -13.663 -24.311 -14.108 QT
-23.569 -14.553 -22.678 -14.553 QT
-21.756 -14.553 -21.186 -14.045 QT
-20.616 -13.538 -20.616 -12.616 QT
-20.616 -11.881 -20.944 -10.834 QT
-21.272 -9.788 -21.772 -8.491 QT
-22.022 -7.866 -22.022 -7.413 QT
-22.022 -6.866 -21.6 -6.866 QT
-20.897 -6.866 -20.436 -7.624 QT
-19.975 -8.381 -19.772 -9.241 QT
-19.725 -9.35 -19.631 -9.35 QT
-19.412 -9.35 L
-19.35 -9.35 -19.303 -9.303 QT
-19.256 -9.256 -19.256 -9.194 QT
-19.256 -9.178 -19.272 -9.147 QT
-19.506 -8.116 -20.123 -7.256 QT
-20.741 -6.397 -21.647 -6.397 QT
-22.287 -6.397 -22.733 -6.834 QT
-23.178 -7.272 -23.178 -7.897 QT
-23.178 -8.209 -23.022 -8.6 QT
-22.522 -9.944 -22.178 -11.006 QT
-21.834 -12.069 -21.834 -12.881 QT
-21.834 -13.381 -22.037 -13.733 QT
-22.241 -14.084 -22.725 -14.084 QT
-23.709 -14.084 -24.428 -13.483 QT
-25.147 -12.881 -25.678 -11.897 QT
-25.709 -11.709 -25.725 -11.616 QT
-26.881 -6.991 L
-26.944 -6.756 -27.162 -6.577 QT
-27.381 -6.397 -27.647 -6.397 QT
-27.85 -6.397 -28.014 -6.538 QT
-28.178 -6.678 -28.178 -6.913 QT
-28.178 -7.006 -28.162 -7.069 QT
-27.006 -11.647 L
-26.819 -12.397 -26.819 -12.881 QT
-26.819 -13.381 -27.03 -13.733 QT
-27.241 -14.084 -27.725 -14.084 QT
-28.397 -14.084 -28.944 -13.795 QT
-29.491 -13.506 -29.905 -13.03 QT
-30.319 -12.553 -30.662 -11.897 QT
-31.881 -6.991 L
-31.944 -6.756 -32.162 -6.577 QT
-32.381 -6.397 -32.647 -6.397 QT
-32.866 -6.397 -33.022 -6.538 QT
-33.178 -6.678 -33.178 -6.913 QT
cp
f
GR
GS
[0.6 0 0 0.6 217.5002 21.75] CT
N
-14.847 -6.397 M
-15.706 -6.397 -16.355 -6.842 QT
-17.003 -7.288 -17.339 -8.053 QT
-17.675 -8.819 -17.675 -9.663 QT
-17.675 -10.944 -17.034 -12.069 QT
-16.394 -13.194 -15.284 -13.874 QT
-14.175 -14.553 -12.909 -14.553 QT
-12.128 -14.553 -11.558 -14.155 QT
-10.987 -13.756 -10.987 -13.006 QT
-10.987 -11.975 -11.808 -11.467 QT
-12.628 -10.959 -13.667 -10.842 QT
-14.706 -10.725 -15.972 -10.725 QT
-16.019 -10.725 L
-16.316 -9.647 -16.316 -8.881 QT
-16.316 -8.084 -15.941 -7.475 QT
-15.566 -6.866 -14.816 -6.866 QT
-13.737 -6.866 -12.753 -7.358 QT
-11.769 -7.85 -11.144 -8.725 QT
-11.081 -8.788 -11.003 -8.788 QT
-10.909 -8.788 -10.816 -8.686 QT
-10.722 -8.584 -10.722 -8.491 QT
-10.722 -8.413 -10.769 -8.381 QT
-11.425 -7.459 -12.542 -6.928 QT
-13.659 -6.397 -14.847 -6.397 QT
cp
-15.909 -11.194 M
-14.862 -11.194 -13.98 -11.288 QT
-13.097 -11.381 -12.37 -11.772 QT
-11.644 -12.163 -11.644 -12.991 QT
-11.644 -13.319 -11.831 -13.569 QT
-12.019 -13.819 -12.316 -13.952 QT
-12.612 -14.084 -12.925 -14.084 QT
-13.691 -14.084 -14.3 -13.67 QT
-14.909 -13.256 -15.308 -12.592 QT
-15.706 -11.928 -15.909 -11.194 QT
cp
f
GR
GS
[0.6 0 0 0.6 217.5002 21.75] CT
N
-6.81 -6.397 M
-7.935 -6.397 -8.592 -7.256 QT
-9.248 -8.116 -9.248 -9.288 QT
-9.248 -10.428 -8.654 -11.67 QT
-8.06 -12.913 -7.045 -13.733 QT
-6.029 -14.553 -4.857 -14.553 QT
-4.326 -14.553 -3.904 -14.264 QT
-3.482 -13.975 -3.232 -13.475 QT
-3.029 -14.194 -2.451 -14.194 QT
-2.217 -14.194 -2.06 -14.061 QT
-1.904 -13.928 -1.904 -13.694 QT
-1.904 -13.647 -1.912 -13.616 QT
-1.92 -13.584 -1.935 -13.553 QT
-3.185 -8.522 L
-3.31 -7.991 -3.31 -7.647 QT
-3.31 -6.866 -2.795 -6.866 QT
-2.232 -6.866 -1.935 -7.584 QT
-1.638 -8.303 -1.435 -9.241 QT
-1.404 -9.35 -1.295 -9.35 QT
-1.076 -9.35 L
-0.998 -9.35 -0.959 -9.288 QT
-0.92 -9.225 -0.92 -9.178 QT
-1.232 -7.913 -1.607 -7.155 QT
-1.982 -6.397 -2.826 -6.397 QT
-3.435 -6.397 -3.896 -6.756 QT
-4.357 -7.116 -4.482 -7.694 QT
-5.638 -6.397 -6.81 -6.397 QT
cp
-6.795 -6.866 M
-6.138 -6.866 -5.529 -7.358 QT
-4.92 -7.85 -4.482 -8.506 QT
-4.467 -8.522 -4.467 -8.553 QT
-3.498 -12.475 L
-3.482 -12.522 L
-3.576 -13.163 -3.935 -13.624 QT
-4.295 -14.084 -4.904 -14.084 QT
-5.498 -14.084 -6.021 -13.592 QT
-6.545 -13.1 -6.904 -12.413 QT
-7.263 -11.694 -7.584 -10.436 QT
-7.904 -9.178 -7.904 -8.491 QT
-7.904 -7.866 -7.638 -7.366 QT
-7.373 -6.866 -6.795 -6.866 QT
cp
f
GR
GS
[0.6 0 0 0.6 217.5002 21.75] CT
N
1.146 -6.913 M
1.146 -7.006 1.162 -7.069 QT
2.506 -12.444 L
2.646 -12.944 2.646 -13.319 QT
2.646 -14.084 2.115 -14.084 QT
1.552 -14.084 1.279 -13.413 QT
1.006 -12.741 0.756 -11.709 QT
0.756 -11.663 0.701 -11.631 QT
0.646 -11.6 0.599 -11.6 QT
0.396 -11.6 L
0.334 -11.6 0.287 -11.67 QT
0.24 -11.741 0.24 -11.788 QT
0.427 -12.569 0.607 -13.116 QT
0.787 -13.663 1.17 -14.108 QT
1.552 -14.553 2.131 -14.553 QT
2.802 -14.553 3.326 -14.131 QT
3.849 -13.709 3.849 -13.038 QT
4.381 -13.741 5.099 -14.147 QT
5.818 -14.553 6.631 -14.553 QT
7.271 -14.553 7.74 -14.334 QT
8.209 -14.116 8.466 -13.67 QT
8.724 -13.225 8.724 -12.616 QT
8.724 -11.881 8.396 -10.834 QT
8.068 -9.788 7.568 -8.491 QT
7.318 -7.897 7.318 -7.413 QT
7.318 -6.866 7.724 -6.866 QT
8.427 -6.866 8.896 -7.624 QT
9.365 -8.381 9.568 -9.241 QT
9.599 -9.35 9.709 -9.35 QT
9.927 -9.35 L
9.99 -9.35 10.045 -9.303 QT
10.099 -9.256 10.099 -9.194 QT
10.099 -9.178 10.068 -9.147 QT
9.834 -8.116 9.216 -7.256 QT
8.599 -6.397 7.693 -6.397 QT
7.052 -6.397 6.607 -6.834 QT
6.162 -7.272 6.162 -7.897 QT
6.162 -8.225 6.302 -8.6 QT
6.537 -9.178 6.826 -9.999 QT
7.115 -10.819 7.31 -11.569 QT
7.506 -12.319 7.506 -12.881 QT
7.506 -13.381 7.295 -13.733 QT
7.084 -14.084 6.599 -14.084 QT
5.927 -14.084 5.381 -13.795 QT
4.834 -13.506 4.42 -13.03 QT
4.006 -12.553 3.662 -11.897 QT
2.443 -6.991 L
2.381 -6.756 2.162 -6.577 QT
1.943 -6.397 1.677 -6.397 QT
1.459 -6.397 1.302 -6.538 QT
1.146 -6.678 1.146 -6.913 QT
cp
f
GR
GS
[0.6 0 0 0.6 217.5002 21.75] CT
N
19.996 -6.397 M
18.871 -6.397 18.215 -7.256 QT
17.558 -8.116 17.558 -9.288 QT
17.558 -10.428 18.152 -11.67 QT
18.746 -12.913 19.762 -13.733 QT
20.777 -14.553 21.949 -14.553 QT
22.48 -14.553 22.902 -14.256 QT
23.324 -13.959 23.574 -13.475 QT
24.574 -17.491 L
24.652 -17.803 24.668 -17.975 QT
24.668 -18.256 23.496 -18.256 QT
23.308 -18.256 23.308 -18.506 QT
23.324 -18.538 23.355 -18.655 QT
23.387 -18.772 23.433 -18.834 QT
23.48 -18.897 23.574 -18.897 QT
25.996 -19.084 L
26.215 -19.084 26.215 -18.866 QT
23.621 -8.506 L
23.496 -8.209 23.496 -7.647 QT
23.496 -6.866 24.012 -6.866 QT
24.574 -6.866 24.871 -7.584 QT
25.168 -8.303 25.371 -9.241 QT
25.402 -9.35 25.512 -9.35 QT
25.73 -9.35 L
25.808 -9.35 25.848 -9.288 QT
25.887 -9.225 25.887 -9.178 QT
25.574 -7.913 25.199 -7.155 QT
24.824 -6.397 23.98 -6.397 QT
23.371 -6.397 22.91 -6.756 QT
22.449 -7.116 22.324 -7.694 QT
21.168 -6.397 19.996 -6.397 QT
cp
20.012 -6.866 M
20.668 -6.866 21.277 -7.358 QT
21.887 -7.85 22.324 -8.506 QT
22.34 -8.522 22.34 -8.584 QT
23.324 -12.538 L
23.23 -13.178 22.871 -13.631 QT
22.512 -14.084 21.902 -14.084 QT
21.308 -14.084 20.785 -13.592 QT
20.262 -13.1 19.902 -12.413 QT
19.543 -11.694 19.223 -10.436 QT
18.902 -9.178 18.902 -8.491 QT
18.902 -7.866 19.168 -7.366 QT
19.433 -6.866 20.012 -6.866 QT
cp
f
GR
GS
[0.6 0 0 0.6 217.5002 21.75] CT
N
27.819 -7.897 M
27.819 -8.225 27.96 -8.6 QT
29.413 -12.475 L
29.663 -13.131 29.663 -13.553 QT
29.663 -14.084 29.257 -14.084 QT
28.554 -14.084 28.093 -13.35 QT
27.632 -12.616 27.413 -11.709 QT
27.366 -11.6 27.257 -11.6 QT
27.054 -11.6 L
26.898 -11.6 26.898 -11.772 QT
26.898 -11.819 L
27.194 -12.897 27.788 -13.725 QT
28.382 -14.553 29.304 -14.553 QT
29.944 -14.553 30.382 -14.131 QT
30.819 -13.709 30.819 -13.053 QT
30.819 -12.725 30.679 -12.35 QT
29.21 -8.491 L
28.976 -7.897 28.976 -7.413 QT
28.976 -6.866 29.382 -6.866 QT
30.085 -6.866 30.554 -7.624 QT
31.023 -8.381 31.226 -9.241 QT
31.257 -9.35 31.366 -9.35 QT
31.585 -9.35 L
31.648 -9.35 31.694 -9.303 QT
31.741 -9.256 31.741 -9.194 QT
31.741 -9.178 31.726 -9.147 QT
31.476 -8.116 30.866 -7.256 QT
30.257 -6.397 29.351 -6.397 QT
28.71 -6.397 28.265 -6.834 QT
27.819 -7.272 27.819 -7.897 QT
cp
29.851 -17.506 M
29.851 -17.881 30.163 -18.194 QT
30.476 -18.506 30.866 -18.506 QT
31.163 -18.506 31.366 -18.311 QT
31.569 -18.116 31.569 -17.834 QT
31.569 -17.428 31.249 -17.124 QT
30.929 -16.819 30.538 -16.819 QT
30.241 -16.819 30.046 -17.022 QT
29.851 -17.225 29.851 -17.506 QT
cp
f
GR
GS
[0.6 0 0 0.6 217.5002 21.75] CT
N
34.292 -7.694 M
34.776 -6.866 36.229 -6.866 QT
36.87 -6.866 37.44 -7.084 QT
38.011 -7.303 38.386 -7.733 QT
38.761 -8.163 38.761 -8.788 QT
38.761 -9.241 38.425 -9.545 QT
38.089 -9.85 37.604 -9.944 QT
36.636 -10.147 L
35.964 -10.303 35.534 -10.764 QT
35.104 -11.225 35.104 -11.881 QT
35.104 -12.678 35.542 -13.288 QT
35.979 -13.897 36.69 -14.225 QT
37.401 -14.553 38.167 -14.553 QT
38.979 -14.553 39.628 -14.163 QT
40.276 -13.772 40.276 -13.006 QT
40.276 -12.6 40.042 -12.28 QT
39.807 -11.959 39.386 -11.959 QT
39.151 -11.959 38.979 -12.116 QT
38.807 -12.272 38.807 -12.506 QT
38.807 -12.725 38.925 -12.92 QT
39.042 -13.116 39.245 -13.233 QT
39.448 -13.35 39.651 -13.35 QT
39.495 -13.741 39.057 -13.913 QT
38.62 -14.084 38.12 -14.084 QT
37.667 -14.084 37.214 -13.905 QT
36.761 -13.725 36.479 -13.366 QT
36.198 -13.006 36.198 -12.522 QT
36.198 -12.194 36.425 -11.952 QT
36.651 -11.709 36.995 -11.6 QT
38.042 -11.397 L
38.542 -11.288 38.956 -11.022 QT
39.37 -10.756 39.612 -10.342 QT
39.854 -9.928 39.854 -9.397 QT
39.854 -8.741 39.479 -8.084 QT
39.104 -7.428 38.573 -7.053 QT
37.604 -6.397 36.214 -6.397 QT
35.261 -6.397 34.464 -6.834 QT
33.667 -7.272 33.667 -8.147 QT
33.667 -8.647 33.948 -9.006 QT
34.229 -9.366 34.729 -9.366 QT
35.011 -9.366 35.214 -9.194 QT
35.417 -9.022 35.417 -8.725 QT
35.417 -8.319 35.104 -8.006 QT
34.792 -7.694 34.386 -7.694 QT
34.292 -7.694 L
cp
f
GR
GS
[0.6 0 0 0.6 217.5002 21.75] CT
N
40.87 -3.116 M
40.714 -3.116 40.714 -3.334 QT
40.776 -3.741 40.948 -3.741 QT
41.511 -3.741 41.737 -3.842 QT
41.964 -3.944 42.073 -4.35 QT
44.104 -12.459 L
44.245 -12.788 44.245 -13.319 QT
44.245 -14.084 43.714 -14.084 QT
43.151 -14.084 42.878 -13.413 QT
42.604 -12.741 42.354 -11.709 QT
42.354 -11.6 42.198 -11.6 QT
41.995 -11.6 L
41.948 -11.6 41.893 -11.67 QT
41.839 -11.741 41.839 -11.788 QT
42.042 -12.569 42.221 -13.116 QT
42.401 -13.663 42.784 -14.108 QT
43.167 -14.553 43.729 -14.553 QT
44.354 -14.553 44.815 -14.209 QT
45.276 -13.866 45.417 -13.256 QT
45.901 -13.834 46.503 -14.194 QT
47.104 -14.553 47.729 -14.553 QT
48.479 -14.553 49.042 -14.147 QT
49.604 -13.741 49.886 -13.092 QT
50.167 -12.444 50.167 -11.678 QT
50.167 -10.522 49.573 -9.28 QT
48.979 -8.038 47.964 -7.217 QT
46.948 -6.397 45.792 -6.397 QT
45.261 -6.397 44.831 -6.694 QT
44.401 -6.991 44.167 -7.475 QT
43.354 -4.272 L
43.307 -4.022 43.307 -3.975 QT
43.307 -3.741 44.495 -3.741 QT
44.667 -3.741 44.667 -3.506 QT
44.604 -3.272 44.565 -3.194 QT
44.526 -3.116 44.37 -3.116 QT
40.87 -3.116 L
cp
45.807 -6.866 M
46.432 -6.866 46.964 -7.381 QT
47.495 -7.897 47.839 -8.538 QT
48.089 -9.022 48.3 -9.725 QT
48.511 -10.428 48.667 -11.217 QT
48.823 -12.006 48.823 -12.475 QT
48.823 -12.881 48.714 -13.241 QT
48.604 -13.6 48.354 -13.842 QT
48.104 -14.084 47.698 -14.084 QT
47.042 -14.084 46.456 -13.616 QT
45.87 -13.147 45.386 -12.459 QT
45.386 -12.397 L
44.401 -8.413 L
44.526 -7.772 44.878 -7.319 QT
45.229 -6.866 45.807 -6.866 QT
cp
f
GR
GS
[0.6 0 0 0.6 217.5002 21.75] CT
N
51.344 -8.053 M
51.344 -8.116 51.352 -8.217 QT
51.359 -8.319 51.375 -8.42 QT
51.391 -8.522 51.391 -8.584 QT
53.625 -17.491 L
53.688 -17.803 53.719 -17.975 QT
53.719 -18.256 52.547 -18.256 QT
52.359 -18.256 52.359 -18.506 QT
52.375 -18.538 52.406 -18.655 QT
52.438 -18.772 52.484 -18.834 QT
52.531 -18.897 52.625 -18.897 QT
55.047 -19.084 L
55.266 -19.084 55.266 -18.866 QT
52.672 -8.506 L
52.547 -8.225 52.547 -7.647 QT
52.547 -6.866 53.063 -6.866 QT
53.625 -6.866 53.899 -7.561 QT
54.172 -8.256 54.391 -9.241 QT
54.438 -9.35 54.547 -9.35 QT
54.75 -9.35 L
54.828 -9.35 54.875 -9.295 QT
54.922 -9.241 54.922 -9.178 QT
54.719 -8.303 54.547 -7.795 QT
54.375 -7.288 53.992 -6.842 QT
53.609 -6.397 53.031 -6.397 QT
52.313 -6.397 51.828 -6.866 QT
51.344 -7.334 51.344 -8.053 QT
cp
f
GR
GS
[0.6 0 0 0.6 217.5002 21.75] CT
N
59.503 -6.397 M
58.378 -6.397 57.722 -7.256 QT
57.066 -8.116 57.066 -9.288 QT
57.066 -10.428 57.659 -11.67 QT
58.253 -12.913 59.269 -13.733 QT
60.284 -14.553 61.456 -14.553 QT
61.987 -14.553 62.409 -14.264 QT
62.831 -13.975 63.081 -13.475 QT
63.284 -14.194 63.862 -14.194 QT
64.097 -14.194 64.253 -14.061 QT
64.409 -13.928 64.409 -13.694 QT
64.409 -13.647 64.401 -13.616 QT
64.394 -13.584 64.378 -13.553 QT
63.128 -8.522 L
63.003 -7.991 63.003 -7.647 QT
63.003 -6.866 63.519 -6.866 QT
64.081 -6.866 64.378 -7.584 QT
64.675 -8.303 64.878 -9.241 QT
64.909 -9.35 65.019 -9.35 QT
65.237 -9.35 L
65.316 -9.35 65.355 -9.288 QT
65.394 -9.225 65.394 -9.178 QT
65.081 -7.913 64.706 -7.155 QT
64.331 -6.397 63.487 -6.397 QT
62.878 -6.397 62.417 -6.756 QT
61.956 -7.116 61.831 -7.694 QT
60.675 -6.397 59.503 -6.397 QT
cp
59.519 -6.866 M
60.175 -6.866 60.784 -7.358 QT
61.394 -7.85 61.831 -8.506 QT
61.847 -8.522 61.847 -8.553 QT
62.816 -12.475 L
62.831 -12.522 L
62.737 -13.163 62.378 -13.624 QT
62.019 -14.084 61.409 -14.084 QT
60.816 -14.084 60.292 -13.592 QT
59.769 -13.1 59.409 -12.413 QT
59.05 -11.694 58.73 -10.436 QT
58.409 -9.178 58.409 -8.491 QT
58.409 -7.866 58.675 -7.366 QT
58.941 -6.866 59.519 -6.866 QT
cp
f
GR
GS
[0.6 0 0 0.6 217.5002 21.75] CT
N
68.178 -8.741 M
68.178 -7.959 68.577 -7.413 QT
68.975 -6.866 69.725 -6.866 QT
70.803 -6.866 71.788 -7.358 QT
72.772 -7.85 73.397 -8.725 QT
73.459 -8.788 73.538 -8.788 QT
73.631 -8.788 73.725 -8.686 QT
73.819 -8.584 73.819 -8.491 QT
73.819 -8.413 73.772 -8.381 QT
73.116 -7.459 71.999 -6.928 QT
70.881 -6.397 69.694 -6.397 QT
68.834 -6.397 68.17 -6.803 QT
67.506 -7.209 67.147 -7.897 QT
66.788 -8.584 66.788 -9.444 QT
66.788 -10.663 67.467 -11.858 QT
68.147 -13.053 69.272 -13.803 QT
70.397 -14.553 71.631 -14.553 QT
72.444 -14.553 73.092 -14.163 QT
73.741 -13.772 73.741 -13.006 QT
73.741 -12.522 73.452 -12.17 QT
73.163 -11.819 72.678 -11.819 QT
72.381 -11.819 72.186 -11.999 QT
71.991 -12.178 71.991 -12.475 QT
71.991 -12.897 72.303 -13.194 QT
72.616 -13.491 73.022 -13.491 QT
73.053 -13.491 L
72.85 -13.803 72.452 -13.944 QT
72.053 -14.084 71.616 -14.084 QT
70.553 -14.084 69.764 -13.186 QT
68.975 -12.288 68.577 -11.038 QT
68.178 -9.788 68.178 -8.741 QT
cp
f
GR
GS
[0.6 0 0 0.6 217.5002 21.75] CT
N
77.628 -6.397 M
76.768 -6.397 76.12 -6.842 QT
75.471 -7.288 75.135 -8.053 QT
74.8 -8.819 74.8 -9.663 QT
74.8 -10.944 75.44 -12.069 QT
76.081 -13.194 77.19 -13.874 QT
78.3 -14.553 79.565 -14.553 QT
80.346 -14.553 80.917 -14.155 QT
81.487 -13.756 81.487 -13.006 QT
81.487 -11.975 80.667 -11.467 QT
79.846 -10.959 78.807 -10.842 QT
77.768 -10.725 76.503 -10.725 QT
76.456 -10.725 L
76.159 -9.647 76.159 -8.881 QT
76.159 -8.084 76.534 -7.475 QT
76.909 -6.866 77.659 -6.866 QT
78.737 -6.866 79.721 -7.358 QT
80.706 -7.85 81.331 -8.725 QT
81.393 -8.788 81.471 -8.788 QT
81.565 -8.788 81.659 -8.686 QT
81.753 -8.584 81.753 -8.491 QT
81.753 -8.413 81.706 -8.381 QT
81.05 -7.459 79.932 -6.928 QT
78.815 -6.397 77.628 -6.397 QT
cp
76.565 -11.194 M
77.612 -11.194 78.495 -11.288 QT
79.378 -11.381 80.104 -11.772 QT
80.831 -12.163 80.831 -12.991 QT
80.831 -13.319 80.643 -13.569 QT
80.456 -13.819 80.159 -13.952 QT
79.862 -14.084 79.55 -14.084 QT
78.784 -14.084 78.175 -13.67 QT
77.565 -13.256 77.167 -12.592 QT
76.768 -11.928 76.565 -11.194 QT
cp
f
GR
GS
[0.6 0 0 0.6 217.5002 21.75] CT
N
83.93 -6.913 M
83.93 -7.006 83.945 -7.069 QT
85.289 -12.444 L
85.43 -12.944 85.43 -13.319 QT
85.43 -14.084 84.899 -14.084 QT
84.336 -14.084 84.063 -13.413 QT
83.789 -12.741 83.539 -11.709 QT
83.539 -11.663 83.484 -11.631 QT
83.43 -11.6 83.383 -11.6 QT
83.18 -11.6 L
83.117 -11.6 83.07 -11.67 QT
83.024 -11.741 83.024 -11.788 QT
83.211 -12.569 83.391 -13.116 QT
83.57 -13.663 83.953 -14.108 QT
84.336 -14.553 84.914 -14.553 QT
85.586 -14.553 86.109 -14.131 QT
86.633 -13.709 86.633 -13.038 QT
87.164 -13.741 87.883 -14.147 QT
88.602 -14.553 89.414 -14.553 QT
90.258 -14.553 90.883 -14.116 QT
91.508 -13.678 91.508 -12.881 QT
92.055 -13.663 92.797 -14.108 QT
93.539 -14.553 94.43 -14.553 QT
95.352 -14.553 95.922 -14.045 QT
96.492 -13.538 96.492 -12.616 QT
96.492 -11.881 96.164 -10.834 QT
95.836 -9.788 95.336 -8.491 QT
95.086 -7.866 95.086 -7.413 QT
95.086 -6.866 95.508 -6.866 QT
96.211 -6.866 96.672 -7.624 QT
97.133 -8.381 97.336 -9.241 QT
97.383 -9.35 97.477 -9.35 QT
97.695 -9.35 L
97.758 -9.35 97.805 -9.303 QT
97.852 -9.256 97.852 -9.194 QT
97.852 -9.178 97.836 -9.147 QT
97.602 -8.116 96.984 -7.256 QT
96.367 -6.397 95.461 -6.397 QT
94.82 -6.397 94.375 -6.834 QT
93.93 -7.272 93.93 -7.897 QT
93.93 -8.209 94.086 -8.6 QT
94.586 -9.944 94.93 -11.006 QT
95.274 -12.069 95.274 -12.881 QT
95.274 -13.381 95.07 -13.733 QT
94.867 -14.084 94.383 -14.084 QT
93.399 -14.084 92.68 -13.483 QT
91.961 -12.881 91.43 -11.897 QT
91.399 -11.709 91.383 -11.616 QT
90.227 -6.991 L
90.164 -6.756 89.945 -6.577 QT
89.727 -6.397 89.461 -6.397 QT
89.258 -6.397 89.094 -6.538 QT
88.93 -6.678 88.93 -6.913 QT
88.93 -7.006 88.945 -7.069 QT
90.102 -11.647 L
90.289 -12.397 90.289 -12.881 QT
90.289 -13.381 90.078 -13.733 QT
89.867 -14.084 89.383 -14.084 QT
88.711 -14.084 88.164 -13.795 QT
87.617 -13.506 87.203 -13.03 QT
86.789 -12.553 86.445 -11.897 QT
85.227 -6.991 L
85.164 -6.756 84.945 -6.577 QT
84.727 -6.397 84.461 -6.397 QT
84.242 -6.397 84.086 -6.538 QT
83.93 -6.678 83.93 -6.913 QT
cp
f
GR
GS
[0.6 0 0 0.6 217.5002 21.75] CT
N
102.261 -6.397 M
101.402 -6.397 100.753 -6.842 QT
100.105 -7.288 99.769 -8.053 QT
99.433 -8.819 99.433 -9.663 QT
99.433 -10.944 100.074 -12.069 QT
100.714 -13.194 101.824 -13.874 QT
102.933 -14.553 104.199 -14.553 QT
104.98 -14.553 105.55 -14.155 QT
106.12 -13.756 106.12 -13.006 QT
106.12 -11.975 105.3 -11.467 QT
104.48 -10.959 103.441 -10.842 QT
102.402 -10.725 101.136 -10.725 QT
101.089 -10.725 L
100.792 -9.647 100.792 -8.881 QT
100.792 -8.084 101.167 -7.475 QT
101.542 -6.866 102.292 -6.866 QT
103.37 -6.866 104.355 -7.358 QT
105.339 -7.85 105.964 -8.725 QT
106.027 -8.788 106.105 -8.788 QT
106.199 -8.788 106.292 -8.686 QT
106.386 -8.584 106.386 -8.491 QT
106.386 -8.413 106.339 -8.381 QT
105.683 -7.459 104.566 -6.928 QT
103.449 -6.397 102.261 -6.397 QT
cp
101.199 -11.194 M
102.245 -11.194 103.128 -11.288 QT
104.011 -11.381 104.738 -11.772 QT
105.464 -12.163 105.464 -12.991 QT
105.464 -13.319 105.277 -13.569 QT
105.089 -13.819 104.792 -13.952 QT
104.495 -14.084 104.183 -14.084 QT
103.417 -14.084 102.808 -13.67 QT
102.199 -13.256 101.8 -12.592 QT
101.402 -11.928 101.199 -11.194 QT
cp
f
GR
GS
[0.6 0 0 0.6 217.5002 21.75] CT
N
108.563 -6.913 M
108.563 -7.006 108.579 -7.069 QT
109.923 -12.444 L
110.063 -12.944 110.063 -13.319 QT
110.063 -14.084 109.532 -14.084 QT
108.969 -14.084 108.696 -13.413 QT
108.423 -12.741 108.173 -11.709 QT
108.173 -11.663 108.118 -11.631 QT
108.063 -11.6 108.016 -11.6 QT
107.813 -11.6 L
107.751 -11.6 107.704 -11.67 QT
107.657 -11.741 107.657 -11.788 QT
107.844 -12.569 108.024 -13.116 QT
108.204 -13.663 108.587 -14.108 QT
108.969 -14.553 109.548 -14.553 QT
110.219 -14.553 110.743 -14.131 QT
111.266 -13.709 111.266 -13.038 QT
111.798 -13.741 112.516 -14.147 QT
113.235 -14.553 114.048 -14.553 QT
114.688 -14.553 115.157 -14.334 QT
115.626 -14.116 115.884 -13.67 QT
116.141 -13.225 116.141 -12.616 QT
116.141 -11.881 115.813 -10.834 QT
115.485 -9.788 114.985 -8.491 QT
114.735 -7.897 114.735 -7.413 QT
114.735 -6.866 115.141 -6.866 QT
115.844 -6.866 116.313 -7.624 QT
116.782 -8.381 116.985 -9.241 QT
117.016 -9.35 117.126 -9.35 QT
117.344 -9.35 L
117.407 -9.35 117.462 -9.303 QT
117.516 -9.256 117.516 -9.194 QT
117.516 -9.178 117.485 -9.147 QT
117.251 -8.116 116.634 -7.256 QT
116.016 -6.397 115.11 -6.397 QT
114.469 -6.397 114.024 -6.834 QT
113.579 -7.272 113.579 -7.897 QT
113.579 -8.225 113.719 -8.6 QT
113.954 -9.178 114.243 -9.999 QT
114.532 -10.819 114.727 -11.569 QT
114.923 -12.319 114.923 -12.881 QT
114.923 -13.381 114.712 -13.733 QT
114.501 -14.084 114.016 -14.084 QT
113.344 -14.084 112.798 -13.795 QT
112.251 -13.506 111.837 -13.03 QT
111.423 -12.553 111.079 -11.897 QT
109.86 -6.991 L
109.798 -6.756 109.579 -6.577 QT
109.36 -6.397 109.094 -6.397 QT
108.876 -6.397 108.719 -6.538 QT
108.563 -6.678 108.563 -6.913 QT
cp
f
GR
GS
[0.6 0 0 0.6 217.5002 21.75] CT
N
119.286 -8.053 M
119.286 -8.319 119.349 -8.553 QT
120.646 -13.725 L
118.755 -13.725 L
118.568 -13.725 118.568 -13.959 QT
118.646 -14.366 118.818 -14.366 QT
120.802 -14.366 L
121.521 -17.303 L
121.599 -17.538 121.81 -17.702 QT
122.021 -17.866 122.286 -17.866 QT
122.505 -17.866 122.661 -17.733 QT
122.818 -17.6 122.818 -17.366 QT
122.818 -17.319 122.81 -17.288 QT
122.802 -17.256 122.802 -17.225 QT
122.083 -14.366 L
123.927 -14.366 L
124.114 -14.366 124.114 -14.131 QT
124.114 -14.084 124.083 -13.975 QT
124.052 -13.866 124.013 -13.795 QT
123.974 -13.725 123.88 -13.725 QT
121.927 -13.725 L
120.63 -8.522 L
120.505 -8.022 120.505 -7.647 QT
120.505 -6.866 121.021 -6.866 QT
121.818 -6.866 122.427 -7.616 QT
123.036 -8.366 123.364 -9.241 QT
123.427 -9.35 123.505 -9.35 QT
123.724 -9.35 L
123.786 -9.35 123.833 -9.303 QT
123.88 -9.256 123.88 -9.194 QT
123.88 -9.163 123.864 -9.147 QT
123.474 -8.053 122.716 -7.225 QT
121.958 -6.397 120.974 -6.397 QT
120.271 -6.397 119.778 -6.866 QT
119.286 -7.334 119.286 -8.053 QT
cp
f
GR
GS
[0.6 0 0 0.6 0 0] CT
0 0.447 0.741 RC
1 LJ
0.833 LW
N
91 39 M
96.43 101.038 L
107.29 136.961 L
112.72 225.216 L
123.58 280.798 L
129.01 282.003 L
139.87 292.962 L
145.3 311.676 L
150.73 353.129 L
161.59 339.702 L
167.02 343.984 L
177.88 339.384 L
183.31 342.866 L
194.17 339.73 L
199.6 340.571 L
205.03 339.083 L
215.89 340.313 L
221.32 339.686 L
232.18 340.145 L
237.61 339.645 L
248.47 339.99 L
253.9 339.854 L
259.33 340.337 L
270.19 340.099 L
275.62 340.339 L
286.48 340.448 L
291.91 340.472 L
302.77 340.415 L
308.2 340.364 L
313.63 340.426 L
324.49 340.461 L
329.92 340.406 L
340.78 340.468 L
346.21 340.435 L
357.07 340.463 L
362.5 340.494 L
367.93 340.465 L
378.79 340.543 L
384.22 341.744 L
395.08 346.361 L
400.51 330.675 L
411.37 333.431 L
416.8 340.895 L
422.23 343.028 L
433.09 364.882 L
438.52 399.03 L
449.38 374.916 L
454.81 384.196 L
465.67 375.876 L
471.1 381.022 L
476.53 378.653 L
487.39 376.944 L
492.82 378.178 L
503.68 377.838 L
509.11 378.94 L
519.97 378.662 L
525.4 378.109 L
530.83 378.28 L
541.69 378.174 L
547.12 378.769 L
557.98 378.731 L
563.41 378.692 L
574.27 378.728 L
579.7 378.694 L
585.13 378.671 L
595.99 378.738 L
601.42 378.705 L
612.28 378.722 L
617.71 378.715 L
628.57 378.713 L
634 378.71 L
S
GR
GS
[0.6 0 0 0.6 0 0] CT
0.851 0.325 0.098 RC
1 LJ
0.833 LW
N
91 39 M
96.43 101.466 L
107.29 137.359 L
112.72 226.26 L
123.58 281.945 L
129.01 283.253 L
139.87 294.313 L
145.3 313.316 L
150.73 357.58 L
161.59 343.991 L
167.02 348.396 L
177.88 343.545 L
183.31 347.243 L
194.17 344.035 L
199.6 344.857 L
205.03 343.459 L
215.89 344.601 L
221.32 344.011 L
232.18 344.558 L
237.61 344.061 L
248.47 344.306 L
253.9 344.293 L
259.33 344.809 L
270.19 344.516 L
275.62 344.846 L
286.48 344.799 L
291.91 344.767 L
302.77 344.92 L
308.2 344.844 L
313.63 344.878 L
324.49 344.904 L
329.92 344.89 L
340.78 344.991 L
346.21 344.875 L
357.07 345.034 L
362.5 344.971 L
367.93 344.963 L
378.79 344.972 L
384.22 346.314 L
395.08 351.813 L
400.51 335.866 L
411.37 338.747 L
416.8 346.242 L
422.23 348.377 L
433.09 370.971 L
438.52 408.178 L
449.38 383.559 L
454.81 392.853 L
465.67 384.605 L
471.1 389.657 L
476.53 387.281 L
487.39 385.735 L
492.82 386.836 L
503.68 386.592 L
509.11 387.565 L
519.97 387.411 L
525.4 386.732 L
530.83 387.009 L
541.69 386.797 L
547.12 387.547 L
557.98 387.36 L
563.41 387.422 L
574.27 387.465 L
579.7 387.344 L
585.13 387.356 L
595.99 387.43 L
601.42 387.332 L
612.28 387.443 L
617.71 387.372 L
628.57 387.419 L
634 387.36 L
S
GR
GS
[0.6 0 0 0.6 0 0] CT
0.929 0.694 0.125 RC
1 LJ
0.833 LW
N
91 39 M
96.43 101.475 L
107.29 137.394 L
112.72 226.662 L
123.58 281.291 L
129.01 282.559 L
139.87 293.558 L
145.3 312.759 L
150.73 356.734 L
161.59 343.107 L
167.02 347.548 L
177.88 342.658 L
183.31 346.341 L
194.17 343.241 L
199.6 344.087 L
205.03 342.59 L
215.89 343.812 L
221.32 343.244 L
232.18 343.779 L
237.61 343.35 L
248.47 343.649 L
253.9 343.594 L
259.33 344.095 L
270.19 343.916 L
275.62 344.143 L
286.48 344.367 L
291.91 344.235 L
302.77 344.373 L
308.2 344.391 L
313.63 344.4 L
324.49 344.499 L
329.92 344.468 L
340.78 344.567 L
346.21 344.513 L
357.07 344.6 L
362.5 344.612 L
367.93 344.686 L
378.79 344.764 L
384.22 346.075 L
395.08 353.615 L
400.51 337.867 L
411.37 340.724 L
416.8 348.142 L
422.23 350.381 L
433.09 373.059 L
438.52 410.848 L
449.38 386.289 L
454.81 395.669 L
465.67 387.304 L
471.1 392.498 L
476.53 390.097 L
487.39 388.431 L
492.82 389.72 L
503.68 389.319 L
509.11 390.55 L
519.97 390.165 L
525.4 389.748 L
530.83 389.792 L
541.69 389.893 L
547.12 390.296 L
557.98 390.451 L
563.41 390.248 L
574.27 390.461 L
579.7 390.356 L
585.13 390.37 L
595.99 390.494 L
601.42 390.413 L
612.28 390.529 L
617.71 390.443 L
628.57 390.545 L
634 390.462 L
S
GR
GS
[0.6 0 0 0.6 0 0] CT
0.494 0.184 0.557 RC
1 LJ
0.833 LW
N
91 39 M
96.43 101.193 L
107.29 137.186 L
112.72 230.616 L
123.58 288.457 L
129.01 289.872 L
139.87 300.722 L
145.3 319.695 L
150.73 364.09 L
161.59 350.941 L
167.02 354.96 L
177.88 350.26 L
183.31 353.832 L
194.17 350.73 L
199.6 351.49 L
205.03 350.058 L
215.89 351.26 L
221.32 350.584 L
232.18 351.213 L
237.61 350.641 L
248.47 350.86 L
253.9 350.965 L
259.33 351.535 L
270.19 351.052 L
275.62 351.509 L
286.48 351.424 L
291.91 351.373 L
302.77 351.538 L
308.2 351.352 L
313.63 351.37 L
324.49 351.436 L
329.92 351.443 L
340.78 351.416 L
346.21 351.427 L
357.07 351.417 L
362.5 351.418 L
367.93 351.525 L
378.79 351.511 L
384.22 352.729 L
395.08 358.184 L
400.51 342.168 L
411.37 345.094 L
416.8 352.401 L
422.23 354.616 L
433.09 376.675 L
438.52 413.363 L
449.38 388.932 L
454.81 398.31 L
465.67 389.944 L
471.1 395.107 L
476.53 392.67 L
487.39 391.038 L
492.82 392.242 L
503.68 391.884 L
509.11 393.005 L
519.97 392.716 L
525.4 392.173 L
530.83 392.4 L
541.69 392.274 L
547.12 392.86 L
557.98 392.798 L
563.41 392.812 L
574.27 392.77 L
579.7 392.75 L
585.13 392.799 L
595.99 392.838 L
601.42 392.778 L
612.28 392.84 L
617.71 392.755 L
628.57 392.856 L
634 392.748 L
S
GR
GS
[0.6 0 0 0.6 0 0] CT
0.467 0.675 0.188 RC
1 LJ
0.833 LW
N
91 39 M
96.43 101.214 L
107.29 137.277 L
112.72 229.819 L
123.58 287.698 L
129.01 289.033 L
139.87 300.04 L
145.3 318.972 L
150.73 363.778 L
161.59 350.629 L
167.02 354.729 L
177.88 349.964 L
183.31 353.644 L
194.17 350.404 L
199.6 351.368 L
205.03 349.855 L
215.89 351.202 L
221.32 350.487 L
232.18 351.06 L
237.61 350.513 L
248.47 350.749 L
253.9 350.726 L
259.33 351.312 L
270.19 350.924 L
275.62 351.309 L
286.48 351.331 L
291.91 351.34 L
302.77 351.356 L
308.2 351.295 L
313.63 351.295 L
324.49 351.406 L
329.92 351.354 L
340.78 351.421 L
346.21 351.415 L
357.07 351.406 L
362.5 351.431 L
367.93 351.451 L
378.79 351.443 L
384.22 352.788 L
395.08 360.802 L
400.51 344.523 L
411.37 347.431 L
416.8 354.724 L
422.23 356.963 L
433.09 379.739 L
438.52 419.29 L
449.38 394.854 L
454.81 404.077 L
465.67 395.918 L
471.1 400.897 L
476.53 398.513 L
487.39 396.877 L
492.82 398.105 L
503.68 397.754 L
509.11 398.929 L
519.97 398.617 L
525.4 398.09 L
530.83 398.244 L
541.69 398.18 L
547.12 398.759 L
557.98 398.716 L
563.41 398.706 L
574.27 398.717 L
579.7 398.679 L
585.13 398.642 L
595.99 398.742 L
601.42 398.639 L
612.28 398.731 L
617.71 398.656 L
628.57 398.773 L
634 398.717 L
S
GR
GS
[0.6 0 0 0.6 0 0] CT
1 GC
N
621 160 M
621 52 L
486 52 L
486 160 L
cp
f
GR
GS
[0.6 0 0 0.6 326.91541 38.73488] CT
/Helvetica 15 F
GS
[1 0 0 1 0 0] CT
0 6 moveto 
1 -1 scale
(0,00\272) t 
GR
GR
GS
[0.6 0 0 0.6 0 0] CT
0 0.447 0.741 RC
1 LJ
0.833 LW
N
491.009 64.558 M
541.102 64.558 L
S
GR
GS
[0.6 0 0 0.6 326.91541 51.16745] CT
/Helvetica 15 F
GS
[1 0 0 1 0 0] CT
0 6 moveto 
1 -1 scale
(0,25\272 conc) t 
GR
GR
GS
[0.6 0 0 0.6 0 0] CT
0.851 0.325 0.098 RC
1 LJ
0.833 LW
N
491.009 85.279 M
541.102 85.279 L
S
GR
GS
[0.6 0 0 0.6 326.91541 63.6] CT
/Helvetica 15 F
GS
[1 0 0 1 0 0] CT
0 6 moveto 
1 -1 scale
(0,25\272 ecc) t 
GR
GR
GS
[0.6 0 0 0.6 0 0] CT
0.929 0.694 0.125 RC
1 LJ
0.833 LW
N
491.009 106 M
541.102 106 L
S
GR
GS
[0.6 0 0 0.6 326.91541 76.03256] CT
/Helvetica 15 F
GS
[1 0 0 1 0 0] CT
0 6 moveto 
1 -1 scale
(0,50\272 conc) t 
GR
GR
GS
[0.6 0 0 0.6 0 0] CT
0.494 0.184 0.557 RC
1 LJ
0.833 LW
N
491.009 126.721 M
541.102 126.721 L
S
GR
GS
[0.6 0 0 0.6 326.91541 88.46512] CT
/Helvetica 15 F
GS
[1 0 0 1 0 0] CT
0 6 moveto 
1 -1 scale
(0,50\272 ecc) t 
GR
GR
GS
[0.6 0 0 0.6 0 0] CT
0.467 0.675 0.188 RC
1 LJ
0.833 LW
N
491.009 147.442 M
541.102 147.442 L
S
GR
GS
[0.6 0 0 0.6 0 0] CT
0.149 GC
10.0 ML
0.833 LW
N
486 160 M
486 52 L
621 52 L
621 160 L
cp
S
GR
%%Trailer
%%Pages: 1
%%EOF
